PCBNEW-LibModule-V1  Втр 17 Фев 2015 12:33:12
# encoding utf-8
$INDEX
POT
$EndINDEX
$MODULE POT
Po 0 0 0 15 54E2D217 54E2D1D4 ~~
Li POT
Sc 54E2D1D4
AR 
Op 0 0 0
T0 0 -1500 600 600 0 120 N V 21 N "POT"
T1 0 2000 600 600 0 120 N V 21 N "VAL**"
$PAD
Sh "2" C 1000 1000 0 0 0
Dr 320 0 0
At STD N 00E0FFFF
Ne 0 ""
Po 0 0
$EndPAD
$PAD
Sh "3" C 1000 1000 0 0 0
Dr 320 0 0
At STD N 00E0FFFF
Ne 0 ""
Po 2000 0
$EndPAD
$PAD
Sh "1" C 1000 1000 0 0 0
Dr 320 0 0
At STD N 00E0FFFF
Ne 0 ""
Po -2000 0
$EndPAD
$EndMODULE  POT
$EndLIBRARY
