PCBNEW-LibModule-V1  Втр 17 Фев 2015 12:49:15
# encoding utf-8
$INDEX
SPK
$EndINDEX
$MODULE SPK
Po 0 0 0 15 54E2D652 00000000 ~~
Li SPK
Sc 00000000
AR 
Op 0 0 0
T0 0 1500 600 600 0 120 N V 21 N "SPK"
T1 0 -1000 600 600 0 120 N V 21 N "VAL**"
DC 0 0 2000 -500 150 21
$PAD
Sh "1" C 600 600 0 0 0
Dr 320 0 0
At STD N 00E0FFFF
Ne 0 ""
Po -1500 0
$EndPAD
$PAD
Sh "2" C 600 600 0 0 0
Dr 320 0 0
At STD N 00E0FFFF
Ne 0 ""
Po 1500 0
$EndPAD
$EndMODULE  SPK
$EndLIBRARY
