PCBNEW-LibModule-V1  Втр 17 Фев 2015 12:47:04
# encoding utf-8
$INDEX
SW_blue
$EndINDEX
$MODULE SW_blue
Po 0 0 0 15 54E2D5C9 00000000 ~~
Li SW_blue
Sc 00000000
AR 
Op 0 0 0
T0 0 1000 600 600 0 120 N V 21 N "SW_blue"
T1 0 2000 600 600 0 120 N V 21 N "VAL**"
$PAD
Sh "" C 1000 1000 0 0 0
Dr 320 0 0
At STD N 00E0FFFF
Ne 0 ""
Po -1000 0
$EndPAD
$PAD
Sh "" C 1000 1000 0 0 0
Dr 320 0 0
At STD N 00E0FFFF
Ne 0 ""
Po 1000 0
$EndPAD
$PAD
Sh "3" C 1000 1000 0 0 0
Dr 320 0 0
At STD N 00E0FFFF
Ne 0 ""
Po 0 -5000
$EndPAD
$PAD
Sh "2" C 1000 1000 0 0 0
Dr 320 0 0
At STD N 00E0FFFF
Ne 0 ""
Po 0 -6500
$EndPAD
$PAD
Sh "1" C 1000 1000 0 0 0
Dr 320 0 0
At STD N 00E0FFFF
Ne 0 ""
Po 0 -8000
$EndPAD
$EndMODULE  SW_blue
$EndLIBRARY
