EESchema Schematic File Version 2  date Втр 17 Фев 2015 18:07:54
LIBS:power
LIBS:device
LIBS:transistors
LIBS:conn
LIBS:linear
LIBS:regul
LIBS:74xx
LIBS:cmos4000
LIBS:adc-dac
LIBS:memory
LIBS:xilinx
LIBS:special
LIBS:microcontrollers
LIBS:dsp
LIBS:microchip
LIBS:analog_switches
LIBS:motorola
LIBS:texas
LIBS:intel
LIBS:audio
LIBS:interface
LIBS:digital-audio
LIBS:philips
LIBS:display
LIBS:cypress
LIBS:siliconi
LIBS:opto
LIBS:atmel
LIBS:contrib
LIBS:valves
EELAYER 43  0
EELAYER END
$Descr A4 11700 8267
encoding utf-8
Sheet 1 1
Title ""
Date "17 feb 2015"
Rev ""
Comp ""
Comment1 ""
Comment2 ""
Comment3 ""
Comment4 ""
$EndDescr
Connection ~ 2300 3600
Wire Wire Line
	2300 3600 2300 3900
Wire Wire Line
	2300 3900 1300 3900
Wire Wire Line
	1300 3900 1300 3600
Wire Wire Line
	3500 3950 3450 3950
Connection ~ 6200 4700
Wire Wire Line
	6200 4700 6200 4200
Wire Wire Line
	6200 4200 5250 4200
Wire Wire Line
	6350 5300 6350 4900
Wire Wire Line
	5250 4900 5250 5300
Wire Wire Line
	4250 3100 4250 3750
Connection ~ 3300 3600
Wire Wire Line
	3300 3700 3300 3500
Connection ~ 2600 3600
Wire Wire Line
	2900 3600 2100 3600
Wire Wire Line
	2600 4900 2600 5300
Wire Wire Line
	2600 3600 2600 3900
Wire Wire Line
	2400 4300 2400 4400
Connection ~ 2200 3200
Wire Wire Line
	2200 3100 2200 3300
Wire Wire Line
	2200 3300 2100 3300
Wire Wire Line
	1400 5050 1400 5200
Wire Wire Line
	1400 5200 1700 5200
Wire Wire Line
	1700 5200 1700 5150
Connection ~ 2200 3700
Wire Wire Line
	2200 3700 1200 3700
Wire Wire Line
	1200 3700 1200 3400
Wire Wire Line
	1200 3400 1300 3400
Wire Wire Line
	2100 3400 2200 3400
Wire Wire Line
	2200 3400 2200 5300
Wire Wire Line
	2000 5150 2000 5300
Wire Wire Line
	1300 3300 1200 3300
Wire Wire Line
	1200 3300 1200 3200
Wire Wire Line
	1200 3200 2200 3200
Wire Wire Line
	2400 3500 2400 3900
Wire Wire Line
	2400 4900 2400 5300
Wire Wire Line
	2600 4300 2600 4400
Wire Wire Line
	2500 3500 2100 3500
Connection ~ 2400 3500
Wire Wire Line
	3300 3500 2900 3500
Wire Wire Line
	3300 4200 3300 5300
Wire Wire Line
	4250 4150 4250 4300
Wire Wire Line
	5250 4400 5250 4700
Wire Wire Line
	6050 5300 6050 5100
Wire Wire Line
	6350 4700 6050 4700
Wire Wire Line
	1300 3500 1100 3500
Wire Wire Line
	1100 3500 1100 3800
Wire Wire Line
	1100 3800 2400 3800
Connection ~ 2400 3800
Wire Wire Line
	3950 3950 4000 3950
$Comp
L R R3
U 1 1 54E2CDA2
P 3750 3950
F 0 "R3" V 3830 3950 50  0000 C CNN
F 1 "1k" V 3750 3950 50  0000 C CNN
	1    3750 3950
	0    -1   -1   0   
$EndComp
$Comp
L GND #PWR01
U 1 1 54E2CC75
P 6350 5300
F 0 "#PWR01" H 6350 5300 30  0001 C CNN
F 1 "GND" H 6350 5230 30  0001 C CNN
	1    6350 5300
	1    0    0    -1  
$EndComp
$Comp
L DIODE D5
U 1 1 54E2CC63
P 6050 4900
F 0 "D5" H 6050 5000 40  0000 C CNN
F 1 "DIODE" H 6050 4800 40  0000 C CNN
	1    6050 4900
	0    -1   -1   0   
$EndComp
$Comp
L GND #PWR02
U 1 1 54E2CC35
P 5250 5300
F 0 "#PWR02" H 5250 5300 30  0001 C CNN
F 1 "GND" H 5250 5230 30  0001 C CNN
	1    5250 5300
	1    0    0    -1  
$EndComp
$Comp
L +12V #PWR03
U 1 1 54E2CC16
P 4250 3100
F 0 "#PWR03" H 4250 3050 20  0001 C CNN
F 1 "+12V" H 4250 3200 30  0000 C CNN
	1    4250 3100
	1    0    0    -1  
$EndComp
$Comp
L GND #PWR04
U 1 1 54E2CBE8
P 6050 5300
F 0 "#PWR04" H 6050 5300 30  0001 C CNN
F 1 "GND" H 6050 5230 30  0001 C CNN
	1    6050 5300
	1    0    0    -1  
$EndComp
$Comp
L GND #PWR05
U 1 1 54E2CBAF
P 3300 5300
F 0 "#PWR05" H 3300 5300 30  0001 C CNN
F 1 "GND" H 3300 5230 30  0001 C CNN
	1    3300 5300
	1    0    0    -1  
$EndComp
$Comp
L DIODE D4
U 1 1 54E2CA07
P 3100 3600
F 0 "D4" H 3100 3700 40  0000 C CNN
F 1 "DIODE" H 3100 3500 40  0000 C CNN
	1    3100 3600
	1    0    0    -1  
$EndComp
$Comp
L LED D2
U 1 1 54E2C9E7
P 2600 4100
F 0 "D2" H 2600 4200 50  0000 C CNN
F 1 "LED" H 2600 4000 50  0000 C CNN
	1    2600 4100
	0    1    1    0   
$EndComp
$Comp
L R R2
U 1 1 54E2C9E3
P 2600 4650
F 0 "R2" V 2680 4650 50  0000 C CNN
F 1 "600" V 2600 4650 50  0000 C CNN
	1    2600 4650
	1    0    0    -1  
$EndComp
$Comp
L GND #PWR06
U 1 1 54E2C9E0
P 2600 5300
F 0 "#PWR06" H 2600 5300 30  0001 C CNN
F 1 "GND" H 2600 5230 30  0001 C CNN
	1    2600 5300
	1    0    0    -1  
$EndComp
$Comp
L GND #PWR07
U 1 1 54E2C9B5
P 2400 5300
F 0 "#PWR07" H 2400 5300 30  0001 C CNN
F 1 "GND" H 2400 5230 30  0001 C CNN
	1    2400 5300
	1    0    0    -1  
$EndComp
$Comp
L +12V #PWR08
U 1 1 54E2C95E
P 1400 5050
F 0 "#PWR08" H 1400 5000 20  0001 C CNN
F 1 "+12V" H 1400 5150 30  0000 C CNN
	1    1400 5050
	1    0    0    -1  
$EndComp
$Comp
L PWR_FLAG #FLG09
U 1 1 54E2C956
P 1700 5150
F 0 "#FLG09" H 1700 5245 30  0001 C CNN
F 1 "PWR_FLAG" H 1700 5330 30  0000 C CNN
	1    1700 5150
	1    0    0    -1  
$EndComp
$Comp
L GND #PWR010
U 1 1 54E2C941
P 2000 5300
F 0 "#PWR010" H 2000 5300 30  0001 C CNN
F 1 "GND" H 2000 5230 30  0001 C CNN
	1    2000 5300
	1    0    0    -1  
$EndComp
$Comp
L PWR_FLAG #FLG011
U 1 1 54E2C925
P 2000 5150
F 0 "#FLG011" H 2000 5245 30  0001 C CNN
F 1 "PWR_FLAG" H 2000 5330 30  0000 C CNN
	1    2000 5150
	1    0    0    -1  
$EndComp
$Comp
L CONN_2 P2
U 1 1 54E2C810
P 6700 4800
F 0 "P2" V 6650 4800 40  0000 C CNN
F 1 "CONN_2" V 6750 4800 40  0000 C CNN
	1    6700 4800
	1    0    0    -1  
$EndComp
$Comp
L SWITCH_INV SW1
U 1 1 54E2C7F2
P 4750 4300
F 0 "SW1" H 4550 4450 50  0000 C CNN
F 1 "SWITCH_INV" H 4600 4150 50  0000 C CNN
	1    4750 4300
	1    0    0    -1  
$EndComp
$Comp
L SPEAKER SP1
U 1 1 54E2C7D6
P 5550 4800
F 0 "SP1" H 5450 5050 70  0000 C CNN
F 1 "SPEAKER" H 5450 4550 70  0000 C CNN
	1    5550 4800
	1    0    0    -1  
$EndComp
$Comp
L NPN Q1
U 1 1 54E2C7AC
P 4150 3950
F 0 "Q1" H 4150 3800 50  0000 R CNN
F 1 "NPN" H 4150 4100 50  0000 R CNN
	1    4150 3950
	1    0    0    -1  
$EndComp
$Comp
L POT RV1
U 1 1 54E2C78C
P 3300 3950
F 0 "RV1" H 3300 3850 50  0000 C CNN
F 1 "POT" H 3300 3950 50  0000 C CNN
	1    3300 3950
	0    1    -1   0   
$EndComp
$Comp
L GND #PWR012
U 1 1 54E2C765
P 2200 5300
F 0 "#PWR012" H 2200 5300 30  0001 C CNN
F 1 "GND" H 2200 5230 30  0001 C CNN
	1    2200 5300
	1    0    0    -1  
$EndComp
$Comp
L +12V #PWR013
U 1 1 54E2C75C
P 2200 3100
F 0 "#PWR013" H 2200 3050 20  0001 C CNN
F 1 "+12V" H 2200 3200 30  0000 C CNN
	1    2200 3100
	1    0    0    -1  
$EndComp
$Comp
L DIODE D3
U 1 1 54E2C74A
P 2700 3500
F 0 "D3" H 2700 3600 40  0000 C CNN
F 1 "DIODE" H 2700 3400 40  0000 C CNN
	1    2700 3500
	1    0    0    -1  
$EndComp
$Comp
L LED D1
U 1 1 54E2C73D
P 2400 4100
F 0 "D1" H 2400 4200 50  0000 C CNN
F 1 "LED" H 2400 4000 50  0000 C CNN
	1    2400 4100
	0    1    1    0   
$EndComp
$Comp
L R R1
U 1 1 54E2C72F
P 2400 4650
F 0 "R1" V 2480 4650 50  0000 C CNN
F 1 "600" V 2400 4650 50  0000 C CNN
	1    2400 4650
	1    0    0    -1  
$EndComp
$Comp
L CONN_4X2 P1
U 1 1 54E2C6D6
P 1700 3450
F 0 "P1" H 1700 3700 50  0000 C CNN
F 1 "CONN_4X2" V 1700 3450 40  0000 C CNN
	1    1700 3450
	1    0    0    -1  
$EndComp
$EndSCHEMATC
