# EESchema Netlist Version 1.1 created  Втр 17 Фев 2015 12:50:47
(
 ( /54E2C73D LED-5MM D1 LED
  ( 1 N-000012 )
  ( 2 N-000007 )
 )
 ( /54E2C9E7 LED-5MM D2 LED
  ( 1 N-000006 )
  ( 2 N-000004 )
 )
 ( /54E2C74A DO-35 D3 DIODE
  ( 1 N-000012 )
  ( 2 N-000005 )
 )
 ( /54E2CA07 DO-35 D4 DIODE
  ( 1 N-000006 )
  ( 2 N-000005 )
 )
 ( /54E2CC63 DO-35 D5 DIODE
  ( 1 GND )
  ( 2 N-000001 )
 )
 ( /54E2C6D6 pin_array_4x2 P1 CONN_4X2
  ( 1 +12V )
  ( 2 +12V )
  ( 3 GND )
  ( 4 GND )
  ( 5 N-000012 )
  ( 6 N-000012 )
  ( 7 N-000006 )
  ( 8 N-000006 )
 )
 ( /54E2C810 PIN_ARRAY_2X1 P2 CONN_2
  ( 1 N-000001 )
  ( 2 GND )
 )
 ( /54E2C7AC TO92 Q1 NPN
  ( 1 N-000009 )
  ( 2 N-000011 )
  ( 3 +12V )
 )
 ( /54E2C72F R4 R1 600
  ( 1 N-000007 )
  ( 2 GND )
 )
 ( /54E2C9E3 R4 R2 600
  ( 1 N-000004 )
  ( 2 GND )
 )
 ( /54E2CDA2 R4 R3 1k
  ( 1 N-000008 )
  ( 2 N-000011 )
 )
 ( /54E2C78C POT RV1 POT
  ( 1 GND )
  ( 2 N-000008 )
  ( 3 N-000005 )
 )
 ( /54E2C7D6 SPK SP1 SPEAKER
  ( 1 N-000010 )
  ( 2 GND )
 )
 ( /54E2C7F2 SW_blue SW1 SWITCH_INV
  ( 1 N-000001 )
  ( 2 N-000009 )
  ( 3 N-000010 )
 )
)
*
{ Allowed footprints by component:
$component D1
 LED-3MM
 LED-5MM
 LED-10MM
 LED-0603
 LED-0805
 LED-1206
 LEDV
$endlist
$component D2
 LED-3MM
 LED-5MM
 LED-10MM
 LED-0603
 LED-0805
 LED-1206
 LEDV
$endlist
$component D3
 D?
 S*
$endlist
$component D4
 D?
 S*
$endlist
$component D5
 D?
 S*
$endlist
$component R1
 R?
 SM0603
 SM0805
 R?-*
 SM1206
$endlist
$component R2
 R?
 SM0603
 SM0805
 R?-*
 SM1206
$endlist
$component R3
 R?
 SM0603
 SM0805
 R?-*
 SM1206
$endlist
$endfootprintlist
}
