%!PS-Adobe-3.0
%%Creator: PCBNEW-PS
%%CreationDate: Tue Feb 17 13:59:15 2015
%%Title: /home/max/av/!мое/паяние/kicad/телеграф модульный/сигнальный модуль/сигнальный модуль-Back.ps
%%Pages: 1
%%PageOrder: Ascend
%%BoundingBox: 0 0 596 843
%%DocumentMedia: A4 595 842 0 () ()
%%Orientation: Landscape
%%EndComments
%%Page: 1 1
/line {
    newpath
    moveto
    lineto
    stroke
} bind def
/cir0 { newpath 0 360 arc stroke } bind def
/cir1 { newpath 0 360 arc gsave fill grestore stroke } bind def
/cir2 { newpath 0 360 arc gsave fill grestore stroke } bind def
/arc0 { newpath arc stroke } bind def
/arc1 { newpath 4 index 4 index moveto arc closepath gsave fill grestore stroke } bind def
/arc2 { newpath 4 index 4 index moveto arc closepath gsave fill grestore stroke } bind def
/poly0 { stroke } bind def
/poly1 { closepath gsave fill grestore stroke } bind def
/poly2 { closepath gsave fill grestore stroke } bind def
/rect0 { rectstroke } bind def
/rect1 { rectfill } bind def
/rect2 { rectfill } bind def
/linemode0 { 0 setlinecap 0 setlinejoin 0 setlinewidth } bind def
/linemode1 { 1 setlinecap 1 setlinejoin } bind def
/dashedline { [50 50] 0 setdash } bind def
/solidline { [] 0 setdash } bind def
gsave
0.0072 0.0072 scale
linemode1
82670 0 translate 90 rotate
60 setlinewidth
60 setlinewidth
newpath
77245 41425 moveto
76755 41425 lineto
76755 41915 lineto
77245 41915 lineto
77245 41425 lineto
poly1
77000 40670 245 cir1
78000 40670 245 cir1
69000 31670 470 cir1
71000 31670 470 cir1
70000 36670 470 cir1
70000 38170 470 cir1
70000 39670 470 cir1
64500 38170 270 cir1
61500 38170 270 cir1
73000 34670 270 cir1
73000 38670 270 cir1
75000 34670 270 cir1
75000 38670 270 cir1
64000 35170 270 cir1
68000 35170 270 cir1
64000 31670 470 cir1
66000 31670 470 cir1
62000 31670 470 cir1
newpath
76730 38940 moveto
77270 38940 lineto
77270 38400 lineto
76730 38400 lineto
76730 38940 lineto
poly1
78000 38670 270 cir1
77000 37670 270 cir1
78000 37670 270 cir1
77000 36670 270 cir1
78000 36670 270 cir1
77000 35670 270 cir1
78000 35670 270 cir1
newpath
64770 41440 moveto
64770 40900 lineto
64230 40900 lineto
64230 41440 lineto
64770 41440 lineto
poly1
63500 41170 270 cir1
74500 32670 300 cir1
73500 32670 300 cir1
78000 32670 300 cir1
77000 32670 300 cir1
newpath
69750 43420 moveto
69750 42920 lineto
69250 42920 lineto
69250 43420 lineto
69750 43420 lineto
poly1
72500 43170 250 cir1
newpath
66750 41920 moveto
66250 41920 lineto
66250 42420 lineto
66750 42420 lineto
66750 41920 lineto
poly1
66500 39170 250 cir1
newpath
68250 41920 moveto
67750 41920 lineto
67750 42420 lineto
68250 42420 lineto
68250 41920 lineto
poly1
68000 39170 250 cir1
400 setlinewidth
newpath
78000 38670 moveto
78000 40670 lineto
stroke
newpath
77000 38670 moveto
78000 38670 lineto
stroke
newpath
72500 44670 moveto
69500 44670 lineto
stroke
newpath
81000 42170 moveto
81000 44670 lineto
stroke
newpath
81000 44670 moveto
79500 44670 lineto
stroke
newpath
68500 30170 moveto
66000 30170 lineto
stroke
newpath
78000 37670 moveto
78500 37670 lineto
stroke
newpath
62000 38170 moveto
61500 38170 lineto
stroke
newpath
67500 32670 moveto
62000 38170 lineto
stroke
newpath
67500 31170 moveto
67500 32670 lineto
stroke
newpath
68500 30170 moveto
67500 31170 lineto
stroke
newpath
80500 30170 moveto
68500 30170 lineto
stroke
newpath
81000 30670 moveto
80500 30170 lineto
stroke
newpath
81000 31170 moveto
81000 30670 lineto
stroke
newpath
81000 42170 moveto
81000 31170 lineto
stroke
newpath
78500 44670 moveto
81000 42170 lineto
stroke
newpath
72500 44670 moveto
78500 44670 lineto
stroke
newpath
71500 43670 moveto
72500 44670 lineto
stroke
newpath
71500 42670 moveto
71500 43670 lineto
stroke
newpath
72000 42170 moveto
71500 42670 lineto
stroke
newpath
73000 42170 moveto
72000 42170 lineto
stroke
newpath
73500 42670 moveto
73000 42170 lineto
stroke
newpath
77500 42670 moveto
73500 42670 lineto
stroke
newpath
79000 41170 moveto
77500 42670 lineto
stroke
newpath
79000 38170 moveto
79000 41170 lineto
stroke
newpath
78500 37670 moveto
79000 38170 lineto
stroke
newpath
68000 39170 moveto
67500 39170 lineto
stroke
newpath
66500 40170 moveto
61500 40170 lineto
stroke
newpath
67500 39170 moveto
66500 40170 lineto
stroke
newpath
62000 31670 moveto
61500 32170 lineto
stroke
newpath
61500 32170 moveto
61500 38170 lineto
stroke
newpath
63500 41170 moveto
62000 41170 lineto
stroke
newpath
61500 40670 moveto
61500 40170 lineto
stroke
newpath
61500 40170 moveto
61500 38170 lineto
stroke
newpath
62000 41170 moveto
61500 40670 lineto
stroke
newpath
73000 38670 moveto
75000 38670 lineto
stroke
newpath
75000 38670 moveto
76000 37670 lineto
stroke
newpath
76000 37670 moveto
77000 37670 lineto
stroke
newpath
77000 37670 moveto
78000 37670 lineto
stroke
newpath
64500 42170 moveto
64500 42670 lineto
stroke
newpath
67500 43170 moveto
68000 42670 lineto
stroke
newpath
70000 39670 moveto
69500 40170 lineto
stroke
newpath
64500 41170 moveto
64500 42170 lineto
stroke
newpath
65000 43170 moveto
67500 43170 lineto
stroke
newpath
68000 42670 moveto
68000 42170 lineto
stroke
newpath
64500 42670 moveto
65000 43170 lineto
stroke
newpath
69500 40170 moveto
67500 40170 lineto
stroke
newpath
67500 40170 moveto
66500 41170 lineto
stroke
newpath
66500 41170 moveto
64500 41170 lineto
stroke
newpath
77000 32670 moveto
77000 34170 lineto
stroke
newpath
76500 34670 moveto
75000 34670 lineto
stroke
newpath
77000 34170 moveto
76500 34670 lineto
stroke
newpath
60500 44170 moveto
60500 30670 lineto
stroke
newpath
69500 43670 moveto
68500 44670 lineto
stroke
newpath
68500 44670 moveto
61000 44670 lineto
stroke
newpath
61000 44670 moveto
60500 44170 lineto
stroke
newpath
69500 43170 moveto
69500 43670 lineto
stroke
newpath
64500 30170 moveto
66000 31670 lineto
stroke
newpath
61000 30170 moveto
64500 30170 lineto
stroke
newpath
60500 30670 moveto
61000 30170 lineto
stroke
newpath
67500 41170 moveto
66500 42170 lineto
stroke
newpath
68500 41170 moveto
67500 41170 lineto
stroke
newpath
69500 42170 moveto
68500 41170 lineto
stroke
newpath
69500 42170 moveto
69500 43170 lineto
stroke
newpath
66500 39170 moveto
64000 39170 lineto
stroke
newpath
78000 32170 moveto
78000 32670 lineto
stroke
newpath
77500 31670 moveto
78000 32170 lineto
stroke
newpath
73000 31670 moveto
77500 31670 lineto
stroke
newpath
70500 34170 moveto
73000 31670 lineto
stroke
newpath
67000 34170 moveto
70500 34170 lineto
stroke
newpath
63500 37670 moveto
67000 34170 lineto
stroke
newpath
63500 38670 moveto
63500 37670 lineto
stroke
newpath
64000 39170 moveto
63500 38670 lineto
stroke
newpath
78000 32670 moveto
78000 35670 lineto
stroke
newpath
78000 35670 moveto
77000 35670 lineto
stroke
newpath
73500 33170 moveto
73500 32670 lineto
stroke
newpath
73000 33670 moveto
73500 33170 lineto
stroke
newpath
73000 34670 moveto
73000 33670 lineto
stroke
newpath
64000 31670 moveto
64000 35170 lineto
stroke
newpath
77000 41670 moveto
73500 41670 lineto
stroke
newpath
73500 41670 moveto
70000 38170 lineto
stroke
newpath
70000 36670 moveto
65500 36670 lineto
stroke
newpath
64500 37670 moveto
64500 38170 lineto
stroke
newpath
65500 36670 moveto
64500 37670 lineto
stroke
newpath
71500 36170 moveto
70500 35170 lineto
stroke
newpath
77000 40670 moveto
73500 40670 lineto
stroke
newpath
70500 35170 moveto
68000 35170 lineto
stroke
newpath
73500 40670 moveto
71500 38670 lineto
stroke
newpath
71500 38670 moveto
71500 36170 lineto
stroke
newpath
72500 43170 moveto
73000 43670 lineto
stroke
newpath
73000 43670 moveto
78000 43670 lineto
stroke
newpath
80000 41670 moveto
80000 36670 lineto
stroke
newpath
80000 36670 moveto
79000 36670 lineto
stroke
newpath
79000 36670 moveto
78500 36670 lineto
stroke
newpath
78000 43670 moveto
80000 41670 lineto
stroke
newpath
78500 36670 moveto
78000 36670 lineto
stroke
newpath
78000 36670 moveto
77000 36670 lineto
stroke
newpath
74000 36170 moveto
74000 34170 lineto
stroke
newpath
74500 36670 moveto
74000 36170 lineto
stroke
newpath
77000 36670 moveto
74500 36670 lineto
stroke
newpath
74000 34170 moveto
74500 33670 lineto
stroke
newpath
74500 33670 moveto
74500 32670 lineto
stroke
1 1 1 setrgbcolor
60 setlinewidth
77000 41670 45 cir1
77000 40670 45 cir1
78000 40670 45 cir1
69000 31670 45 cir1
71000 31670 45 cir1
70000 36670 45 cir1
70000 38170 45 cir1
70000 39670 45 cir1
64500 38170 45 cir1
61500 38170 45 cir1
73000 34670 45 cir1
73000 38670 45 cir1
75000 34670 45 cir1
75000 38670 45 cir1
64000 35170 45 cir1
68000 35170 45 cir1
64000 31670 45 cir1
66000 31670 45 cir1
62000 31670 45 cir1
77000 38670 45 cir1
78000 38670 45 cir1
77000 37670 45 cir1
78000 37670 45 cir1
77000 36670 45 cir1
78000 36670 45 cir1
77000 35670 45 cir1
78000 35670 45 cir1
64500 41170 45 cir1
63500 41170 45 cir1
74500 32670 45 cir1
73500 32670 45 cir1
78000 32670 45 cir1
77000 32670 45 cir1
69500 43170 45 cir1
72500 43170 45 cir1
66500 42170 45 cir1
66500 39170 45 cir1
68000 42170 45 cir1
68000 39170 45 cir1
0 0 0 setrgbcolor
showpage
grestore
%%EOF
