PCBNEW-LibModule-V1  Чт 30 июл 2015 09:31:26
# encoding utf-8
Units mm
$INDEX
SMD_POT
$EndINDEX
$MODULE SMD_POT
Po 0 0 0 15 55B98C44 00000000 ~~
Li SMD_POT
Sc 0
AR 
Op 0 0 0
T0 -3.81 5.08 1 1 0 0.15 N V 21 N "SMD_POT"
T1 2.54 5.08 1 1 0 0.15 N V 21 N "VAL**"
$PAD
Sh "2" R 2.54 3.81 0 0 0
Dr 0.6 0 0
At STD N 00E0FFFF
Ne 0 ""
Po 0 0
$EndPAD
$PAD
Sh "1" R 2.54 3.81 0 0 0
Dr 0.6 0 0
At STD N 00E0FFFF
Ne 0 ""
Po -5.08 0
$EndPAD
$PAD
Sh "3" R 2.54 3.81 0 0 0
Dr 0.6 0 0
At STD N 00E0FFFF
Ne 0 ""
Po 5.08 0
$EndPAD
$EndMODULE SMD_POT
$EndLIBRARY
