PCBNEW-LibModule-V1  Чт 30 июл 2015 09:40:36
# encoding utf-8
Units mm
$INDEX
SMD PC817
$EndINDEX
$MODULE SMD PC817
Po 0 0 0 15 55B98E8C 00000000 ~~
Li SMD PC817
Sc 0
AR 
Op 0 0 0
T0 0 3.81 1 1 0 0.15 N V 21 N "SMD PC817"
T1 0 0 1 1 0 0.15 N V 21 N "VAL**"
$PAD
Sh "3" R 2.54 1.27 0 0 0
Dr 0.6 0 0
At STD N 00E0FFFF
Ne 0 ""
Po -5.08 -1.27
$EndPAD
$PAD
Sh "4" R 2.54 1.27 0 0 0
Dr 0.6 0 0
At STD N 00E0FFFF
Ne 0 ""
Po -5.08 1.27
$EndPAD
$PAD
Sh "2" R 2.54 1.27 0 0 0
Dr 0.6 0 0
At STD N 00E0FFFF
Ne 0 ""
Po 5.08 -1.27
$EndPAD
$PAD
Sh "1" R 2.54 1.27 0 0 0
Dr 0.6 0 0
At STD N 00E0FFFF
Ne 0 ""
Po 5.08 1.27
$EndPAD
$EndMODULE SMD PC817
$EndLIBRARY
