%!PS-Adobe-3.0
%%Creator: PCBNEW
%%CreationDate: Fri Jul 31 10:33:39 2015
%%Title: /home/max/av/!мое/паяние/kicad/sogl_device/sodl_device/sodl_device-Edge_Cuts.ps
%%Pages: 1
%%PageOrder: Ascend
%%BoundingBox: 0 0 596 842
%%DocumentMedia: A4 595 842 0 () ()
%%Orientation: Landscape
%%EndComments
%%BeginProlog
/line { newpath moveto lineto stroke } bind def
/cir0 { newpath 0 360 arc stroke } bind def
/cir1 { newpath 0 360 arc gsave fill grestore stroke } bind def
/cir2 { newpath 0 360 arc gsave fill grestore stroke } bind def
/arc0 { newpath arc stroke } bind def
/arc1 { newpath 4 index 4 index moveto arc closepath gsave fill
    grestore stroke } bind def
/arc2 { newpath 4 index 4 index moveto arc closepath gsave fill
    grestore stroke } bind def
/poly0 { stroke } bind def
/poly1 { closepath gsave fill grestore stroke } bind def
/poly2 { closepath gsave fill grestore stroke } bind def
/rect0 { rectstroke } bind def
/rect1 { rectfill } bind def
/rect2 { rectfill } bind def
/linemode0 { 0 setlinecap 0 setlinejoin 0 setlinewidth } bind def
/linemode1 { 1 setlinecap 1 setlinejoin } bind def
/dashedline { [200] 100 setdash } bind def
/solidline { [] 0 setdash } bind def
/phantomshow { moveto
    /KicadFont findfont 0.000001 scalefont setfont
    show } bind def
/textshow { gsave
    findfont exch scalefont setfont concat 1 scale 0 0 moveto show
    } bind def
/reencodefont {
  findfont dup length dict begin
  { 1 index /FID ne
    { def }
    { pop pop } ifelse
  } forall
  /Encoding ISOLatin1Encoding def
  currentdict
  end } bind def
/KicadFont /Helvetica reencodefont definefont pop
/KicadFont-Bold /Helvetica-Bold reencodefont definefont pop
/KicadFont-Oblique /Helvetica-Oblique reencodefont definefont pop
/KicadFont-BoldOblique /Helvetica-BoldOblique reencodefont definefont pop
%%EndProlog
%%Page: 1 1
%%BeginPageSetup
gsave
0.0072 0.0072 scale
linemode1
82680 0 translate 90 rotate
59.0551 setlinewidth
%%EndPageSetup
0 0 0 setrgbcolor
0 0 0 setrgbcolor
39.3701 setlinewidth
21900 46780 300 cir0
0 0 0 setrgbcolor
21900 27780 300 cir0
0 0 0 setrgbcolor
56300 27780 316.228 cir0
0 0 0 setrgbcolor
newpath
57800 26280 moveto
56300 27780 lineto
stroke
0 0 0 setrgbcolor
newpath
20400 26280 moveto
21900 27780 lineto
stroke
0 0 0 setrgbcolor
newpath
20400 48280 moveto
21900 46780 lineto
stroke
0 0 0 setrgbcolor
newpath
57800 48280 moveto
56300 46780 lineto
stroke
0 0 0 setrgbcolor
56300 46780 360.555 cir0
0 0 0 setrgbcolor
newpath
57800 26280 moveto
57800 48280 lineto
stroke
0 0 0 setrgbcolor
newpath
57600 48280 moveto
20800 48280 lineto
stroke
0 0 0 setrgbcolor
newpath
20400 48280 moveto
20800 48280 lineto
stroke
0 0 0 setrgbcolor
newpath
20400 26280 moveto
20400 48280 lineto
stroke
0 0 0 setrgbcolor
newpath
20400 26280 moveto
57800 26280 lineto
stroke
0 0 0 setrgbcolor
newpath
57800 48280 moveto
57600 48280 lineto
stroke
showpage
grestore
%%EOF
