%!PS-Adobe-3.0
%%Creator: PCBNEW
%%CreationDate: Fri Jul 31 10:33:39 2015
%%Title: /home/max/av/!мое/паяние/kicad/sogl_device/sodl_device/sodl_device-F_Cu.ps
%%Pages: 1
%%PageOrder: Ascend
%%BoundingBox: 0 0 596 842
%%DocumentMedia: A4 595 842 0 () ()
%%Orientation: Landscape
%%EndComments
%%BeginProlog
/line { newpath moveto lineto stroke } bind def
/cir0 { newpath 0 360 arc stroke } bind def
/cir1 { newpath 0 360 arc gsave fill grestore stroke } bind def
/cir2 { newpath 0 360 arc gsave fill grestore stroke } bind def
/arc0 { newpath arc stroke } bind def
/arc1 { newpath 4 index 4 index moveto arc closepath gsave fill
    grestore stroke } bind def
/arc2 { newpath 4 index 4 index moveto arc closepath gsave fill
    grestore stroke } bind def
/poly0 { stroke } bind def
/poly1 { closepath gsave fill grestore stroke } bind def
/poly2 { closepath gsave fill grestore stroke } bind def
/rect0 { rectstroke } bind def
/rect1 { rectfill } bind def
/rect2 { rectfill } bind def
/linemode0 { 0 setlinecap 0 setlinejoin 0 setlinewidth } bind def
/linemode1 { 1 setlinecap 1 setlinejoin } bind def
/dashedline { [200] 100 setdash } bind def
/solidline { [] 0 setdash } bind def
/phantomshow { moveto
    /KicadFont findfont 0.000001 scalefont setfont
    show } bind def
/textshow { gsave
    findfont exch scalefont setfont concat 1 scale 0 0 moveto show
    } bind def
/reencodefont {
  findfont dup length dict begin
  { 1 index /FID ne
    { def }
    { pop pop } ifelse
  } forall
  /Encoding ISOLatin1Encoding def
  currentdict
  end } bind def
/KicadFont /Helvetica reencodefont definefont pop
/KicadFont-Bold /Helvetica-Bold reencodefont definefont pop
/KicadFont-Oblique /Helvetica-Oblique reencodefont definefont pop
/KicadFont-BoldOblique /Helvetica-BoldOblique reencodefont definefont pop
%%EndProlog
%%Page: 1 1
%%BeginPageSetup
gsave
0.0072 0.0072 scale
linemode1
82680 0 translate 90 rotate
59.0551 setlinewidth
%%EndPageSetup
0 0 0 setrgbcolor
0 0 0 setrgbcolor
59.0551 setlinewidth
newpath
74499.5 30929.5 moveto
74499.5 31230.5 lineto
74800.5 31230.5 lineto
74800.5 30929.5 lineto
74499.5 30929.5 lineto
poly1
0 0 0 setrgbcolor
newpath
75199.5 30929.5 moveto
75199.5 31230.5 lineto
75500.5 31230.5 lineto
75500.5 30929.5 lineto
75199.5 30929.5 lineto
poly1
0 0 0 setrgbcolor
newpath
74849.5 30129.5 moveto
74849.5 30430.5 lineto
75150.5 30430.5 lineto
75150.5 30129.5 lineto
74849.5 30129.5 lineto
poly1
0 0 0 setrgbcolor
newpath
75899.5 44529.5 moveto
75899.5 44830.5 lineto
76200.5 44830.5 lineto
76200.5 44529.5 lineto
75899.5 44529.5 lineto
poly1
0 0 0 setrgbcolor
newpath
76599.5 44529.5 moveto
76599.5 44830.5 lineto
76900.5 44830.5 lineto
76900.5 44529.5 lineto
76599.5 44529.5 lineto
poly1
0 0 0 setrgbcolor
newpath
76249.5 43729.5 moveto
76249.5 44030.5 lineto
76550.5 44030.5 lineto
76550.5 43729.5 lineto
76249.5 43729.5 lineto
poly1
0 0 0 setrgbcolor
newpath
77299.5 29529.5 moveto
77299.5 29830.5 lineto
77600.5 29830.5 lineto
77600.5 29529.5 lineto
77299.5 29529.5 lineto
poly1
0 0 0 setrgbcolor
newpath
77999.5 29529.5 moveto
77999.5 29830.5 lineto
78300.5 29830.5 lineto
78300.5 29529.5 lineto
77999.5 29529.5 lineto
poly1
0 0 0 setrgbcolor
newpath
77649.5 28729.5 moveto
77649.5 29030.5 lineto
77950.5 29030.5 lineto
77950.5 28729.5 lineto
77649.5 28729.5 lineto
poly1
0 0 0 setrgbcolor
newpath
80299.5 31929.5 moveto
80299.5 32230.5 lineto
80600.5 32230.5 lineto
80600.5 31929.5 lineto
80299.5 31929.5 lineto
poly1
0 0 0 setrgbcolor
newpath
80999.5 31929.5 moveto
80999.5 32230.5 lineto
81300.5 32230.5 lineto
81300.5 31929.5 lineto
80999.5 31929.5 lineto
poly1
0 0 0 setrgbcolor
newpath
80649.5 31129.5 moveto
80649.5 31430.5 lineto
80950.5 31430.5 lineto
80950.5 31129.5 lineto
80649.5 31129.5 lineto
poly1
0 0 0 setrgbcolor
newpath
75099.5 25329.5 moveto
75099.5 25630.5 lineto
75400.5 25630.5 lineto
75400.5 25329.5 lineto
75099.5 25329.5 lineto
poly1
0 0 0 setrgbcolor
newpath
75799.5 25329.5 moveto
75799.5 25630.5 lineto
76100.5 25630.5 lineto
76100.5 25329.5 lineto
75799.5 25329.5 lineto
poly1
0 0 0 setrgbcolor
newpath
75449.5 24529.5 moveto
75449.5 24830.5 lineto
75750.5 24830.5 lineto
75750.5 24529.5 lineto
75449.5 24529.5 lineto
poly1
0 0 0 setrgbcolor
newpath
76899.5 34129.5 moveto
76899.5 34430.5 lineto
77200.5 34430.5 lineto
77200.5 34129.5 lineto
76899.5 34129.5 lineto
poly1
0 0 0 setrgbcolor
newpath
77599.5 34129.5 moveto
77599.5 34430.5 lineto
77900.5 34430.5 lineto
77900.5 34129.5 lineto
77599.5 34129.5 lineto
poly1
0 0 0 setrgbcolor
newpath
77249.5 33329.5 moveto
77249.5 33630.5 lineto
77550.5 33630.5 lineto
77550.5 33329.5 lineto
77249.5 33329.5 lineto
poly1
0 0 0 setrgbcolor
newpath
80831.5 26535.5 moveto
80831.5 27224.5 lineto
82504.5 27224.5 lineto
82504.5 26535.5 lineto
80831.5 26535.5 lineto
poly1
0 0 0 setrgbcolor
newpath
84256.5 26535.5 moveto
84256.5 27224.5 lineto
85929.5 27224.5 lineto
85929.5 26535.5 lineto
84256.5 26535.5 lineto
poly1
0 0 0 setrgbcolor
newpath
67231.5 27735.5 moveto
67231.5 28424.5 lineto
68904.5 28424.5 lineto
68904.5 27735.5 lineto
67231.5 27735.5 lineto
poly1
0 0 0 setrgbcolor
newpath
70656.5 27735.5 moveto
70656.5 28424.5 lineto
72329.5 28424.5 lineto
72329.5 27735.5 lineto
70656.5 27735.5 lineto
poly1
0 0 0 setrgbcolor
newpath
86831.5 17935.5 moveto
86831.5 18624.5 lineto
88504.5 18624.5 lineto
88504.5 17935.5 lineto
86831.5 17935.5 lineto
poly1
0 0 0 setrgbcolor
newpath
90256.5 17935.5 moveto
90256.5 18624.5 lineto
91929.5 18624.5 lineto
91929.5 17935.5 lineto
90256.5 17935.5 lineto
poly1
0 0 0 setrgbcolor
newpath
86831.5 24535.5 moveto
86831.5 25224.5 lineto
88504.5 25224.5 lineto
88504.5 24535.5 lineto
86831.5 24535.5 lineto
poly1
0 0 0 setrgbcolor
newpath
90256.5 24535.5 moveto
90256.5 25224.5 lineto
91929.5 25224.5 lineto
91929.5 24535.5 lineto
90256.5 24535.5 lineto
poly1
0 0 0 setrgbcolor
newpath
80479.5 50350.5 moveto
80920.5 50350.5 lineto
80920.5 49409.5 lineto
80479.5 49409.5 lineto
80479.5 50350.5 lineto
poly1
0 0 0 setrgbcolor
newpath
79479.5 50350.5 moveto
79920.5 50350.5 lineto
79920.5 49409.5 lineto
79479.5 49409.5 lineto
79479.5 50350.5 lineto
poly1
0 0 0 setrgbcolor
newpath
80479.5 46350.5 moveto
80920.5 46350.5 lineto
80920.5 45409.5 lineto
80479.5 45409.5 lineto
80479.5 46350.5 lineto
poly1
0 0 0 setrgbcolor
newpath
79479.5 46350.5 moveto
79920.5 46350.5 lineto
79920.5 45409.5 lineto
79479.5 45409.5 lineto
79479.5 46350.5 lineto
poly1
0 0 0 setrgbcolor
newpath
87120.5 47809.5 moveto
86679.5 47809.5 lineto
86679.5 48750.5 lineto
87120.5 48750.5 lineto
87120.5 47809.5 lineto
poly1
0 0 0 setrgbcolor
newpath
88120.5 47809.5 moveto
87679.5 47809.5 lineto
87679.5 48750.5 lineto
88120.5 48750.5 lineto
88120.5 47809.5 lineto
poly1
0 0 0 setrgbcolor
newpath
87120.5 51809.5 moveto
86679.5 51809.5 lineto
86679.5 52750.5 lineto
87120.5 52750.5 lineto
87120.5 51809.5 lineto
poly1
0 0 0 setrgbcolor
newpath
88120.5 51809.5 moveto
87679.5 51809.5 lineto
87679.5 52750.5 lineto
88120.5 52750.5 lineto
88120.5 51809.5 lineto
poly1
0 0 0 setrgbcolor
newpath
82529.5 40759.5 moveto
82529.5 41200.5 lineto
83470.5 41200.5 lineto
83470.5 40759.5 lineto
82529.5 40759.5 lineto
poly1
0 0 0 setrgbcolor
newpath
82529.5 39759.5 moveto
82529.5 40200.5 lineto
83470.5 40200.5 lineto
83470.5 39759.5 lineto
82529.5 39759.5 lineto
poly1
0 0 0 setrgbcolor
newpath
86529.5 40759.5 moveto
86529.5 41200.5 lineto
87470.5 41200.5 lineto
87470.5 40759.5 lineto
86529.5 40759.5 lineto
poly1
0 0 0 setrgbcolor
newpath
86529.5 39759.5 moveto
86529.5 40200.5 lineto
87470.5 40200.5 lineto
87470.5 39759.5 lineto
86529.5 39759.5 lineto
poly1
0 0 0 setrgbcolor
newpath
76120.5 45409.5 moveto
75679.5 45409.5 lineto
75679.5 46350.5 lineto
76120.5 46350.5 lineto
76120.5 45409.5 lineto
poly1
0 0 0 setrgbcolor
newpath
77120.5 45409.5 moveto
76679.5 45409.5 lineto
76679.5 46350.5 lineto
77120.5 46350.5 lineto
77120.5 45409.5 lineto
poly1
0 0 0 setrgbcolor
newpath
76120.5 49409.5 moveto
75679.5 49409.5 lineto
75679.5 50350.5 lineto
76120.5 50350.5 lineto
76120.5 49409.5 lineto
poly1
0 0 0 setrgbcolor
newpath
77120.5 49409.5 moveto
76679.5 49409.5 lineto
76679.5 50350.5 lineto
77120.5 50350.5 lineto
77120.5 49409.5 lineto
poly1
0 0 0 setrgbcolor
newpath
82529.5 46759.5 moveto
82529.5 47200.5 lineto
83470.5 47200.5 lineto
83470.5 46759.5 lineto
82529.5 46759.5 lineto
poly1
0 0 0 setrgbcolor
newpath
82529.5 45759.5 moveto
82529.5 46200.5 lineto
83470.5 46200.5 lineto
83470.5 45759.5 lineto
82529.5 45759.5 lineto
poly1
0 0 0 setrgbcolor
newpath
86529.5 46759.5 moveto
86529.5 47200.5 lineto
87470.5 47200.5 lineto
87470.5 46759.5 lineto
86529.5 46759.5 lineto
poly1
0 0 0 setrgbcolor
newpath
86529.5 45759.5 moveto
86529.5 46200.5 lineto
87470.5 46200.5 lineto
87470.5 45759.5 lineto
86529.5 45759.5 lineto
poly1
0 0 0 setrgbcolor
newpath
82529.5 42759.5 moveto
82529.5 43200.5 lineto
83470.5 43200.5 lineto
83470.5 42759.5 lineto
82529.5 42759.5 lineto
poly1
0 0 0 setrgbcolor
newpath
82529.5 41759.5 moveto
82529.5 42200.5 lineto
83470.5 42200.5 lineto
83470.5 41759.5 lineto
82529.5 41759.5 lineto
poly1
0 0 0 setrgbcolor
newpath
86529.5 42759.5 moveto
86529.5 43200.5 lineto
87470.5 43200.5 lineto
87470.5 42759.5 lineto
86529.5 42759.5 lineto
poly1
0 0 0 setrgbcolor
newpath
86529.5 41759.5 moveto
86529.5 42200.5 lineto
87470.5 42200.5 lineto
87470.5 41759.5 lineto
86529.5 41759.5 lineto
poly1
0 0 0 setrgbcolor
newpath
82529.5 44759.5 moveto
82529.5 45200.5 lineto
83470.5 45200.5 lineto
83470.5 44759.5 lineto
82529.5 44759.5 lineto
poly1
0 0 0 setrgbcolor
newpath
82529.5 43759.5 moveto
82529.5 44200.5 lineto
83470.5 44200.5 lineto
83470.5 43759.5 lineto
82529.5 43759.5 lineto
poly1
0 0 0 setrgbcolor
newpath
86529.5 44759.5 moveto
86529.5 45200.5 lineto
87470.5 45200.5 lineto
87470.5 44759.5 lineto
86529.5 44759.5 lineto
poly1
0 0 0 setrgbcolor
newpath
86529.5 43759.5 moveto
86529.5 44200.5 lineto
87470.5 44200.5 lineto
87470.5 43759.5 lineto
86529.5 43759.5 lineto
poly1
0 0 0 setrgbcolor
newpath
76529.5 23559.5 moveto
76529.5 24000.5 lineto
77470.5 24000.5 lineto
77470.5 23559.5 lineto
76529.5 23559.5 lineto
poly1
0 0 0 setrgbcolor
newpath
76529.5 24559.5 moveto
76529.5 25000.5 lineto
77470.5 25000.5 lineto
77470.5 24559.5 lineto
76529.5 24559.5 lineto
poly1
0 0 0 setrgbcolor
newpath
76529.5 22559.5 moveto
76529.5 23000.5 lineto
77470.5 23000.5 lineto
77470.5 22559.5 lineto
76529.5 22559.5 lineto
poly1
0 0 0 setrgbcolor
newpath
76529.5 25559.5 moveto
76529.5 26000.5 lineto
77470.5 26000.5 lineto
77470.5 25559.5 lineto
76529.5 25559.5 lineto
poly1
0 0 0 setrgbcolor
newpath
72529.5 25559.5 moveto
72529.5 26000.5 lineto
73470.5 26000.5 lineto
73470.5 25559.5 lineto
72529.5 25559.5 lineto
poly1
0 0 0 setrgbcolor
newpath
72529.5 24559.5 moveto
72529.5 25000.5 lineto
73470.5 25000.5 lineto
73470.5 24559.5 lineto
72529.5 24559.5 lineto
poly1
0 0 0 setrgbcolor
newpath
72529.5 23559.5 moveto
72529.5 24000.5 lineto
73470.5 24000.5 lineto
73470.5 23559.5 lineto
72529.5 23559.5 lineto
poly1
0 0 0 setrgbcolor
newpath
72529.5 22559.5 moveto
72529.5 23000.5 lineto
73470.5 23000.5 lineto
73470.5 22559.5 lineto
72529.5 22559.5 lineto
poly1
0 0 0 setrgbcolor
newpath
74629.5 44800.5 moveto
75370.5 44800.5 lineto
75370.5 44259.5 lineto
74629.5 44259.5 lineto
74629.5 44800.5 lineto
poly1
0 0 0 setrgbcolor
newpath
74629.5 43500.5 moveto
75370.5 43500.5 lineto
75370.5 42959.5 lineto
74629.5 42959.5 lineto
74629.5 43500.5 lineto
poly1
0 0 0 setrgbcolor
newpath
74679.5 17509.5 moveto
74679.5 18250.5 lineto
75220.5 18250.5 lineto
75220.5 17509.5 lineto
74679.5 17509.5 lineto
poly1
0 0 0 setrgbcolor
newpath
75979.5 17509.5 moveto
75979.5 18250.5 lineto
76520.5 18250.5 lineto
76520.5 17509.5 lineto
75979.5 17509.5 lineto
poly1
0 0 0 setrgbcolor
newpath
78279.5 40509.5 moveto
78279.5 41250.5 lineto
78820.5 41250.5 lineto
78820.5 40509.5 lineto
78279.5 40509.5 lineto
poly1
0 0 0 setrgbcolor
newpath
79579.5 40509.5 moveto
79579.5 41250.5 lineto
80120.5 41250.5 lineto
80120.5 40509.5 lineto
79579.5 40509.5 lineto
poly1
0 0 0 setrgbcolor
newpath
73429.5 44800.5 moveto
74170.5 44800.5 lineto
74170.5 44259.5 lineto
73429.5 44259.5 lineto
73429.5 44800.5 lineto
poly1
0 0 0 setrgbcolor
newpath
73429.5 43500.5 moveto
74170.5 43500.5 lineto
74170.5 42959.5 lineto
73429.5 42959.5 lineto
73429.5 43500.5 lineto
poly1
0 0 0 setrgbcolor
newpath
104680 39509.5 moveto
104680 40250.5 lineto
105220 40250.5 lineto
105220 39509.5 lineto
104680 39509.5 lineto
poly1
0 0 0 setrgbcolor
newpath
105980 39509.5 moveto
105980 40250.5 lineto
106520 40250.5 lineto
106520 39509.5 lineto
105980 39509.5 lineto
poly1
0 0 0 setrgbcolor
newpath
81079.5 37709.5 moveto
81079.5 38450.5 lineto
81620.5 38450.5 lineto
81620.5 37709.5 lineto
81079.5 37709.5 lineto
poly1
0 0 0 setrgbcolor
newpath
82379.5 37709.5 moveto
82379.5 38450.5 lineto
82920.5 38450.5 lineto
82920.5 37709.5 lineto
82379.5 37709.5 lineto
poly1
0 0 0 setrgbcolor
newpath
83679.5 28509.5 moveto
83679.5 29250.5 lineto
84220.5 29250.5 lineto
84220.5 28509.5 lineto
83679.5 28509.5 lineto
poly1
0 0 0 setrgbcolor
newpath
84979.5 28509.5 moveto
84979.5 29250.5 lineto
85520.5 29250.5 lineto
85520.5 28509.5 lineto
84979.5 28509.5 lineto
poly1
0 0 0 setrgbcolor
newpath
77079.5 23309.5 moveto
77079.5 24050.5 lineto
77620.5 24050.5 lineto
77620.5 23309.5 lineto
77079.5 23309.5 lineto
poly1
0 0 0 setrgbcolor
newpath
78379.5 23309.5 moveto
78379.5 24050.5 lineto
78920.5 24050.5 lineto
78920.5 23309.5 lineto
78379.5 23309.5 lineto
poly1
0 0 0 setrgbcolor
newpath
70679.5 22509.5 moveto
70679.5 23250.5 lineto
71220.5 23250.5 lineto
71220.5 22509.5 lineto
70679.5 22509.5 lineto
poly1
0 0 0 setrgbcolor
newpath
71979.5 22509.5 moveto
71979.5 23250.5 lineto
72520.5 23250.5 lineto
72520.5 22509.5 lineto
71979.5 22509.5 lineto
poly1
0 0 0 setrgbcolor
newpath
105280 20909.5 moveto
105280 21650.5 lineto
105820 21650.5 lineto
105820 20909.5 lineto
105280 20909.5 lineto
poly1
0 0 0 setrgbcolor
newpath
106580 20909.5 moveto
106580 21650.5 lineto
107120 21650.5 lineto
107120 20909.5 lineto
106580 20909.5 lineto
poly1
0 0 0 setrgbcolor
newpath
103680 23909.5 moveto
103680 24650.5 lineto
104220 24650.5 lineto
104220 23909.5 lineto
103680 23909.5 lineto
poly1
0 0 0 setrgbcolor
newpath
104980 23909.5 moveto
104980 24650.5 lineto
105520 24650.5 lineto
105520 23909.5 lineto
104980 23909.5 lineto
poly1
0 0 0 setrgbcolor
newpath
90079.5 36909.5 moveto
90079.5 37650.5 lineto
90620.5 37650.5 lineto
90620.5 36909.5 lineto
90079.5 36909.5 lineto
poly1
0 0 0 setrgbcolor
newpath
91379.5 36909.5 moveto
91379.5 37650.5 lineto
91920.5 37650.5 lineto
91920.5 36909.5 lineto
91379.5 36909.5 lineto
poly1
0 0 0 setrgbcolor
newpath
90079.5 47109.5 moveto
90079.5 47850.5 lineto
90620.5 47850.5 lineto
90620.5 47109.5 lineto
90079.5 47109.5 lineto
poly1
0 0 0 setrgbcolor
newpath
91379.5 47109.5 moveto
91379.5 47850.5 lineto
91920.5 47850.5 lineto
91920.5 47109.5 lineto
91379.5 47109.5 lineto
poly1
0 0 0 setrgbcolor
newpath
105480 17109.5 moveto
105480 17850.5 lineto
106020 17850.5 lineto
106020 17109.5 lineto
105480 17109.5 lineto
poly1
0 0 0 setrgbcolor
newpath
106780 17109.5 moveto
106780 17850.5 lineto
107320 17850.5 lineto
107320 17109.5 lineto
106780 17109.5 lineto
poly1
0 0 0 setrgbcolor
newpath
71079.5 44309.5 moveto
71079.5 45050.5 lineto
71620.5 45050.5 lineto
71620.5 44309.5 lineto
71079.5 44309.5 lineto
poly1
0 0 0 setrgbcolor
newpath
72379.5 44309.5 moveto
72379.5 45050.5 lineto
72920.5 45050.5 lineto
72920.5 44309.5 lineto
72379.5 44309.5 lineto
poly1
0 0 0 setrgbcolor
newpath
77429.5 45000.5 moveto
78170.5 45000.5 lineto
78170.5 44459.5 lineto
77429.5 44459.5 lineto
77429.5 45000.5 lineto
poly1
0 0 0 setrgbcolor
newpath
77429.5 43700.5 moveto
78170.5 43700.5 lineto
78170.5 43159.5 lineto
77429.5 43159.5 lineto
77429.5 43700.5 lineto
poly1
0 0 0 setrgbcolor
newpath
97679.5 23109.5 moveto
97679.5 23850.5 lineto
98220.5 23850.5 lineto
98220.5 23109.5 lineto
97679.5 23109.5 lineto
poly1
0 0 0 setrgbcolor
newpath
98979.5 23109.5 moveto
98979.5 23850.5 lineto
99520.5 23850.5 lineto
99520.5 23109.5 lineto
98979.5 23109.5 lineto
poly1
0 0 0 setrgbcolor
newpath
67479.5 19109.5 moveto
67479.5 19850.5 lineto
68020.5 19850.5 lineto
68020.5 19109.5 lineto
67479.5 19109.5 lineto
poly1
0 0 0 setrgbcolor
newpath
68779.5 19109.5 moveto
68779.5 19850.5 lineto
69320.5 19850.5 lineto
69320.5 19109.5 lineto
68779.5 19109.5 lineto
poly1
0 0 0 setrgbcolor
newpath
104480 42309.5 moveto
104480 43050.5 lineto
105020 43050.5 lineto
105020 42309.5 lineto
104480 42309.5 lineto
poly1
0 0 0 setrgbcolor
newpath
105780 42309.5 moveto
105780 43050.5 lineto
106320 43050.5 lineto
106320 42309.5 lineto
105780 42309.5 lineto
poly1
0 0 0 setrgbcolor
newpath
69079.5 21309.5 moveto
69079.5 22050.5 lineto
69620.5 22050.5 lineto
69620.5 21309.5 lineto
69079.5 21309.5 lineto
poly1
0 0 0 setrgbcolor
newpath
70379.5 21309.5 moveto
70379.5 22050.5 lineto
70920.5 22050.5 lineto
70920.5 21309.5 lineto
70379.5 21309.5 lineto
poly1
0 0 0 setrgbcolor
71300 49880 320.472 cir1
0 0 0 setrgbcolor
78300 49880 320.472 cir1
0 0 0 setrgbcolor
82500 50280 320.472 cir1
0 0 0 setrgbcolor
89500 50280 320.472 cir1
0 0 0 setrgbcolor
71300 47280 320.472 cir1
0 0 0 setrgbcolor
78300 47280 320.472 cir1
0 0 0 setrgbcolor
67200 31880 320.472 cir1
0 0 0 setrgbcolor
73200 31880 320.472 cir1
0 0 0 setrgbcolor
104200 47880 320.472 cir1
0 0 0 setrgbcolor
110200 47880 320.472 cir1
0 0 0 setrgbcolor
newpath
71229.5 52409.5 moveto
71229.5 52950.5 lineto
71770.5 52950.5 lineto
71770.5 52409.5 lineto
71229.5 52409.5 lineto
poly1
0 0 0 setrgbcolor
72500 52680 270.472 cir1
0 0 0 setrgbcolor
73500 52680 270.472 cir1
0 0 0 setrgbcolor
74500 52680 270.472 cir1
0 0 0 setrgbcolor
newpath
82229.5 52409.5 moveto
82229.5 52950.5 lineto
82770.5 52950.5 lineto
82770.5 52409.5 lineto
82229.5 52409.5 lineto
poly1
0 0 0 setrgbcolor
83500 52680 270.472 cir1
0 0 0 setrgbcolor
84500 52680 270.472 cir1
0 0 0 setrgbcolor
85500 52680 270.472 cir1
0 0 0 setrgbcolor
newpath
87129.5 38809.5 moveto
87129.5 39350.5 lineto
87670.5 39350.5 lineto
87670.5 38809.5 lineto
87129.5 38809.5 lineto
poly1
0 0 0 setrgbcolor
88400 39080 270.472 cir1
0 0 0 setrgbcolor
89400 39080 270.472 cir1
0 0 0 setrgbcolor
newpath
69170.5 52950.5 moveto
69170.5 52409.5 lineto
68629.5 52409.5 lineto
68629.5 52950.5 lineto
69170.5 52950.5 lineto
poly1
0 0 0 setrgbcolor
67900 52680 270.472 cir1
0 0 0 setrgbcolor
newpath
109230 49409.5 moveto
109230 49950.5 lineto
109770 49950.5 lineto
109770 49409.5 lineto
109230 49409.5 lineto
poly1
0 0 0 setrgbcolor
110500 49680 270.472 cir1
0 0 0 setrgbcolor
newpath
103756 45155 moveto
103756 45805 lineto
104326 45805 lineto
104326 45155 lineto
103756 45155 lineto
poly1
0 0 0 setrgbcolor
newpath
104874 45155 moveto
104874 45805 lineto
105444 45805 lineto
105444 45155 lineto
104874 45155 lineto
poly1
0 0 0 setrgbcolor
newpath
105556 51155 moveto
105556 51805 lineto
106126 51805 lineto
106126 51155 lineto
105556 51155 lineto
poly1
0 0 0 setrgbcolor
newpath
106674 51155 moveto
106674 51805 lineto
107244 51805 lineto
107244 51155 lineto
106674 51155 lineto
poly1
0 0 0 setrgbcolor
newpath
104156 49555 moveto
104156 50205 lineto
104726 50205 lineto
104726 49555 lineto
104156 49555 lineto
poly1
0 0 0 setrgbcolor
newpath
105274 49555 moveto
105274 50205 lineto
105844 50205 lineto
105844 49555 lineto
105274 49555 lineto
poly1
0 0 0 setrgbcolor
106000 29480 470.472 cir1
0 0 0 setrgbcolor
newpath
111530 29009.5 moveto
111530 29950.5 lineto
112470 29950.5 lineto
112470 29009.5 lineto
111530 29009.5 lineto
poly1
0 0 0 setrgbcolor
91400 29680 470.472 cir1
0 0 0 setrgbcolor
newpath
96929.5 29209.5 moveto
96929.5 30150.5 lineto
97870.5 30150.5 lineto
97870.5 29209.5 lineto
96929.5 29209.5 lineto
poly1
0 0 0 setrgbcolor
79600 35680 470.472 cir1
0 0 0 setrgbcolor
newpath
85129.5 35209.5 moveto
85129.5 36150.5 lineto
86070.5 36150.5 lineto
86070.5 35209.5 lineto
85129.5 35209.5 lineto
poly1
0 0 0 setrgbcolor
88000 34080 470.472 cir1
0 0 0 setrgbcolor
newpath
93529.5 33609.5 moveto
93529.5 34550.5 lineto
94470.5 34550.5 lineto
94470.5 33609.5 lineto
93529.5 33609.5 lineto
poly1
0 0 0 setrgbcolor
88000 34080 470.472 cir1
0 0 0 setrgbcolor
newpath
93529.5 33609.5 moveto
93529.5 34550.5 lineto
94470.5 34550.5 lineto
94470.5 33609.5 lineto
93529.5 33609.5 lineto
poly1
0 0 0 setrgbcolor
newpath
84529.5 30959.5 moveto
84529.5 32400.5 lineto
85470.5 32400.5 lineto
85470.5 30959.5 lineto
84529.5 30959.5 lineto
poly1
0 0 0 setrgbcolor
newpath
82529.5 30959.5 moveto
82529.5 32400.5 lineto
83470.5 32400.5 lineto
83470.5 30959.5 lineto
82529.5 30959.5 lineto
poly1
0 0 0 setrgbcolor
newpath
86529.5 30959.5 moveto
86529.5 32400.5 lineto
87470.5 32400.5 lineto
87470.5 30959.5 lineto
86529.5 30959.5 lineto
poly1
0 0 0 setrgbcolor
newpath
80329.5 14009.5 moveto
80329.5 14550.5 lineto
80870.5 14550.5 lineto
80870.5 14009.5 lineto
80329.5 14009.5 lineto
poly1
0 0 0 setrgbcolor
81600 14280 270.472 cir1
0 0 0 setrgbcolor
82600 14280 270.472 cir1
0 0 0 setrgbcolor
200 setlinewidth
newpath
77800 43430 moveto
76850 43430 lineto
stroke
0 0 0 setrgbcolor
newpath
76850 43430 moveto
76400 43880 lineto
stroke
0 0 0 setrgbcolor
newpath
76400 43880 moveto
71000 43880 lineto
stroke
0 0 0 setrgbcolor
newpath
68900 45980 moveto
68900 52680 lineto
stroke
0 0 0 setrgbcolor
newpath
71000 43880 moveto
68900 45980 lineto
stroke
0 0 0 setrgbcolor
newpath
76050 44680 moveto
75150 44680 lineto
stroke
0 0 0 setrgbcolor
newpath
75150 44680 moveto
75000 44530 lineto
stroke
0 0 0 setrgbcolor
newpath
75000 44530 moveto
72800 44530 lineto
stroke
0 0 0 setrgbcolor
newpath
72800 44530 moveto
72650 44680 lineto
stroke
0 0 0 setrgbcolor
newpath
83000 40980 moveto
83500 40980 lineto
stroke
0 0 0 setrgbcolor
newpath
83500 42980 moveto
83000 42980 lineto
stroke
0 0 0 setrgbcolor
newpath
84000 42480 moveto
83500 42980 lineto
stroke
0 0 0 setrgbcolor
newpath
84000 41480 moveto
84000 42480 lineto
stroke
0 0 0 setrgbcolor
newpath
83500 40980 moveto
84000 41480 lineto
stroke
0 0 0 setrgbcolor
newpath
87000 40980 moveto
86500 40980 lineto
stroke
0 0 0 setrgbcolor
newpath
86500 42980 moveto
87000 42980 lineto
stroke
0 0 0 setrgbcolor
newpath
86000 42480 moveto
86500 42980 lineto
stroke
0 0 0 setrgbcolor
newpath
86000 41480 moveto
86000 42480 lineto
stroke
0 0 0 setrgbcolor
newpath
86500 40980 moveto
86000 41480 lineto
stroke
0 0 0 setrgbcolor
newpath
83000 42980 moveto
82300 42980 lineto
stroke
0 0 0 setrgbcolor
newpath
80700 44580 moveto
80700 45880 lineto
stroke
0 0 0 setrgbcolor
newpath
82300 42980 moveto
80700 44580 lineto
stroke
0 0 0 setrgbcolor
newpath
87000 42980 moveto
83000 42980 lineto
stroke
0 0 0 setrgbcolor
newpath
80700 45880 moveto
80700 46380 lineto
stroke
0 0 0 setrgbcolor
newpath
80700 46380 moveto
80200 46880 lineto
stroke
0 0 0 setrgbcolor
newpath
80200 46880 moveto
79000 46880 lineto
stroke
0 0 0 setrgbcolor
newpath
79000 46880 moveto
78600 46480 lineto
stroke
0 0 0 setrgbcolor
newpath
78600 46480 moveto
77800 46480 lineto
stroke
0 0 0 setrgbcolor
newpath
77800 46480 moveto
77400 46880 lineto
stroke
0 0 0 setrgbcolor
newpath
77400 46880 moveto
76200 46880 lineto
stroke
0 0 0 setrgbcolor
newpath
76200 46880 moveto
75900 46580 lineto
stroke
0 0 0 setrgbcolor
newpath
75900 46580 moveto
75900 45880 lineto
stroke
0 0 0 setrgbcolor
newpath
75900 45880 moveto
72550 45880 lineto
stroke
0 0 0 setrgbcolor
newpath
72550 45880 moveto
71350 44680 lineto
stroke
0 0 0 setrgbcolor
newpath
71350 44680 moveto
71350 44930 lineto
stroke
0 0 0 setrgbcolor
newpath
71350 44930 moveto
69800 46480 lineto
stroke
0 0 0 setrgbcolor
newpath
69800 46480 moveto
69800 53680 lineto
stroke
0 0 0 setrgbcolor
newpath
67900 53680 moveto
67000 53680 lineto
stroke
0 0 0 setrgbcolor
newpath
67000 53680 moveto
67000 47880 lineto
stroke
0 0 0 setrgbcolor
newpath
67900 52680 moveto
67900 53680 lineto
stroke
0 0 0 setrgbcolor
newpath
67900 53680 moveto
67900 53780 lineto
stroke
0 0 0 setrgbcolor
newpath
68000 53680 moveto
69800 53680 lineto
stroke
0 0 0 setrgbcolor
newpath
69800 53680 moveto
70200 53680 lineto
stroke
0 0 0 setrgbcolor
newpath
70200 53680 moveto
81600 53680 lineto
stroke
0 0 0 setrgbcolor
newpath
67900 53780 moveto
68000 53680 lineto
stroke
0 0 0 setrgbcolor
newpath
83000 46980 moveto
83000 48680 lineto
stroke
0 0 0 setrgbcolor
newpath
84500 50180 moveto
84500 52680 lineto
stroke
0 0 0 setrgbcolor
newpath
83000 48680 moveto
84500 50180 lineto
stroke
0 0 0 setrgbcolor
newpath
87000 46980 moveto
89700 46980 lineto
stroke
0 0 0 setrgbcolor
newpath
89500 39980 moveto
87000 39980 lineto
stroke
0 0 0 setrgbcolor
newpath
91000 41480 moveto
89500 39980 lineto
stroke
0 0 0 setrgbcolor
newpath
91000 45680 moveto
91000 41480 lineto
stroke
0 0 0 setrgbcolor
newpath
89700 46980 moveto
91000 45680 lineto
stroke
0 0 0 setrgbcolor
newpath
89500 50280 moveto
88600 50280 lineto
stroke
0 0 0 setrgbcolor
newpath
87900 50980 moveto
87900 52280 lineto
stroke
0 0 0 setrgbcolor
newpath
88600 50280 moveto
87900 50980 lineto
stroke
0 0 0 setrgbcolor
newpath
86900 52280 moveto
86900 53180 lineto
stroke
0 0 0 setrgbcolor
newpath
83500 53180 moveto
83500 52680 lineto
stroke
0 0 0 setrgbcolor
newpath
84000 53680 moveto
83500 53180 lineto
stroke
0 0 0 setrgbcolor
newpath
86400 53680 moveto
84000 53680 lineto
stroke
0 0 0 setrgbcolor
newpath
86900 53180 moveto
86400 53680 lineto
stroke
0 0 0 setrgbcolor
newpath
82500 50280 moveto
82500 52680 lineto
stroke
0 0 0 setrgbcolor
newpath
87000 44980 moveto
87700 44980 lineto
stroke
0 0 0 setrgbcolor
newpath
87700 41980 moveto
87000 41980 lineto
stroke
0 0 0 setrgbcolor
newpath
88000 42280 moveto
87700 41980 lineto
stroke
0 0 0 setrgbcolor
newpath
88000 44680 moveto
88000 42280 lineto
stroke
0 0 0 setrgbcolor
newpath
87700 44980 moveto
88000 44680 lineto
stroke
0 0 0 setrgbcolor
newpath
78300 49880 moveto
76900 49880 lineto
stroke
0 0 0 setrgbcolor
newpath
71300 49880 moveto
71300 52480 lineto
stroke
0 0 0 setrgbcolor
newpath
71300 52480 moveto
71500 52680 lineto
stroke
0 0 0 setrgbcolor
newpath
80700 49880 moveto
80700 50580 lineto
stroke
0 0 0 setrgbcolor
newpath
74500 51580 moveto
74500 52680 lineto
stroke
0 0 0 setrgbcolor
newpath
75000 51080 moveto
74500 51580 lineto
stroke
0 0 0 setrgbcolor
newpath
80200 51080 moveto
75000 51080 lineto
stroke
0 0 0 setrgbcolor
newpath
80700 50580 moveto
80200 51080 lineto
stroke
0 0 0 setrgbcolor
newpath
75900 49880 moveto
75200 49880 lineto
stroke
0 0 0 setrgbcolor
newpath
72400 52580 moveto
72500 52680 lineto
stroke
0 0 0 setrgbcolor
newpath
72400 49680 moveto
72400 52580 lineto
stroke
0 0 0 setrgbcolor
newpath
70400 47680 moveto
72400 49680 lineto
stroke
0 0 0 setrgbcolor
newpath
70400 46880 moveto
70400 47680 lineto
stroke
0 0 0 setrgbcolor
newpath
71000 46280 moveto
70400 46880 lineto
stroke
0 0 0 setrgbcolor
newpath
71600 46280 moveto
71000 46280 lineto
stroke
0 0 0 setrgbcolor
newpath
75200 49880 moveto
71600 46280 lineto
stroke
0 0 0 setrgbcolor
newpath
71300 47280 moveto
71300 47380 lineto
stroke
0 0 0 setrgbcolor
newpath
73500 49580 moveto
73500 52680 lineto
stroke
0 0 0 setrgbcolor
newpath
71300 47380 moveto
73500 49580 lineto
stroke
0 0 0 setrgbcolor
newpath
78300 47280 moveto
78400 47280 lineto
stroke
0 0 0 setrgbcolor
newpath
79700 48580 moveto
79700 49880 lineto
stroke
0 0 0 setrgbcolor
newpath
78400 47280 moveto
79700 48580 lineto
stroke
0 0 0 setrgbcolor
newpath
77800 44730 moveto
77800 44980 lineto
stroke
0 0 0 setrgbcolor
newpath
77800 44980 moveto
76900 45880 lineto
stroke
0 0 0 setrgbcolor
newpath
76900 45880 moveto
76900 44830 lineto
stroke
0 0 0 setrgbcolor
newpath
76900 44830 moveto
76750 44680 lineto
stroke
0 0 0 setrgbcolor
newpath
83000 44980 moveto
82500 44980 lineto
stroke
0 0 0 setrgbcolor
newpath
85500 48180 moveto
85500 52680 lineto
stroke
0 0 0 setrgbcolor
newpath
83800 46480 moveto
85500 48180 lineto
stroke
0 0 0 setrgbcolor
newpath
82200 46480 moveto
83800 46480 lineto
stroke
0 0 0 setrgbcolor
newpath
82000 46280 moveto
82200 46480 lineto
stroke
0 0 0 setrgbcolor
newpath
82000 45480 moveto
82000 46280 lineto
stroke
0 0 0 setrgbcolor
newpath
82500 44980 moveto
82000 45480 lineto
stroke
0 0 0 setrgbcolor
newpath
83000 45980 moveto
83500 45980 lineto
stroke
0 0 0 setrgbcolor
newpath
83700 43980 moveto
83000 43980 lineto
stroke
0 0 0 setrgbcolor
newpath
84000 44280 moveto
83700 43980 lineto
stroke
0 0 0 setrgbcolor
newpath
84000 45480 moveto
84000 44280 lineto
stroke
0 0 0 setrgbcolor
newpath
83500 45980 moveto
84000 45480 lineto
stroke
showpage
grestore
%%EOF
