EESchema Schematic File Version 2
LIBS:power
LIBS:device
LIBS:transistors
LIBS:conn
LIBS:linear
LIBS:regul
LIBS:74xx
LIBS:cmos4000
LIBS:adc-dac
LIBS:memory
LIBS:xilinx
LIBS:special
LIBS:microcontrollers
LIBS:dsp
LIBS:microchip
LIBS:analog_switches
LIBS:motorola
LIBS:texas
LIBS:intel
LIBS:audio
LIBS:interface
LIBS:digital-audio
LIBS:philips
LIBS:display
LIBS:cypress
LIBS:siliconi
LIBS:opto
LIBS:atmel
LIBS:contrib
LIBS:valves
LIBS:mc34063
LIBS:sodl_device-cache
EELAYER 27 0
EELAYER END
$Descr A3 16535 11693
encoding utf-8
Sheet 1 1
Title ""
Date "5 aug 2015"
Rev ""
Comp ""
Comment1 ""
Comment2 "bo form jmule.ru"
Comment3 ""
Comment4 ""
$EndDescr
$Comp
L CONN_4 P1
U 1 1 55B84AA9
P 1100 1700
F 0 "P1" V 1050 1700 50  0000 C CNN
F 1 "CONN_4" V 1150 1700 50  0000 C CNN
F 2 "" H 1100 1700 60  0000 C CNN
F 3 "" H 1100 1700 60  0000 C CNN
	1    1100 1700
	-1   0    0    -1  
$EndComp
Text Notes 800  900  0    60   ~ 0
Гнездо угломера:\n\n1 наш прм +\n2 наш прм -\n3 наша прд +\n4 наша прд -
$Comp
L CONN_2 P3
U 1 1 55B85447
P 7450 7600
F 0 "P3" V 7400 7600 40  0000 C CNN
F 1 "CONN_2" V 7500 7600 40  0000 C CNN
F 2 "" H 7450 7600 60  0000 C CNN
F 3 "" H 7450 7600 60  0000 C CNN
	1    7450 7600
	-1   0    0    -1  
$EndComp
Text Notes 7050 7200 0    60   ~ 0
Гнездо питания 12В\n1 +\n2 -
$Comp
L +12V #PWR01
U 1 1 55B854B4
P 8200 7150
F 0 "#PWR01" H 8200 7100 20  0001 C CNN
F 1 "+12V" H 8200 7250 30  0000 C CNN
F 2 "" H 8200 7150 60  0000 C CNN
F 3 "" H 8200 7150 60  0000 C CNN
	1    8200 7150
	1    0    0    -1  
$EndComp
$Comp
L GND #PWR02
U 1 1 55B854C3
P 8200 7950
F 0 "#PWR02" H 8200 7950 30  0001 C CNN
F 1 "GND" H 8200 7880 30  0001 C CNN
F 2 "" H 8200 7950 60  0000 C CNN
F 3 "" H 8200 7950 60  0000 C CNN
	1    8200 7950
	1    0    0    -1  
$EndComp
$Comp
L PWR_FLAG #FLG03
U 1 1 55B854D2
P 9050 7150
F 0 "#FLG03" H 9050 7245 30  0001 C CNN
F 1 "PWR_FLAG" H 9050 7330 30  0000 C CNN
F 2 "" H 9050 7150 60  0000 C CNN
F 3 "" H 9050 7150 60  0000 C CNN
	1    9050 7150
	1    0    0    -1  
$EndComp
$Comp
L PWR_FLAG #FLG04
U 1 1 55B854DF
P 9450 7150
F 0 "#FLG04" H 9450 7245 30  0001 C CNN
F 1 "PWR_FLAG" H 9450 7330 30  0000 C CNN
F 2 "" H 9450 7150 60  0000 C CNN
F 3 "" H 9450 7150 60  0000 C CNN
	1    9450 7150
	1    0    0    -1  
$EndComp
$Comp
L R R4
U 1 1 55B8563B
P 1950 1550
F 0 "R4" V 2030 1550 40  0000 C CNN
F 1 "2k5 5w" V 1957 1551 40  0000 C CNN
F 2 "~" V 1880 1550 30  0000 C CNN
F 3 "~" H 1950 1550 30  0000 C CNN
	1    1950 1550
	0    -1   -1   0   
$EndComp
$Comp
L OPTO-TRANSISTOR4 U2
U 1 1 55B85685
P 2950 1700
F 0 "U2" H 3150 1950 60  0000 C CNN
F 1 "OPTO-TRANSISTOR4 PC817" H 2950 1450 60  0000 C CNN
F 2 "~" H 2950 1700 60  0000 C CNN
F 3 "~" H 2950 1700 60  0000 C CNN
	1    2950 1700
	1    0    0    -1  
$EndComp
$Comp
L R R8
U 1 1 55B85882
P 3650 1200
F 0 "R8" V 3730 1200 40  0000 C CNN
F 1 "1k" V 3657 1201 40  0000 C CNN
F 2 "~" V 3580 1200 30  0000 C CNN
F 3 "~" H 3650 1200 30  0000 C CNN
	1    3650 1200
	-1   0    0    1   
$EndComp
$Comp
L +12V #PWR05
U 1 1 55B8588D
P 3650 800
F 0 "#PWR05" H 3650 750 20  0001 C CNN
F 1 "+12V" H 3650 900 30  0000 C CNN
F 2 "" H 3650 800 60  0000 C CNN
F 3 "" H 3650 800 60  0000 C CNN
	1    3650 800 
	1    0    0    -1  
$EndComp
$Comp
L GND #PWR06
U 1 1 55B858A2
P 3650 2500
F 0 "#PWR06" H 3650 2500 30  0001 C CNN
F 1 "GND" H 3650 2430 30  0001 C CNN
F 2 "" H 3650 2500 60  0000 C CNN
F 3 "" H 3650 2500 60  0000 C CNN
	1    3650 2500
	1    0    0    -1  
$EndComp
$Comp
L NPN Q2
U 1 1 55B858FB
P 4000 1550
F 0 "Q2" H 4000 1400 50  0000 R CNN
F 1 "NPN BC846" H 4600 1700 50  0000 R CNN
F 2 "~" H 4000 1550 60  0000 C CNN
F 3 "~" H 4000 1550 60  0000 C CNN
	1    4000 1550
	1    0    0    -1  
$EndComp
$Comp
L R R11
U 1 1 55B85931
P 4100 2100
F 0 "R11" V 4180 2100 40  0000 C CNN
F 1 "1k" V 4107 2101 40  0000 C CNN
F 2 "~" V 4030 2100 30  0000 C CNN
F 3 "~" H 4100 2100 30  0000 C CNN
	1    4100 2100
	-1   0    0    1   
$EndComp
Text Label 6200 1800 0    60   ~ 0
nash_prm
$Comp
L GND #PWR07
U 1 1 55B859A4
P 4100 2500
F 0 "#PWR07" H 4100 2500 30  0001 C CNN
F 1 "GND" H 4100 2430 30  0001 C CNN
F 2 "" H 4100 2500 60  0000 C CNN
F 3 "" H 4100 2500 60  0000 C CNN
	1    4100 2500
	1    0    0    -1  
$EndComp
$Comp
L +12V #PWR08
U 1 1 55B859BF
P 4100 800
F 0 "#PWR08" H 4100 750 20  0001 C CNN
F 1 "+12V" H 4100 900 30  0000 C CNN
F 2 "" H 4100 800 60  0000 C CNN
F 3 "" H 4100 800 60  0000 C CNN
	1    4100 800 
	1    0    0    -1  
$EndComp
$Comp
L OPTO-TRANSISTOR4 U1
U 1 1 55B85B16
P 2900 2950
F 0 "U1" H 3100 3200 60  0000 C CNN
F 1 "OPTO-TRANSISTOR4 PC817" H 2900 2700 60  0000 C CNN
F 2 "~" H 2900 2950 60  0000 C CNN
F 3 "~" H 2900 2950 60  0000 C CNN
	1    2900 2950
	-1   0    0    -1  
$EndComp
$Comp
L R R5
U 1 1 55B85B2C
P 1950 2800
F 0 "R5" V 2030 2800 40  0000 C CNN
F 1 "2k5 5w" V 1957 2801 40  0000 C CNN
F 2 "~" V 1880 2800 30  0000 C CNN
F 3 "~" H 1950 2800 30  0000 C CNN
	1    1950 2800
	0    -1   -1   0   
$EndComp
$Comp
L NPN Q5
U 1 1 55B85C14
P 5250 3100
F 0 "Q5" H 5250 2950 50  0000 R CNN
F 1 "NPN BC846" H 5850 3250 50  0000 R CNN
F 2 "~" H 5250 3100 60  0000 C CNN
F 3 "~" H 5250 3100 60  0000 C CNN
	1    5250 3100
	-1   0    0    -1  
$EndComp
$Comp
L R R13
U 1 1 55B85C2A
P 5800 3100
F 0 "R13" V 5880 3100 40  0000 C CNN
F 1 "1k" V 5807 3101 40  0000 C CNN
F 2 "~" V 5730 3100 30  0000 C CNN
F 3 "~" H 5800 3100 30  0000 C CNN
	1    5800 3100
	0    1    1    0   
$EndComp
$Comp
L R R12
U 1 1 55B85C5C
P 5150 2500
F 0 "R12" V 5230 2500 40  0000 C CNN
F 1 "600" V 5157 2501 40  0000 C CNN
F 2 "~" V 5080 2500 30  0000 C CNN
F 3 "~" H 5150 2500 30  0000 C CNN
	1    5150 2500
	-1   0    0    1   
$EndComp
$Comp
L +12V #PWR09
U 1 1 55B85C73
P 5150 2050
F 0 "#PWR09" H 5150 2000 20  0001 C CNN
F 1 "+12V" H 5150 2150 30  0000 C CNN
F 2 "" H 5150 2050 60  0000 C CNN
F 3 "" H 5150 2050 60  0000 C CNN
	1    5150 2050
	1    0    0    -1  
$EndComp
$Comp
L GND #PWR010
U 1 1 55B85C82
P 5150 3400
F 0 "#PWR010" H 5150 3400 30  0001 C CNN
F 1 "GND" H 5150 3330 30  0001 C CNN
F 2 "" H 5150 3400 60  0000 C CNN
F 3 "" H 5150 3400 60  0000 C CNN
	1    5150 3400
	1    0    0    -1  
$EndComp
$Comp
L GND #PWR011
U 1 1 55B85C89
P 3650 3400
F 0 "#PWR011" H 3650 3400 30  0001 C CNN
F 1 "GND" H 3650 3330 30  0001 C CNN
F 2 "" H 3650 3400 60  0000 C CNN
F 3 "" H 3650 3400 60  0000 C CNN
	1    3650 3400
	1    0    0    -1  
$EndComp
Text Label 6200 3100 0    60   ~ 0
nasha_prd
Text Notes 5700 700  0    60   ~ 0
ДРАЙВЕР УГЛОМЕРА
$Comp
L CONN_4 P2
U 1 1 55B86088
P 7350 1700
F 0 "P2" V 7300 1700 50  0000 C CNN
F 1 "CONN_4" V 7400 1700 50  0000 C CNN
F 2 "" H 7350 1700 60  0000 C CNN
F 3 "" H 7350 1700 60  0000 C CNN
	1    7350 1700
	-1   0    0    -1  
$EndComp
Text Notes 7100 900  0    60   ~ 0
Гнездо Альфа-Телекса:\n\n1 наш прм +\n2 наш прм -\n3 наша прд +\n4 наша прд -
$Comp
L OPTO-TRANSISTOR4 U3
U 1 1 55B8622F
P 9900 1700
F 0 "U3" H 10100 1950 60  0000 C CNN
F 1 "OPTO-TRANSISTOR4 PC817" H 9900 1450 60  0000 C CNN
F 2 "~" H 9900 1700 60  0000 C CNN
F 3 "~" H 9900 1700 60  0000 C CNN
	1    9900 1700
	1    0    0    -1  
$EndComp
$Comp
L DIODE D7
U 1 1 55B862BD
P 8900 1750
F 0 "D7" H 8900 1850 40  0000 C CNN
F 1 "DIODE" H 8900 1650 40  0000 C CNN
F 2 "~" H 8900 1750 60  0000 C CNN
F 3 "~" H 8900 1750 60  0000 C CNN
	1    8900 1750
	0    -1   -1   0   
$EndComp
$Comp
L R R14
U 1 1 55B862DE
P 8400 1550
F 0 "R14" V 8480 1550 40  0000 C CNN
F 1 "2k 1w" V 8407 1551 40  0000 C CNN
F 2 "~" V 8330 1550 30  0000 C CNN
F 3 "~" H 8400 1550 30  0000 C CNN
	1    8400 1550
	0    -1   -1   0   
$EndComp
$Comp
L +12V #PWR012
U 1 1 55B864E4
P 10500 1000
F 0 "#PWR012" H 10500 950 20  0001 C CNN
F 1 "+12V" H 10500 1100 30  0000 C CNN
F 2 "" H 10500 1000 60  0000 C CNN
F 3 "" H 10500 1000 60  0000 C CNN
	1    10500 1000
	1    0    0    -1  
$EndComp
Text Label 10700 1850 0    60   ~ 0
nasha_prd
$Comp
L +12V #PWR013
U 1 1 55B86585
P 11700 1000
F 0 "#PWR013" H 11700 950 20  0001 C CNN
F 1 "+12V" H 11700 1100 30  0000 C CNN
F 2 "" H 11700 1000 60  0000 C CNN
F 3 "" H 11700 1000 60  0000 C CNN
	1    11700 1000
	1    0    0    -1  
$EndComp
$Comp
L CP1 C1
U 1 1 55B86597
P 11700 1450
F 0 "C1" H 11750 1550 50  0000 L CNN
F 1 "CP 1000mkF 16v" V 11800 700 50  0000 L CNN
F 2 "~" H 11700 1450 60  0000 C CNN
F 3 "~" H 11700 1450 60  0000 C CNN
	1    11700 1450
	1    0    0    -1  
$EndComp
$Comp
L GND #PWR014
U 1 1 55B865A9
P 11700 3000
F 0 "#PWR014" H 11700 3000 30  0001 C CNN
F 1 "GND" H 11700 2930 30  0001 C CNN
F 2 "" H 11700 3000 60  0000 C CNN
F 3 "" H 11700 3000 60  0000 C CNN
	1    11700 3000
	1    0    0    -1  
$EndComp
$Comp
L MC34063 U8
U 1 1 55B86A8F
P 13000 1850
F 0 "U8" H 13150 2200 60  0000 L CNN
F 1 "MC34063" H 13100 1500 60  0000 L CNN
F 2 "" H 13000 1850 60  0000 C CNN
F 3 "" H 13000 1850 60  0000 C CNN
	1    13000 1850
	1    0    0    -1  
$EndComp
$Comp
L C C2
U 1 1 55B86ACD
P 11950 2400
F 0 "C2" H 11950 2500 40  0000 L CNN
F 1 "680 pF" H 11956 2315 40  0000 L CNN
F 2 "~" H 11988 2250 30  0000 C CNN
F 3 "~" H 11950 2400 60  0000 C CNN
	1    11950 2400
	1    0    0    -1  
$EndComp
$Comp
L GND #PWR015
U 1 1 55B86AF7
P 11950 3000
F 0 "#PWR015" H 11950 3000 30  0001 C CNN
F 1 "GND" H 11950 2930 30  0001 C CNN
F 2 "" H 11950 3000 60  0000 C CNN
F 3 "" H 11950 3000 60  0000 C CNN
	1    11950 3000
	1    0    0    -1  
$EndComp
$Comp
L GND #PWR016
U 1 1 55B86B6C
P 13000 3000
F 0 "#PWR016" H 13000 3000 30  0001 C CNN
F 1 "GND" H 13000 2930 30  0001 C CNN
F 2 "" H 13000 3000 60  0000 C CNN
F 3 "" H 13000 3000 60  0000 C CNN
	1    13000 3000
	1    0    0    -1  
$EndComp
$Comp
L R R17
U 1 1 55B86BAB
P 13400 1250
F 0 "R17" V 13480 1250 40  0000 C CNN
F 1 "0.22" V 13407 1251 40  0000 C CNN
F 2 "~" V 13330 1250 30  0000 C CNN
F 3 "~" H 13400 1250 30  0000 C CNN
	1    13400 1250
	0    -1   -1   0   
$EndComp
$Comp
L +12V #PWR017
U 1 1 55B86BB1
P 13000 1000
F 0 "#PWR017" H 13000 950 20  0001 C CNN
F 1 "+12V" H 13000 1100 30  0000 C CNN
F 2 "" H 13000 1000 60  0000 C CNN
F 3 "" H 13000 1000 60  0000 C CNN
	1    13000 1000
	1    0    0    -1  
$EndComp
$Comp
L INDUCTOR L1
U 1 1 55B86C72
P 14250 1450
F 0 "L1" V 14200 1450 40  0000 C CNN
F 1 "INDUCTOR" V 14350 1450 40  0000 C CNN
F 2 "~" H 14250 1450 60  0000 C CNN
F 3 "~" H 14250 1450 60  0000 C CNN
	1    14250 1450
	1    0    0    -1  
$EndComp
$Comp
L R R21
U 1 1 55B86C7F
P 14000 1400
F 0 "R21" V 14080 1400 40  0000 C CNN
F 1 "180" V 14007 1401 40  0000 C CNN
F 2 "~" V 13930 1400 30  0000 C CNN
F 3 "~" H 14000 1400 30  0000 C CNN
	1    14000 1400
	-1   0    0    1   
$EndComp
$Comp
L DIODESCH D8
U 1 1 55B86F1D
P 14250 2050
F 0 "D8" H 14250 2150 40  0000 C CNN
F 1 "DIODESCH" H 14250 1950 40  0000 C CNN
F 2 "~" H 14250 2050 60  0000 C CNN
F 3 "~" H 14250 2050 60  0000 C CNN
	1    14250 2050
	0    1    1    0   
$EndComp
$Comp
L CP1 C3
U 1 1 55B86F30
P 14250 2550
F 0 "C3" H 14300 2650 50  0000 L CNN
F 1 "CP 1000mkF 60v" V 14450 2150 50  0000 L CNN
F 2 "~" H 14250 2550 60  0000 C CNN
F 3 "~" H 14250 2550 60  0000 C CNN
	1    14250 2550
	1    0    0    -1  
$EndComp
$Comp
L GND #PWR018
U 1 1 55B86F4E
P 14250 3000
F 0 "#PWR018" H 14250 3000 30  0001 C CNN
F 1 "GND" H 14250 2930 30  0001 C CNN
F 2 "" H 14250 3000 60  0000 C CNN
F 3 "" H 14250 3000 60  0000 C CNN
	1    14250 3000
	1    0    0    -1  
$EndComp
$Comp
L GND #PWR019
U 1 1 55B8702D
P 14000 3000
F 0 "#PWR019" H 14000 3000 30  0001 C CNN
F 1 "GND" H 14000 2930 30  0001 C CNN
F 2 "" H 14000 3000 60  0000 C CNN
F 3 "" H 14000 3000 60  0000 C CNN
	1    14000 3000
	1    0    0    -1  
$EndComp
$Comp
L R R23
U 1 1 55B870A0
P 14750 1350
F 0 "R23" V 14830 1350 40  0000 C CNN
F 1 "10k" V 14757 1351 40  0000 C CNN
F 2 "~" V 14680 1350 30  0000 C CNN
F 3 "~" H 14750 1350 30  0000 C CNN
	1    14750 1350
	-1   0    0    1   
$EndComp
$Comp
L R R24
U 1 1 55B870AB
P 14750 2550
F 0 "R24" V 14830 2550 40  0000 C CNN
F 1 "1k" V 14757 2551 40  0000 C CNN
F 2 "~" V 14680 2550 30  0000 C CNN
F 3 "~" H 14750 2550 30  0000 C CNN
	1    14750 2550
	-1   0    0    1   
$EndComp
$Comp
L GND #PWR020
U 1 1 55B870B6
P 14750 3000
F 0 "#PWR020" H 14750 3000 30  0001 C CNN
F 1 "GND" H 14750 2930 30  0001 C CNN
F 2 "" H 14750 3000 60  0000 C CNN
F 3 "" H 14750 3000 60  0000 C CNN
	1    14750 3000
	1    0    0    -1  
$EndComp
$Comp
L LM317AT U9
U 1 1 55B872C1
P 14400 3450
F 0 "U9" H 14200 3650 40  0000 C CNN
F 1 "LM317AT" H 14400 3650 40  0000 L CNN
F 2 "TO-220" H 14400 3550 30  0000 C CIN
F 3 "" H 14400 3450 60  0000 C CNN
	1    14400 3450
	-1   0    0    -1  
$EndComp
$Comp
L R R20
U 1 1 55B872D8
P 13800 3750
F 0 "R20" V 13880 3750 40  0000 C CNN
F 1 "150" V 13807 3751 40  0000 C CNN
F 2 "~" V 13730 3750 30  0000 C CNN
F 3 "~" H 13800 3750 30  0000 C CNN
	1    13800 3750
	1    0    0    1   
$EndComp
$Comp
L R R19
U 1 1 55B872E3
P 13600 3750
F 0 "R19" V 13680 3750 40  0000 C CNN
F 1 "150" V 13607 3751 40  0000 C CNN
F 2 "~" V 13530 3750 30  0000 C CNN
F 3 "~" H 13600 3750 30  0000 C CNN
	1    13600 3750
	1    0    0    1   
$EndComp
$Comp
L R R18
U 1 1 55B872E9
P 13400 3750
F 0 "R18" V 13480 3750 40  0000 C CNN
F 1 "150" V 13407 3751 40  0000 C CNN
F 2 "~" V 13330 3750 30  0000 C CNN
F 3 "~" H 13400 3750 30  0000 C CNN
	1    13400 3750
	1    0    0    1   
$EndComp
$Comp
L OPTO-TRANSISTOR4 U6
U 1 1 55B87623
P 12850 4750
F 0 "U6" H 13050 5000 60  0000 C CNN
F 1 "OPTO-TRANSISTOR4 PC817" H 12850 4500 60  0000 C CNN
F 2 "~" H 12850 4750 60  0000 C CNN
F 3 "~" H 12850 4750 60  0000 C CNN
	1    12850 4750
	-1   0    0    -1  
$EndComp
$Comp
L OPTO-TRANSISTOR4 U7
U 1 1 55B87629
P 12850 6000
F 0 "U7" H 13050 6250 60  0000 C CNN
F 1 "OPTO-TRANSISTOR4 PC817" H 12850 5750 60  0000 C CNN
F 2 "~" H 12850 6000 60  0000 C CNN
F 3 "~" H 12850 6000 60  0000 C CNN
	1    12850 6000
	-1   0    0    -1  
$EndComp
$Comp
L NPN Q6
U 1 1 55B8762F
P 11250 4400
F 0 "Q6" H 11250 4250 50  0000 R CNN
F 1 "NPN BC846" H 11850 4550 50  0000 R CNN
F 2 "~" H 11250 4400 60  0000 C CNN
F 3 "~" H 11250 4400 60  0000 C CNN
	1    11250 4400
	-1   0    0    -1  
$EndComp
$Comp
L R R16
U 1 1 55B8763F
P 11800 4400
F 0 "R16" V 11880 4400 40  0000 C CNN
F 1 "1k" V 11807 4401 40  0000 C CNN
F 2 "~" V 11730 4400 30  0000 C CNN
F 3 "~" H 11800 4400 30  0000 C CNN
	1    11800 4400
	0    1    1    0   
$EndComp
Text Label 14800 4600 0    60   ~ 0
nash_prm
$Comp
L R R22
U 1 1 55B87656
P 14050 4600
F 0 "R22" V 14130 4600 40  0000 C CNN
F 1 "600" V 14057 4601 40  0000 C CNN
F 2 "~" V 13980 4600 30  0000 C CNN
F 3 "~" H 14050 4600 30  0000 C CNN
	1    14050 4600
	0    1    1    0   
$EndComp
$Comp
L +12V #PWR021
U 1 1 55B87ACC
P 11150 3250
F 0 "#PWR021" H 11150 3200 20  0001 C CNN
F 1 "+12V" H 11150 3350 30  0000 C CNN
F 2 "" H 11150 3250 60  0000 C CNN
F 3 "" H 11150 3250 60  0000 C CNN
	1    11150 3250
	1    0    0    -1  
$EndComp
$Comp
L R R15
U 1 1 55B87BC8
P 11150 3850
F 0 "R15" V 11230 3850 40  0000 C CNN
F 1 "600" V 11157 3851 40  0000 C CNN
F 2 "~" V 11080 3850 30  0000 C CNN
F 3 "~" H 11150 3850 30  0000 C CNN
	1    11150 3850
	1    0    0    -1  
$EndComp
$Comp
L GND #PWR022
U 1 1 55B87C54
P 11150 4700
F 0 "#PWR022" H 11150 4700 30  0001 C CNN
F 1 "GND" H 11150 4630 30  0001 C CNN
F 2 "" H 11150 4700 60  0000 C CNN
F 3 "" H 11150 4700 60  0000 C CNN
	1    11150 4700
	1    0    0    -1  
$EndComp
$Comp
L GND #PWR023
U 1 1 55B881F7
P 13500 6500
F 0 "#PWR023" H 13500 6500 30  0001 C CNN
F 1 "GND" H 13500 6430 30  0001 C CNN
F 2 "" H 13500 6500 60  0000 C CNN
F 3 "" H 13500 6500 60  0000 C CNN
	1    13500 6500
	1    0    0    -1  
$EndComp
$Comp
L GND #PWR024
U 1 1 55B884A5
P 12250 6500
F 0 "#PWR024" H 12250 6500 30  0001 C CNN
F 1 "GND" H 12250 6430 30  0001 C CNN
F 2 "" H 12250 6500 60  0000 C CNN
F 3 "" H 12250 6500 60  0000 C CNN
	1    12250 6500
	1    0    0    -1  
$EndComp
$Comp
L OPTO-TRANSISTOR4 U4
U 1 1 55B88524
P 10050 4750
F 0 "U4" H 10250 5000 60  0000 C CNN
F 1 "OPTO-TRANSISTOR4 PC817" H 10050 4500 60  0000 C CNN
F 2 "~" H 10050 4750 60  0000 C CNN
F 3 "~" H 10050 4750 60  0000 C CNN
	1    10050 4750
	-1   0    0    -1  
$EndComp
$Comp
L OPTO-TRANSISTOR4 U5
U 1 1 55B8852A
P 10050 6000
F 0 "U5" H 10250 6250 60  0000 C CNN
F 1 "OPTO-TRANSISTOR4 PC817" H 10050 5750 60  0000 C CNN
F 2 "~" H 10050 6000 60  0000 C CNN
F 3 "~" H 10050 6000 60  0000 C CNN
	1    10050 6000
	-1   0    0    -1  
$EndComp
$Comp
L GND #PWR025
U 1 1 55B88627
P 10700 6500
F 0 "#PWR025" H 10700 6500 30  0001 C CNN
F 1 "GND" H 10700 6430 30  0001 C CNN
F 2 "" H 10700 6500 60  0000 C CNN
F 3 "" H 10700 6500 60  0000 C CNN
	1    10700 6500
	1    0    0    -1  
$EndComp
Wire Wire Line
	8200 7500 7800 7500
Wire Wire Line
	8200 7150 8200 7500
Wire Wire Line
	8200 7950 8200 7700
Wire Wire Line
	1450 1550 1700 1550
Wire Wire Line
	2200 1550 2300 1550
Wire Wire Line
	2300 1850 2300 1650
Wire Wire Line
	2300 1650 1450 1650
Wire Wire Line
	3650 800  3650 950 
Wire Wire Line
	3650 1450 3650 1550
Wire Wire Line
	3550 1550 3800 1550
Wire Wire Line
	3550 1850 3650 1850
Wire Wire Line
	4100 1750 4100 1850
Connection ~ 4100 1800
Wire Wire Line
	3650 1850 3650 2500
Wire Wire Line
	4100 2350 4100 2500
Wire Wire Line
	4100 800  4100 1350
Connection ~ 3650 1550
Wire Wire Line
	1450 1750 1600 1750
Wire Wire Line
	1600 1750 1600 2800
Wire Wire Line
	1600 2800 1700 2800
Wire Wire Line
	2200 2800 2300 2800
Wire Wire Line
	2300 3100 1500 3100
Wire Wire Line
	1500 3100 1500 1850
Wire Wire Line
	1500 1850 1450 1850
Wire Wire Line
	5150 2050 5150 2250
Wire Wire Line
	5150 2750 5150 2900
Wire Wire Line
	5150 3300 5150 3400
Wire Wire Line
	3550 2800 5150 2800
Connection ~ 5150 2800
Wire Wire Line
	3550 3100 3650 3100
Wire Wire Line
	3650 3100 3650 3400
Wire Wire Line
	5550 3100 5450 3100
Wire Wire Line
	6200 3100 6050 3100
Wire Notes Line
	700  3900 6800 3900
Wire Notes Line
	6800 600  6800 11000
Wire Wire Line
	6200 1800 4100 1800
Wire Wire Line
	7700 1550 8150 1550
Wire Wire Line
	8650 1550 9250 1550
Connection ~ 8900 1550
Wire Wire Line
	9250 1950 9250 1850
Wire Wire Line
	8700 1950 9250 1950
Wire Wire Line
	8700 1950 8700 1650
Wire Wire Line
	8700 1650 7700 1650
Connection ~ 8900 1950
Wire Wire Line
	10500 1000 10500 1550
Wire Wire Line
	10500 1850 10700 1850
Wire Wire Line
	11700 1000 11700 1250
Wire Wire Line
	11700 1650 11700 3000
Wire Wire Line
	12150 2000 11950 2000
Wire Wire Line
	11950 2000 11950 2200
Wire Wire Line
	11950 2600 11950 3000
Wire Wire Line
	13000 2350 13000 3000
Wire Wire Line
	13000 1000 13000 1350
Wire Wire Line
	13150 1250 13000 1250
Connection ~ 13000 1250
Wire Wire Line
	13650 1250 13650 1100
Wire Wire Line
	11950 1100 14250 1100
Wire Wire Line
	11950 1100 11950 1700
Wire Wire Line
	11950 1700 12150 1700
Wire Wire Line
	14000 1650 13850 1650
Wire Wire Line
	14000 1100 14000 1150
Connection ~ 13650 1100
Wire Wire Line
	14250 1100 14250 1150
Connection ~ 14000 1100
Wire Wire Line
	14250 1750 13850 1750
Wire Wire Line
	14250 2750 14250 3000
Wire Wire Line
	14250 2250 14250 2350
Wire Wire Line
	14250 1850 14250 1750
Wire Wire Line
	14000 3000 14000 1900
Wire Wire Line
	14000 1900 13850 1900
Wire Wire Line
	14750 1600 14750 2300
Wire Wire Line
	14750 2800 14750 3000
Wire Wire Line
	13850 2050 14750 2050
Connection ~ 14750 2050
Wire Wire Line
	14600 1100 15200 1100
Wire Wire Line
	14600 1100 14600 2300
Wire Wire Line
	14600 2300 14250 2300
Connection ~ 14250 2300
Wire Wire Line
	13400 3400 13400 3500
Wire Wire Line
	13600 3400 13600 3500
Connection ~ 13600 3400
Wire Wire Line
	13800 3400 13800 3500
Connection ~ 13800 3400
Wire Wire Line
	14400 4100 14400 3700
Wire Wire Line
	13400 4100 14400 4100
Wire Wire Line
	13400 4100 13400 4000
Wire Wire Line
	13600 4000 13600 4100
Connection ~ 13600 4100
Wire Wire Line
	13800 4000 13800 4100
Connection ~ 13800 4100
Wire Wire Line
	15200 1100 15200 3400
Wire Wire Line
	15200 3400 14800 3400
Connection ~ 14750 1100
Wire Wire Line
	14300 4600 14800 4600
Connection ~ 13400 3400
Wire Wire Line
	11550 4400 11450 4400
Wire Wire Line
	11150 4100 11150 4200
Wire Wire Line
	13800 4600 13500 4600
Wire Wire Line
	13500 4900 13500 5850
Wire Wire Line
	13500 6150 13500 6500
Wire Wire Line
	11150 4600 11150 4700
Wire Wire Line
	12250 4600 12250 3400
Wire Wire Line
	9450 3400 14000 3400
Wire Wire Line
	12250 5200 12250 4900
Wire Wire Line
	8600 5200 12250 5200
Wire Wire Line
	8600 1750 7700 1750
Wire Wire Line
	12250 5550 12250 5850
Wire Wire Line
	8500 5550 12250 5550
Wire Wire Line
	8500 5550 8500 1850
Wire Wire Line
	8500 1850 7700 1850
Wire Wire Line
	12050 4400 14400 4400
Wire Wire Line
	14400 4400 14400 4600
Connection ~ 14400 4600
Wire Wire Line
	12250 6150 12250 6500
Wire Wire Line
	10700 4600 10700 4150
Wire Wire Line
	10700 4150 11150 4150
Connection ~ 11150 4150
Wire Wire Line
	10700 4900 10700 5850
Wire Wire Line
	10700 6150 10700 6500
Wire Wire Line
	11150 3600 11150 3250
Wire Wire Line
	9450 4900 9350 4900
Wire Wire Line
	9350 4900 9350 5100
Wire Wire Line
	9350 5100 9000 5550
Connection ~ 9000 5550
Wire Wire Line
	9450 5850 9350 5850
Wire Wire Line
	9350 5850 9350 5650
Wire Wire Line
	9350 5650 9000 5200
Connection ~ 9000 5200
Wire Wire Line
	9450 4600 9450 3400
Connection ~ 12250 3400
$Comp
L GND #PWR026
U 1 1 55B88ABB
P 9450 6500
F 0 "#PWR026" H 9450 6500 30  0001 C CNN
F 1 "GND" H 9450 6430 30  0001 C CNN
F 2 "" H 9450 6500 60  0000 C CNN
F 3 "" H 9450 6500 60  0000 C CNN
	1    9450 6500
	1    0    0    -1  
$EndComp
Wire Wire Line
	9450 6150 9450 6500
Wire Notes Line
	6800 6750 15850 6750
Text Notes 14600 750  0    60   ~ 0
ДРАЙВЕР АЛЬФА-ТЕЛЕКСА
$Comp
L LED D2
U 1 1 55B88044
P 1500 5950
F 0 "D2" H 1500 6050 50  0000 C CNN
F 1 "LED" H 1500 5850 50  0000 C CNN
F 2 "~" H 1500 5950 60  0000 C CNN
F 3 "~" H 1500 5950 60  0000 C CNN
	1    1500 5950
	0    1    1    0   
$EndComp
$Comp
L R R2
U 1 1 55B88051
P 1500 5250
F 0 "R2" V 1580 5250 40  0000 C CNN
F 1 "600" V 1507 5251 40  0000 C CNN
F 2 "~" V 1430 5250 30  0000 C CNN
F 3 "~" H 1500 5250 30  0000 C CNN
	1    1500 5250
	1    0    0    -1  
$EndComp
Text Label 2000 4600 1    60   ~ 0
nash_prm
Text Label 1500 4600 1    60   ~ 0
nasha_prd
$Comp
L POT RV1
U 1 1 55B8805B
P 3200 6200
F 0 "RV1" H 3200 6100 50  0000 C CNN
F 1 "POT 1k" H 3200 6200 50  0000 C CNN
F 2 "~" H 3200 6200 60  0000 C CNN
F 3 "~" H 3200 6200 60  0000 C CNN
	1    3200 6200
	0    1    -1   0   
$EndComp
$Comp
L GND #PWR027
U 1 1 55B883A4
P 1500 6650
F 0 "#PWR027" H 1500 6650 30  0001 C CNN
F 1 "GND" H 1500 6580 30  0001 C CNN
F 2 "" H 1500 6650 60  0000 C CNN
F 3 "" H 1500 6650 60  0000 C CNN
	1    1500 6650
	1    0    0    -1  
$EndComp
Wire Wire Line
	1500 4600 1500 5000
Wire Wire Line
	1500 5500 1500 5750
Wire Wire Line
	1500 6150 1500 6650
Text Notes 1350 6300 1    60   ~ 0
светодиод ПРД
$Comp
L R R6
U 1 1 55B88552
P 2000 5250
F 0 "R6" V 2080 5250 40  0000 C CNN
F 1 "600" V 2007 5251 40  0000 C CNN
F 2 "~" V 1930 5250 30  0000 C CNN
F 3 "~" H 2000 5250 30  0000 C CNN
	1    2000 5250
	1    0    0    -1  
$EndComp
$Comp
L LED D3
U 1 1 55B88558
P 2000 5950
F 0 "D3" H 2000 6050 50  0000 C CNN
F 1 "LED" H 2000 5850 50  0000 C CNN
F 2 "~" H 2000 5950 60  0000 C CNN
F 3 "~" H 2000 5950 60  0000 C CNN
	1    2000 5950
	0    1    1    0   
$EndComp
$Comp
L GND #PWR028
U 1 1 55B8855E
P 2000 6650
F 0 "#PWR028" H 2000 6650 30  0001 C CNN
F 1 "GND" H 2000 6580 30  0001 C CNN
F 2 "" H 2000 6650 60  0000 C CNN
F 3 "" H 2000 6650 60  0000 C CNN
	1    2000 6650
	1    0    0    -1  
$EndComp
Wire Wire Line
	2000 4600 2000 5000
Wire Wire Line
	2000 5500 2000 5750
Wire Wire Line
	2000 6150 2000 6650
Text Notes 1850 6300 1    60   ~ 0
светодиод ПРМ
$Comp
L R R1
U 1 1 55B88713
P 1050 5250
F 0 "R1" V 1130 5250 40  0000 C CNN
F 1 "600" V 1057 5251 40  0000 C CNN
F 2 "~" V 980 5250 30  0000 C CNN
F 3 "~" H 1050 5250 30  0000 C CNN
	1    1050 5250
	1    0    0    -1  
$EndComp
$Comp
L LED D1
U 1 1 55B88719
P 1050 5950
F 0 "D1" H 1050 6050 50  0000 C CNN
F 1 "LED" H 1050 5850 50  0000 C CNN
F 2 "~" H 1050 5950 60  0000 C CNN
F 3 "~" H 1050 5950 60  0000 C CNN
	1    1050 5950
	0    1    1    0   
$EndComp
$Comp
L GND #PWR029
U 1 1 55B8871F
P 1050 6650
F 0 "#PWR029" H 1050 6650 30  0001 C CNN
F 1 "GND" H 1050 6580 30  0001 C CNN
F 2 "" H 1050 6650 60  0000 C CNN
F 3 "" H 1050 6650 60  0000 C CNN
	1    1050 6650
	1    0    0    -1  
$EndComp
$Comp
L +12V #PWR030
U 1 1 55B88725
P 1050 4600
F 0 "#PWR030" H 1050 4550 20  0001 C CNN
F 1 "+12V" H 1050 4700 30  0000 C CNN
F 2 "" H 1050 4600 60  0000 C CNN
F 3 "" H 1050 4600 60  0000 C CNN
	1    1050 4600
	1    0    0    -1  
$EndComp
Wire Wire Line
	1050 4600 1050 5000
Wire Wire Line
	1050 5500 1050 5750
Wire Wire Line
	1050 6150 1050 6650
Text Notes 900  6300 1    60   ~ 0
светодиод СЕТЬ
$Comp
L DIODE D5
U 1 1 55B888E3
P 2500 5550
F 0 "D5" H 2500 5650 40  0000 C CNN
F 1 "DIODE" H 2500 5450 40  0000 C CNN
F 2 "~" H 2500 5550 60  0000 C CNN
F 3 "~" H 2500 5550 60  0000 C CNN
	1    2500 5550
	1    0    0    -1  
$EndComp
$Comp
L DIODE D6
U 1 1 55B888E9
P 2850 5650
F 0 "D6" H 2850 5750 40  0000 C CNN
F 1 "DIODE" H 2850 5550 40  0000 C CNN
F 2 "~" H 2850 5650 60  0000 C CNN
F 3 "~" H 2850 5650 60  0000 C CNN
	1    2850 5650
	1    0    0    -1  
$EndComp
Wire Wire Line
	2300 5550 2000 5550
Connection ~ 2000 5550
Wire Wire Line
	2650 5650 1500 5650
Connection ~ 1500 5650
$Comp
L NPN Q4
U 1 1 55B88A19
P 5450 5600
F 0 "Q4" H 5450 5450 50  0000 R CNN
F 1 "NPN BC846" H 6050 5750 50  0000 R CNN
F 2 "~" H 5450 5600 60  0000 C CNN
F 3 "~" H 5450 5600 60  0000 C CNN
	1    5450 5600
	1    0    0    -1  
$EndComp
Wire Wire Line
	2700 5550 3100 5550
Wire Wire Line
	3100 5550 3100 5650
Wire Wire Line
	3100 5650 3050 5650
Connection ~ 3100 5600
$Comp
L R R9
U 1 1 55B88B63
P 4900 5600
F 0 "R9" V 4980 5600 40  0000 C CNN
F 1 "1k" V 4907 5601 40  0000 C CNN
F 2 "~" V 4830 5600 30  0000 C CNN
F 3 "~" H 4900 5600 30  0000 C CNN
	1    4900 5600
	0    1    1    0   
$EndComp
Wire Wire Line
	3200 5950 3200 5600
Wire Wire Line
	3200 5600 3100 5600
$Comp
L GND #PWR031
U 1 1 55B88D70
P 3200 6650
F 0 "#PWR031" H 3200 6650 30  0001 C CNN
F 1 "GND" H 3200 6580 30  0001 C CNN
F 2 "" H 3200 6650 60  0000 C CNN
F 3 "" H 3200 6650 60  0000 C CNN
	1    3200 6650
	1    0    0    -1  
$EndComp
Wire Wire Line
	3200 6450 3200 6650
Wire Wire Line
	5150 5600 5250 5600
$Comp
L +12V #PWR032
U 1 1 55B88F6A
P 5550 4600
F 0 "#PWR032" H 5550 4550 20  0001 C CNN
F 1 "+12V" H 5550 4700 30  0000 C CNN
F 2 "" H 5550 4600 60  0000 C CNN
F 3 "" H 5550 4600 60  0000 C CNN
	1    5550 4600
	1    0    0    -1  
$EndComp
Wire Wire Line
	5550 4600 5550 5400
$Comp
L SPEAKER SP1
U 1 1 55B89013
P 5850 6150
F 0 "SP1" H 5750 6400 70  0000 C CNN
F 1 "SPEAKER" H 5750 5900 70  0000 C CNN
F 2 "~" H 5850 6150 60  0000 C CNN
F 3 "~" H 5850 6150 60  0000 C CNN
	1    5850 6150
	1    0    0    -1  
$EndComp
Wire Wire Line
	5550 5800 5550 6050
$Comp
L GND #PWR033
U 1 1 55B890BD
P 5550 6650
F 0 "#PWR033" H 5550 6650 30  0001 C CNN
F 1 "GND" H 5550 6580 30  0001 C CNN
F 2 "" H 5550 6650 60  0000 C CNN
F 3 "" H 5550 6650 60  0000 C CNN
	1    5550 6650
	1    0    0    -1  
$EndComp
Wire Wire Line
	5550 6250 5550 6650
$Comp
L SPST SW1
U 1 1 55B8974B
P 4000 5600
F 0 "SW1" H 4000 5700 70  0000 C CNN
F 1 "SPST" H 4000 5500 70  0000 C CNN
F 2 "~" H 4000 5600 60  0000 C CNN
F 3 "~" H 4000 5600 60  0000 C CNN
	1    4000 5600
	-1   0    0    -1  
$EndComp
Wire Notes Line
	6800 7550 600  7550
Text Notes 5650 4100 0    60   ~ 0
СИГНАЛЬНЫЙ МОДУЛЬ
$Comp
L CONN_3 K1
U 1 1 55B89A71
P 1100 8600
F 0 "K1" V 1050 8600 50  0000 C CNN
F 1 "CONN_3" V 1150 8600 40  0000 C CNN
F 2 "" H 1100 8600 60  0000 C CNN
F 3 "" H 1100 8600 60  0000 C CNN
	1    1100 8600
	-1   0    0    -1  
$EndComp
Text Notes 750  7950 0    60   ~ 0
Гнездо СОМ-порта:\n\n1 TxD\n2 RxD\n3 GND
$Comp
L DIODE D4
U 1 1 55B89A9A
P 2200 8700
F 0 "D4" H 2200 8800 40  0000 C CNN
F 1 "DIODE" H 2200 8600 40  0000 C CNN
F 2 "~" H 2200 8700 60  0000 C CNN
F 3 "~" H 2200 8700 60  0000 C CNN
	1    2200 8700
	0    -1   -1   0   
$EndComp
$Comp
L R R3
U 1 1 55B89AA0
P 1800 8500
F 0 "R3" V 1880 8500 40  0000 C CNN
F 1 "600" V 1807 8501 40  0000 C CNN
F 2 "~" V 1730 8500 30  0000 C CNN
F 3 "~" H 1800 8500 30  0000 C CNN
	1    1800 8500
	0    -1   -1   0   
$EndComp
$Comp
L NPN Q1
U 1 1 55B89AA6
P 2550 8500
F 0 "Q1" H 2550 8350 50  0000 R CNN
F 1 "NPN BC846" H 3150 8650 50  0000 R CNN
F 2 "~" H 2550 8500 60  0000 C CNN
F 3 "~" H 2550 8500 60  0000 C CNN
	1    2550 8500
	1    0    0    -1  
$EndComp
$Comp
L R R7
U 1 1 55B89AB6
P 2650 9050
F 0 "R7" V 2730 9050 40  0000 C CNN
F 1 "10k" V 2657 9051 40  0000 C CNN
F 2 "~" V 2580 9050 30  0000 C CNN
F 3 "~" H 2650 9050 30  0000 C CNN
	1    2650 9050
	-1   0    0    1   
$EndComp
$Comp
L +12V #PWR034
U 1 1 55B89AC1
P 2650 8100
F 0 "#PWR034" H 2650 8050 20  0001 C CNN
F 1 "+12V" H 2650 8200 30  0000 C CNN
F 2 "" H 2650 8100 60  0000 C CNN
F 3 "" H 2650 8100 60  0000 C CNN
	1    2650 8100
	1    0    0    -1  
$EndComp
Wire Wire Line
	1450 8500 1550 8500
$Comp
L GND #PWR035
U 1 1 55B89B6F
P 1500 9500
F 0 "#PWR035" H 1500 9500 30  0001 C CNN
F 1 "GND" H 1500 9430 30  0001 C CNN
F 2 "" H 1500 9500 60  0000 C CNN
F 3 "" H 1500 9500 60  0000 C CNN
	1    1500 9500
	1    0    0    -1  
$EndComp
Wire Wire Line
	1450 8700 1500 8700
Wire Wire Line
	1500 8700 1500 9500
Wire Wire Line
	2650 8100 2650 8300
Wire Wire Line
	2050 8500 2350 8500
Connection ~ 2200 8500
Wire Wire Line
	2650 8700 2650 8800
$Comp
L GND #PWR036
U 1 1 55B89ED0
P 2650 9500
F 0 "#PWR036" H 2650 9500 30  0001 C CNN
F 1 "GND" H 2650 9430 30  0001 C CNN
F 2 "" H 2650 9500 60  0000 C CNN
F 3 "" H 2650 9500 60  0000 C CNN
	1    2650 9500
	1    0    0    -1  
$EndComp
Wire Wire Line
	2650 9300 2650 9500
$Comp
L GND #PWR037
U 1 1 55B89F85
P 2200 9500
F 0 "#PWR037" H 2200 9500 30  0001 C CNN
F 1 "GND" H 2200 9430 30  0001 C CNN
F 2 "" H 2200 9500 60  0000 C CNN
F 3 "" H 2200 9500 60  0000 C CNN
	1    2200 9500
	1    0    0    -1  
$EndComp
Wire Wire Line
	2200 8900 2200 9500
Text Label 3000 8750 0    60   ~ 0
nasha_prd
Wire Wire Line
	3000 8750 2650 8750
Connection ~ 2650 8750
$Comp
L NPN Q3
U 1 1 55B8A1A0
P 4000 8500
F 0 "Q3" H 4000 8350 50  0000 R CNN
F 1 "NPN BC846" H 4600 8650 50  0000 R CNN
F 2 "~" H 4000 8500 60  0000 C CNN
F 3 "~" H 4000 8500 60  0000 C CNN
	1    4000 8500
	-1   0    0    -1  
$EndComp
$Comp
L R R10
U 1 1 55B8A1A6
P 3900 9050
F 0 "R10" V 3980 9050 40  0000 C CNN
F 1 "10k" V 3907 9051 40  0000 C CNN
F 2 "~" V 3830 9050 30  0000 C CNN
F 3 "~" H 3900 9050 30  0000 C CNN
	1    3900 9050
	-1   0    0    1   
$EndComp
$Comp
L GND #PWR038
U 1 1 55B8A1AC
P 3900 9500
F 0 "#PWR038" H 3900 9500 30  0001 C CNN
F 1 "GND" H 3900 9430 30  0001 C CNN
F 2 "" H 3900 9500 60  0000 C CNN
F 3 "" H 3900 9500 60  0000 C CNN
	1    3900 9500
	1    0    0    -1  
$EndComp
$Comp
L +12V #PWR039
U 1 1 55B8A1B2
P 3900 8100
F 0 "#PWR039" H 3900 8050 20  0001 C CNN
F 1 "+12V" H 3900 8200 30  0000 C CNN
F 2 "" H 3900 8100 60  0000 C CNN
F 3 "" H 3900 8100 60  0000 C CNN
	1    3900 8100
	1    0    0    -1  
$EndComp
Wire Wire Line
	3900 8100 3900 8300
Wire Wire Line
	3900 8700 3900 8800
Wire Wire Line
	3900 9300 3900 9500
Wire Wire Line
	1450 8600 1600 8600
Wire Wire Line
	1600 8600 1600 8200
Wire Wire Line
	1600 8200 3700 8200
Wire Wire Line
	3700 8200 3700 8750
Wire Wire Line
	3700 8750 3900 8750
Connection ~ 3900 8750
Text Label 4450 8500 0    60   ~ 0
nash_prm
Wire Wire Line
	4450 8500 4200 8500
Text Notes 5600 7800 0    60   ~ 0
ДРАЙВЕР СОМ-ПОРТА
Wire Wire Line
	8200 7700 7800 7700
$Comp
L +12V #PWR040
U 1 1 55B8A801
P 8750 7150
F 0 "#PWR040" H 8750 7100 20  0001 C CNN
F 1 "+12V" H 8750 7250 30  0000 C CNN
F 2 "" H 8750 7150 60  0000 C CNN
F 3 "" H 8750 7150 60  0000 C CNN
	1    8750 7150
	1    0    0    -1  
$EndComp
Wire Wire Line
	8750 7150 8750 7250
Wire Wire Line
	8750 7250 9050 7250
Wire Wire Line
	9050 7250 9050 7150
$Comp
L GND #PWR041
U 1 1 55B8A8C1
P 9450 7950
F 0 "#PWR041" H 9450 7950 30  0001 C CNN
F 1 "GND" H 9450 7880 30  0001 C CNN
F 2 "" H 9450 7950 60  0000 C CNN
F 3 "" H 9450 7950 60  0000 C CNN
	1    9450 7950
	1    0    0    -1  
$EndComp
Wire Wire Line
	9450 7150 9450 7950
Wire Wire Line
	4650 5600 4500 5600
Wire Wire Line
	3350 6200 3400 6200
Wire Wire Line
	3400 6200 3400 5600
Wire Wire Line
	3400 5600 3500 5600
$Comp
L JUMPER JP1
U 1 1 55C16EB7
P 8600 2600
F 0 "JP1" H 8600 2750 60  0000 C CNN
F 1 "JUMPER" H 8600 2520 40  0000 C CNN
F 2 "~" H 8600 2600 60  0000 C CNN
F 3 "~" H 8600 2600 60  0000 C CNN
	1    8600 2600
	0    1    1    0   
$EndComp
Wire Wire Line
	8600 1750 8600 2300
Wire Wire Line
	8600 2900 8600 5200
$EndSCHEMATC
