%!PS-Adobe-3.0
%%Creator: PCBNEW
%%CreationDate: Fri Jul 31 10:33:39 2015
%%Title: /home/max/av/!мое/паяние/kicad/sogl_device/sodl_device/sodl_device-B_Cu.ps
%%Pages: 1
%%PageOrder: Ascend
%%BoundingBox: 0 0 596 842
%%DocumentMedia: A4 595 842 0 () ()
%%Orientation: Landscape
%%EndComments
%%BeginProlog
/line { newpath moveto lineto stroke } bind def
/cir0 { newpath 0 360 arc stroke } bind def
/cir1 { newpath 0 360 arc gsave fill grestore stroke } bind def
/cir2 { newpath 0 360 arc gsave fill grestore stroke } bind def
/arc0 { newpath arc stroke } bind def
/arc1 { newpath 4 index 4 index moveto arc closepath gsave fill
    grestore stroke } bind def
/arc2 { newpath 4 index 4 index moveto arc closepath gsave fill
    grestore stroke } bind def
/poly0 { stroke } bind def
/poly1 { closepath gsave fill grestore stroke } bind def
/poly2 { closepath gsave fill grestore stroke } bind def
/rect0 { rectstroke } bind def
/rect1 { rectfill } bind def
/rect2 { rectfill } bind def
/linemode0 { 0 setlinecap 0 setlinejoin 0 setlinewidth } bind def
/linemode1 { 1 setlinecap 1 setlinejoin } bind def
/dashedline { [200] 100 setdash } bind def
/solidline { [] 0 setdash } bind def
/phantomshow { moveto
    /KicadFont findfont 0.000001 scalefont setfont
    show } bind def
/textshow { gsave
    findfont exch scalefont setfont concat 1 scale 0 0 moveto show
    } bind def
/reencodefont {
  findfont dup length dict begin
  { 1 index /FID ne
    { def }
    { pop pop } ifelse
  } forall
  /Encoding ISOLatin1Encoding def
  currentdict
  end } bind def
/KicadFont /Helvetica reencodefont definefont pop
/KicadFont-Bold /Helvetica-Bold reencodefont definefont pop
/KicadFont-Oblique /Helvetica-Oblique reencodefont definefont pop
/KicadFont-BoldOblique /Helvetica-BoldOblique reencodefont definefont pop
%%EndProlog
%%Page: 1 1
%%BeginPageSetup
gsave
0.0072 0.0072 scale
linemode1
82680 0 translate 90 rotate
59.0551 setlinewidth
%%EndPageSetup
0 0 0 setrgbcolor
0 0 0 setrgbcolor
59.0551 setlinewidth
newpath
80479.5 50350.5 moveto
80920.5 50350.5 lineto
80920.5 49409.5 lineto
80479.5 49409.5 lineto
80479.5 50350.5 lineto
poly1
0 0 0 setrgbcolor
newpath
79479.5 50350.5 moveto
79920.5 50350.5 lineto
79920.5 49409.5 lineto
79479.5 49409.5 lineto
79479.5 50350.5 lineto
poly1
0 0 0 setrgbcolor
newpath
80479.5 46350.5 moveto
80920.5 46350.5 lineto
80920.5 45409.5 lineto
80479.5 45409.5 lineto
80479.5 46350.5 lineto
poly1
0 0 0 setrgbcolor
newpath
79479.5 46350.5 moveto
79920.5 46350.5 lineto
79920.5 45409.5 lineto
79479.5 45409.5 lineto
79479.5 46350.5 lineto
poly1
0 0 0 setrgbcolor
newpath
87120.5 47809.5 moveto
86679.5 47809.5 lineto
86679.5 48750.5 lineto
87120.5 48750.5 lineto
87120.5 47809.5 lineto
poly1
0 0 0 setrgbcolor
newpath
88120.5 47809.5 moveto
87679.5 47809.5 lineto
87679.5 48750.5 lineto
88120.5 48750.5 lineto
88120.5 47809.5 lineto
poly1
0 0 0 setrgbcolor
newpath
87120.5 51809.5 moveto
86679.5 51809.5 lineto
86679.5 52750.5 lineto
87120.5 52750.5 lineto
87120.5 51809.5 lineto
poly1
0 0 0 setrgbcolor
newpath
88120.5 51809.5 moveto
87679.5 51809.5 lineto
87679.5 52750.5 lineto
88120.5 52750.5 lineto
88120.5 51809.5 lineto
poly1
0 0 0 setrgbcolor
newpath
82529.5 40759.5 moveto
82529.5 41200.5 lineto
83470.5 41200.5 lineto
83470.5 40759.5 lineto
82529.5 40759.5 lineto
poly1
0 0 0 setrgbcolor
newpath
82529.5 39759.5 moveto
82529.5 40200.5 lineto
83470.5 40200.5 lineto
83470.5 39759.5 lineto
82529.5 39759.5 lineto
poly1
0 0 0 setrgbcolor
newpath
86529.5 40759.5 moveto
86529.5 41200.5 lineto
87470.5 41200.5 lineto
87470.5 40759.5 lineto
86529.5 40759.5 lineto
poly1
0 0 0 setrgbcolor
newpath
86529.5 39759.5 moveto
86529.5 40200.5 lineto
87470.5 40200.5 lineto
87470.5 39759.5 lineto
86529.5 39759.5 lineto
poly1
0 0 0 setrgbcolor
newpath
76120.5 45409.5 moveto
75679.5 45409.5 lineto
75679.5 46350.5 lineto
76120.5 46350.5 lineto
76120.5 45409.5 lineto
poly1
0 0 0 setrgbcolor
newpath
77120.5 45409.5 moveto
76679.5 45409.5 lineto
76679.5 46350.5 lineto
77120.5 46350.5 lineto
77120.5 45409.5 lineto
poly1
0 0 0 setrgbcolor
newpath
76120.5 49409.5 moveto
75679.5 49409.5 lineto
75679.5 50350.5 lineto
76120.5 50350.5 lineto
76120.5 49409.5 lineto
poly1
0 0 0 setrgbcolor
newpath
77120.5 49409.5 moveto
76679.5 49409.5 lineto
76679.5 50350.5 lineto
77120.5 50350.5 lineto
77120.5 49409.5 lineto
poly1
0 0 0 setrgbcolor
newpath
82529.5 46759.5 moveto
82529.5 47200.5 lineto
83470.5 47200.5 lineto
83470.5 46759.5 lineto
82529.5 46759.5 lineto
poly1
0 0 0 setrgbcolor
newpath
82529.5 45759.5 moveto
82529.5 46200.5 lineto
83470.5 46200.5 lineto
83470.5 45759.5 lineto
82529.5 45759.5 lineto
poly1
0 0 0 setrgbcolor
newpath
86529.5 46759.5 moveto
86529.5 47200.5 lineto
87470.5 47200.5 lineto
87470.5 46759.5 lineto
86529.5 46759.5 lineto
poly1
0 0 0 setrgbcolor
newpath
86529.5 45759.5 moveto
86529.5 46200.5 lineto
87470.5 46200.5 lineto
87470.5 45759.5 lineto
86529.5 45759.5 lineto
poly1
0 0 0 setrgbcolor
newpath
82529.5 42759.5 moveto
82529.5 43200.5 lineto
83470.5 43200.5 lineto
83470.5 42759.5 lineto
82529.5 42759.5 lineto
poly1
0 0 0 setrgbcolor
newpath
82529.5 41759.5 moveto
82529.5 42200.5 lineto
83470.5 42200.5 lineto
83470.5 41759.5 lineto
82529.5 41759.5 lineto
poly1
0 0 0 setrgbcolor
newpath
86529.5 42759.5 moveto
86529.5 43200.5 lineto
87470.5 43200.5 lineto
87470.5 42759.5 lineto
86529.5 42759.5 lineto
poly1
0 0 0 setrgbcolor
newpath
86529.5 41759.5 moveto
86529.5 42200.5 lineto
87470.5 42200.5 lineto
87470.5 41759.5 lineto
86529.5 41759.5 lineto
poly1
0 0 0 setrgbcolor
newpath
82529.5 44759.5 moveto
82529.5 45200.5 lineto
83470.5 45200.5 lineto
83470.5 44759.5 lineto
82529.5 44759.5 lineto
poly1
0 0 0 setrgbcolor
newpath
82529.5 43759.5 moveto
82529.5 44200.5 lineto
83470.5 44200.5 lineto
83470.5 43759.5 lineto
82529.5 43759.5 lineto
poly1
0 0 0 setrgbcolor
newpath
86529.5 44759.5 moveto
86529.5 45200.5 lineto
87470.5 45200.5 lineto
87470.5 44759.5 lineto
86529.5 44759.5 lineto
poly1
0 0 0 setrgbcolor
newpath
86529.5 43759.5 moveto
86529.5 44200.5 lineto
87470.5 44200.5 lineto
87470.5 43759.5 lineto
86529.5 43759.5 lineto
poly1
0 0 0 setrgbcolor
newpath
76529.5 23559.5 moveto
76529.5 24000.5 lineto
77470.5 24000.5 lineto
77470.5 23559.5 lineto
76529.5 23559.5 lineto
poly1
0 0 0 setrgbcolor
newpath
76529.5 24559.5 moveto
76529.5 25000.5 lineto
77470.5 25000.5 lineto
77470.5 24559.5 lineto
76529.5 24559.5 lineto
poly1
0 0 0 setrgbcolor
newpath
76529.5 22559.5 moveto
76529.5 23000.5 lineto
77470.5 23000.5 lineto
77470.5 22559.5 lineto
76529.5 22559.5 lineto
poly1
0 0 0 setrgbcolor
newpath
76529.5 25559.5 moveto
76529.5 26000.5 lineto
77470.5 26000.5 lineto
77470.5 25559.5 lineto
76529.5 25559.5 lineto
poly1
0 0 0 setrgbcolor
newpath
72529.5 25559.5 moveto
72529.5 26000.5 lineto
73470.5 26000.5 lineto
73470.5 25559.5 lineto
72529.5 25559.5 lineto
poly1
0 0 0 setrgbcolor
newpath
72529.5 24559.5 moveto
72529.5 25000.5 lineto
73470.5 25000.5 lineto
73470.5 24559.5 lineto
72529.5 24559.5 lineto
poly1
0 0 0 setrgbcolor
newpath
72529.5 23559.5 moveto
72529.5 24000.5 lineto
73470.5 24000.5 lineto
73470.5 23559.5 lineto
72529.5 23559.5 lineto
poly1
0 0 0 setrgbcolor
newpath
72529.5 22559.5 moveto
72529.5 23000.5 lineto
73470.5 23000.5 lineto
73470.5 22559.5 lineto
72529.5 22559.5 lineto
poly1
0 0 0 setrgbcolor
71300 49880 320.472 cir1
0 0 0 setrgbcolor
78300 49880 320.472 cir1
0 0 0 setrgbcolor
82500 50280 320.472 cir1
0 0 0 setrgbcolor
89500 50280 320.472 cir1
0 0 0 setrgbcolor
71300 47280 320.472 cir1
0 0 0 setrgbcolor
78300 47280 320.472 cir1
0 0 0 setrgbcolor
67200 31880 320.472 cir1
0 0 0 setrgbcolor
73200 31880 320.472 cir1
0 0 0 setrgbcolor
104200 47880 320.472 cir1
0 0 0 setrgbcolor
110200 47880 320.472 cir1
0 0 0 setrgbcolor
newpath
71229.5 52409.5 moveto
71229.5 52950.5 lineto
71770.5 52950.5 lineto
71770.5 52409.5 lineto
71229.5 52409.5 lineto
poly1
0 0 0 setrgbcolor
72500 52680 270.472 cir1
0 0 0 setrgbcolor
73500 52680 270.472 cir1
0 0 0 setrgbcolor
74500 52680 270.472 cir1
0 0 0 setrgbcolor
newpath
82229.5 52409.5 moveto
82229.5 52950.5 lineto
82770.5 52950.5 lineto
82770.5 52409.5 lineto
82229.5 52409.5 lineto
poly1
0 0 0 setrgbcolor
83500 52680 270.472 cir1
0 0 0 setrgbcolor
84500 52680 270.472 cir1
0 0 0 setrgbcolor
85500 52680 270.472 cir1
0 0 0 setrgbcolor
newpath
87129.5 38809.5 moveto
87129.5 39350.5 lineto
87670.5 39350.5 lineto
87670.5 38809.5 lineto
87129.5 38809.5 lineto
poly1
0 0 0 setrgbcolor
88400 39080 270.472 cir1
0 0 0 setrgbcolor
89400 39080 270.472 cir1
0 0 0 setrgbcolor
newpath
69170.5 52950.5 moveto
69170.5 52409.5 lineto
68629.5 52409.5 lineto
68629.5 52950.5 lineto
69170.5 52950.5 lineto
poly1
0 0 0 setrgbcolor
67900 52680 270.472 cir1
0 0 0 setrgbcolor
newpath
109230 49409.5 moveto
109230 49950.5 lineto
109770 49950.5 lineto
109770 49409.5 lineto
109230 49409.5 lineto
poly1
0 0 0 setrgbcolor
110500 49680 270.472 cir1
0 0 0 setrgbcolor
106000 29480 470.472 cir1
0 0 0 setrgbcolor
newpath
111530 29009.5 moveto
111530 29950.5 lineto
112470 29950.5 lineto
112470 29009.5 lineto
111530 29009.5 lineto
poly1
0 0 0 setrgbcolor
91400 29680 470.472 cir1
0 0 0 setrgbcolor
newpath
96929.5 29209.5 moveto
96929.5 30150.5 lineto
97870.5 30150.5 lineto
97870.5 29209.5 lineto
96929.5 29209.5 lineto
poly1
0 0 0 setrgbcolor
79600 35680 470.472 cir1
0 0 0 setrgbcolor
newpath
85129.5 35209.5 moveto
85129.5 36150.5 lineto
86070.5 36150.5 lineto
86070.5 35209.5 lineto
85129.5 35209.5 lineto
poly1
0 0 0 setrgbcolor
88000 34080 470.472 cir1
0 0 0 setrgbcolor
newpath
93529.5 33609.5 moveto
93529.5 34550.5 lineto
94470.5 34550.5 lineto
94470.5 33609.5 lineto
93529.5 33609.5 lineto
poly1
0 0 0 setrgbcolor
88000 34080 470.472 cir1
0 0 0 setrgbcolor
newpath
93529.5 33609.5 moveto
93529.5 34550.5 lineto
94470.5 34550.5 lineto
94470.5 33609.5 lineto
93529.5 33609.5 lineto
poly1
0 0 0 setrgbcolor
newpath
84529.5 30959.5 moveto
84529.5 32400.5 lineto
85470.5 32400.5 lineto
85470.5 30959.5 lineto
84529.5 30959.5 lineto
poly1
0 0 0 setrgbcolor
newpath
82529.5 30959.5 moveto
82529.5 32400.5 lineto
83470.5 32400.5 lineto
83470.5 30959.5 lineto
82529.5 30959.5 lineto
poly1
0 0 0 setrgbcolor
newpath
86529.5 30959.5 moveto
86529.5 32400.5 lineto
87470.5 32400.5 lineto
87470.5 30959.5 lineto
86529.5 30959.5 lineto
poly1
0 0 0 setrgbcolor
newpath
80329.5 14009.5 moveto
80329.5 14550.5 lineto
80870.5 14550.5 lineto
80870.5 14009.5 lineto
80329.5 14009.5 lineto
poly1
0 0 0 setrgbcolor
81600 14280 270.472 cir1
0 0 0 setrgbcolor
82600 14280 270.472 cir1
showpage
grestore
%%EOF
