(export (version D)
  (design
    (source /home/max/av/!мое/паяние/kicad/sogl_device/sodl_device/sodl_device.sch)
    (date "Ср 05 авг 2015 09:03:18")
    (tool "eeschema (22-Jun-2014 BZR 4027)-stable"))
  (components
    (comp (ref P1)
      (value CONN_4)
      (libsource (lib conn) (part CONN_4))
      (sheetpath (names /) (tstamps /))
      (tstamp 55B84AA9))
    (comp (ref P3)
      (value CONN_2)
      (libsource (lib conn) (part CONN_2))
      (sheetpath (names /) (tstamps /))
      (tstamp 55B85447))
    (comp (ref R4)
      (value "2k5 5w")
      (libsource (lib device) (part R))
      (sheetpath (names /) (tstamps /))
      (tstamp 55B8563B))
    (comp (ref U2)
      (value "OPTO-TRANSISTOR4 PC817")
      (libsource (lib opto) (part OPTO-TRANSISTOR4))
      (sheetpath (names /) (tstamps /))
      (tstamp 55B85685))
    (comp (ref R8)
      (value 1k)
      (libsource (lib device) (part R))
      (sheetpath (names /) (tstamps /))
      (tstamp 55B85882))
    (comp (ref Q2)
      (value "NPN BC846")
      (libsource (lib device) (part NPN))
      (sheetpath (names /) (tstamps /))
      (tstamp 55B858FB))
    (comp (ref R11)
      (value 1k)
      (libsource (lib device) (part R))
      (sheetpath (names /) (tstamps /))
      (tstamp 55B85931))
    (comp (ref U1)
      (value "OPTO-TRANSISTOR4 PC817")
      (libsource (lib opto) (part OPTO-TRANSISTOR4))
      (sheetpath (names /) (tstamps /))
      (tstamp 55B85B16))
    (comp (ref R5)
      (value "2k5 5w")
      (libsource (lib device) (part R))
      (sheetpath (names /) (tstamps /))
      (tstamp 55B85B2C))
    (comp (ref Q5)
      (value "NPN BC846")
      (libsource (lib device) (part NPN))
      (sheetpath (names /) (tstamps /))
      (tstamp 55B85C14))
    (comp (ref R13)
      (value 1k)
      (libsource (lib device) (part R))
      (sheetpath (names /) (tstamps /))
      (tstamp 55B85C2A))
    (comp (ref R12)
      (value 600)
      (libsource (lib device) (part R))
      (sheetpath (names /) (tstamps /))
      (tstamp 55B85C5C))
    (comp (ref P2)
      (value CONN_4)
      (libsource (lib conn) (part CONN_4))
      (sheetpath (names /) (tstamps /))
      (tstamp 55B86088))
    (comp (ref U3)
      (value "OPTO-TRANSISTOR4 PC817")
      (libsource (lib opto) (part OPTO-TRANSISTOR4))
      (sheetpath (names /) (tstamps /))
      (tstamp 55B8622F))
    (comp (ref D7)
      (value DIODE)
      (libsource (lib device) (part DIODE))
      (sheetpath (names /) (tstamps /))
      (tstamp 55B862BD))
    (comp (ref R14)
      (value "2k 1w")
      (libsource (lib device) (part R))
      (sheetpath (names /) (tstamps /))
      (tstamp 55B862DE))
    (comp (ref C1)
      (value "CP 1000mkF 16v")
      (libsource (lib device) (part CP1))
      (sheetpath (names /) (tstamps /))
      (tstamp 55B86597))
    (comp (ref U8)
      (value MC34063)
      (libsource (lib conn) (part MC34063))
      (sheetpath (names /) (tstamps /))
      (tstamp 55B86A8F))
    (comp (ref C2)
      (value "680 pF")
      (libsource (lib device) (part C))
      (sheetpath (names /) (tstamps /))
      (tstamp 55B86ACD))
    (comp (ref R17)
      (value 0.22)
      (libsource (lib device) (part R))
      (sheetpath (names /) (tstamps /))
      (tstamp 55B86BAB))
    (comp (ref L1)
      (value INDUCTOR)
      (libsource (lib device) (part INDUCTOR))
      (sheetpath (names /) (tstamps /))
      (tstamp 55B86C72))
    (comp (ref R21)
      (value 180)
      (libsource (lib device) (part R))
      (sheetpath (names /) (tstamps /))
      (tstamp 55B86C7F))
    (comp (ref D8)
      (value DIODESCH)
      (libsource (lib device) (part DIODESCH))
      (sheetpath (names /) (tstamps /))
      (tstamp 55B86F1D))
    (comp (ref C3)
      (value "CP 1000mkF 60v")
      (libsource (lib device) (part CP1))
      (sheetpath (names /) (tstamps /))
      (tstamp 55B86F30))
    (comp (ref R23)
      (value 10k)
      (libsource (lib device) (part R))
      (sheetpath (names /) (tstamps /))
      (tstamp 55B870A0))
    (comp (ref R24)
      (value 1k)
      (libsource (lib device) (part R))
      (sheetpath (names /) (tstamps /))
      (tstamp 55B870AB))
    (comp (ref U9)
      (value LM317AT)
      (footprint TO-220)
      (libsource (lib regul) (part LM317AT))
      (sheetpath (names /) (tstamps /))
      (tstamp 55B872C1))
    (comp (ref R20)
      (value 150)
      (libsource (lib device) (part R))
      (sheetpath (names /) (tstamps /))
      (tstamp 55B872D8))
    (comp (ref R19)
      (value 150)
      (libsource (lib device) (part R))
      (sheetpath (names /) (tstamps /))
      (tstamp 55B872E3))
    (comp (ref R18)
      (value 150)
      (libsource (lib device) (part R))
      (sheetpath (names /) (tstamps /))
      (tstamp 55B872E9))
    (comp (ref U6)
      (value "OPTO-TRANSISTOR4 PC817")
      (libsource (lib opto) (part OPTO-TRANSISTOR4))
      (sheetpath (names /) (tstamps /))
      (tstamp 55B87623))
    (comp (ref U7)
      (value "OPTO-TRANSISTOR4 PC817")
      (libsource (lib opto) (part OPTO-TRANSISTOR4))
      (sheetpath (names /) (tstamps /))
      (tstamp 55B87629))
    (comp (ref Q6)
      (value "NPN BC846")
      (libsource (lib device) (part NPN))
      (sheetpath (names /) (tstamps /))
      (tstamp 55B8762F))
    (comp (ref R16)
      (value 1k)
      (libsource (lib device) (part R))
      (sheetpath (names /) (tstamps /))
      (tstamp 55B8763F))
    (comp (ref R22)
      (value 600)
      (libsource (lib device) (part R))
      (sheetpath (names /) (tstamps /))
      (tstamp 55B87656))
    (comp (ref R15)
      (value 600)
      (libsource (lib device) (part R))
      (sheetpath (names /) (tstamps /))
      (tstamp 55B87BC8))
    (comp (ref U4)
      (value "OPTO-TRANSISTOR4 PC817")
      (libsource (lib opto) (part OPTO-TRANSISTOR4))
      (sheetpath (names /) (tstamps /))
      (tstamp 55B88524))
    (comp (ref U5)
      (value "OPTO-TRANSISTOR4 PC817")
      (libsource (lib opto) (part OPTO-TRANSISTOR4))
      (sheetpath (names /) (tstamps /))
      (tstamp 55B8852A))
    (comp (ref D2)
      (value LED)
      (libsource (lib device) (part LED))
      (sheetpath (names /) (tstamps /))
      (tstamp 55B88044))
    (comp (ref R2)
      (value 600)
      (libsource (lib device) (part R))
      (sheetpath (names /) (tstamps /))
      (tstamp 55B88051))
    (comp (ref RV1)
      (value "POT 1k")
      (libsource (lib device) (part POT))
      (sheetpath (names /) (tstamps /))
      (tstamp 55B8805B))
    (comp (ref R6)
      (value 600)
      (libsource (lib device) (part R))
      (sheetpath (names /) (tstamps /))
      (tstamp 55B88552))
    (comp (ref D3)
      (value LED)
      (libsource (lib device) (part LED))
      (sheetpath (names /) (tstamps /))
      (tstamp 55B88558))
    (comp (ref R1)
      (value 600)
      (libsource (lib device) (part R))
      (sheetpath (names /) (tstamps /))
      (tstamp 55B88713))
    (comp (ref D1)
      (value LED)
      (libsource (lib device) (part LED))
      (sheetpath (names /) (tstamps /))
      (tstamp 55B88719))
    (comp (ref D5)
      (value DIODE)
      (libsource (lib device) (part DIODE))
      (sheetpath (names /) (tstamps /))
      (tstamp 55B888E3))
    (comp (ref D6)
      (value DIODE)
      (libsource (lib device) (part DIODE))
      (sheetpath (names /) (tstamps /))
      (tstamp 55B888E9))
    (comp (ref Q4)
      (value "NPN BC846")
      (libsource (lib device) (part NPN))
      (sheetpath (names /) (tstamps /))
      (tstamp 55B88A19))
    (comp (ref R9)
      (value 1k)
      (libsource (lib device) (part R))
      (sheetpath (names /) (tstamps /))
      (tstamp 55B88B63))
    (comp (ref SP1)
      (value SPEAKER)
      (libsource (lib device) (part SPEAKER))
      (sheetpath (names /) (tstamps /))
      (tstamp 55B89013))
    (comp (ref SW1)
      (value SPST)
      (libsource (lib device) (part SPST))
      (sheetpath (names /) (tstamps /))
      (tstamp 55B8974B))
    (comp (ref K1)
      (value CONN_3)
      (libsource (lib conn) (part CONN_3))
      (sheetpath (names /) (tstamps /))
      (tstamp 55B89A71))
    (comp (ref D4)
      (value DIODE)
      (libsource (lib device) (part DIODE))
      (sheetpath (names /) (tstamps /))
      (tstamp 55B89A9A))
    (comp (ref R3)
      (value 600)
      (libsource (lib device) (part R))
      (sheetpath (names /) (tstamps /))
      (tstamp 55B89AA0))
    (comp (ref Q1)
      (value "NPN BC846")
      (libsource (lib device) (part NPN))
      (sheetpath (names /) (tstamps /))
      (tstamp 55B89AA6))
    (comp (ref R7)
      (value 10k)
      (libsource (lib device) (part R))
      (sheetpath (names /) (tstamps /))
      (tstamp 55B89AB6))
    (comp (ref Q3)
      (value "NPN BC846")
      (libsource (lib device) (part NPN))
      (sheetpath (names /) (tstamps /))
      (tstamp 55B8A1A0))
    (comp (ref R10)
      (value 10k)
      (libsource (lib device) (part R))
      (sheetpath (names /) (tstamps /))
      (tstamp 55B8A1A6))
    (comp (ref JP1)
      (value JUMPER)
      (libsource (lib device) (part JUMPER))
      (sheetpath (names /) (tstamps /))
      (tstamp 55C16EB7)))
  (libparts
    (libpart (lib device) (part C)
      (description "Condensateur non polarise")
      (footprints
        (fp SM*)
        (fp C?)
        (fp C1-1))
      (fields
        (field (name Reference) C)
        (field (name Value) C)
        (field (name Footprint) ~)
        (field (name Datasheet) ~))
      (pins
        (pin (num 1) (name ~) (type passive))
        (pin (num 2) (name ~) (type passive))))
    (libpart (lib device) (part CP1)
      (description "Condensateur polarise")
      (footprints
        (fp CP*)
        (fp SM*))
      (fields
        (field (name Reference) C)
        (field (name Value) CP1)
        (field (name Footprint) ~)
        (field (name Datasheet) ~))
      (pins
        (pin (num 1) (name ~) (type passive))
        (pin (num 2) (name ~) (type passive))))
    (libpart (lib device) (part DIODE)
      (description "Diode simple")
      (footprints
        (fp D?)
        (fp S*))
      (fields
        (field (name Reference) D)
        (field (name Value) DIODE)
        (field (name Footprint) ~)
        (field (name Datasheet) ~))
      (pins
        (pin (num 1) (name A) (type passive))
        (pin (num 2) (name K) (type passive))))
    (libpart (lib device) (part DIODESCH)
      (description "Diode schottky")
      (footprints
        (fp D?)
        (fp S*))
      (fields
        (field (name Reference) D)
        (field (name Value) DIODESCH)
        (field (name Footprint) ~)
        (field (name Datasheet) ~))
      (pins
        (pin (num 1) (name A) (type passive))
        (pin (num 2) (name K) (type passive))))
    (libpart (lib device) (part INDUCTOR)
      (fields
        (field (name Reference) L)
        (field (name Value) INDUCTOR)
        (field (name Footprint) ~)
        (field (name Datasheet) ~))
      (pins
        (pin (num 1) (name 1) (type passive))
        (pin (num 2) (name 2) (type passive))))
    (libpart (lib device) (part JUMPER)
      (fields
        (field (name Reference) JP)
        (field (name Value) JUMPER)
        (field (name Footprint) ~)
        (field (name Datasheet) ~))
      (pins
        (pin (num 1) (name 1) (type passive))
        (pin (num 2) (name 2) (type passive))))
    (libpart (lib device) (part LED)
      (footprints
        (fp LED-3MM)
        (fp LED-5MM)
        (fp LED-10MM)
        (fp LED-0603)
        (fp LED-0805)
        (fp LED-1206)
        (fp LEDV))
      (fields
        (field (name Reference) D)
        (field (name Value) LED)
        (field (name Footprint) ~)
        (field (name Datasheet) ~))
      (pins
        (pin (num 1) (name A) (type passive))
        (pin (num 2) (name K) (type passive))))
    (libpart (lib device) (part NPN)
      (docs transistors/bipolar/*.*)
      (fields
        (field (name Reference) Q)
        (field (name Value) NPN)
        (field (name Footprint) ~)
        (field (name Datasheet) ~))
      (pins
        (pin (num 1) (name E) (type passive))
        (pin (num 2) (name B) (type input))
        (pin (num 3) (name C) (type passive))))
    (libpart (lib device) (part POT)
      (description Potentionmetre)
      (fields
        (field (name Reference) RV)
        (field (name Value) POT)
        (field (name Footprint) ~)
        (field (name Datasheet) ~))
      (pins
        (pin (num 1) (name 1) (type passive))
        (pin (num 2) (name 2) (type passive))
        (pin (num 3) (name 3) (type passive))))
    (libpart (lib device) (part R)
      (description Resistance)
      (footprints
        (fp R?)
        (fp SM0603)
        (fp SM0805)
        (fp R?-*)
        (fp SM1206))
      (fields
        (field (name Reference) R)
        (field (name Value) R)
        (field (name Footprint) ~)
        (field (name Datasheet) ~))
      (pins
        (pin (num 1) (name ~) (type passive))
        (pin (num 2) (name ~) (type passive))))
    (libpart (lib device) (part SPEAKER)
      (fields
        (field (name Reference) SP)
        (field (name Value) SPEAKER)
        (field (name Footprint) ~)
        (field (name Datasheet) ~))
      (pins
        (pin (num 1) (name 1) (type input))
        (pin (num 2) (name 2) (type input))))
    (libpart (lib device) (part SPST)
      (description "Interrupteur simple")
      (fields
        (field (name Reference) SW)
        (field (name Value) SPST)
        (field (name Footprint) ~)
        (field (name Datasheet) ~))
      (pins
        (pin (num 1) (name 1) (type input))
        (pin (num 2) (name 2) (type input))))
    (libpart (lib conn) (part CONN_2)
      (description "Symbole general de connecteur")
      (fields
        (field (name Reference) P)
        (field (name Value) CONN_2))
      (pins
        (pin (num 1) (name P1) (type passive))
        (pin (num 2) (name PM) (type passive))))
    (libpart (lib conn) (part CONN_3)
      (description "Symbole general de connecteur")
      (fields
        (field (name Reference) K)
        (field (name Value) CONN_3))
      (pins
        (pin (num 1) (name P1) (type passive))
        (pin (num 2) (name PM) (type passive))
        (pin (num 3) (name P3) (type passive))))
    (libpart (lib conn) (part CONN_4)
      (description "Symbole general de connecteur")
      (fields
        (field (name Reference) P)
        (field (name Value) CONN_4))
      (pins
        (pin (num 1) (name P1) (type passive))
        (pin (num 2) (name P2) (type passive))
        (pin (num 3) (name P3) (type passive))
        (pin (num 4) (name P4) (type passive))))
    (libpart (lib conn) (part MC34063)
      (description "1.5A step up/down/inverting switching regulator")
      (docs regulator/mc34063.pdf)
      (fields
        (field (name Reference) U)
        (field (name Value) MC34063))
      (pins
        (pin (num 1) (name Sw_Coll) (type input))
        (pin (num 2) (name Sw_Emit) (type input))
        (pin (num 3) (name Tim_Cap) (type input))
        (pin (num 4) (name GND) (type power_in))
        (pin (num 5) (name V_Sense) (type input))
        (pin (num 6) (name VCC) (type power_in))
        (pin (num 7) (name I_Sense) (type input))
        (pin (num 8) (name Drv_Coll) (type input))))
    (libpart (lib regul) (part LM317T)
      (description "LM317T, 1.5A 35V Adjustable Linear Regulator, TO-220")
      (docs http://www.national.com/ds/LM/LM117.pdf)
      (footprints
        (fp TO*))
      (fields
        (field (name Reference) U)
        (field (name Value) LM317T)
        (field (name Footprint) TO-220))
      (pins
        (pin (num 1) (name ADJ) (type input))
        (pin (num 2) (name OUT) (type power_out))
        (pin (num 3) (name IN) (type input))))
    (libpart (lib opto) (part OPTO-TRANSISTOR4)
      (fields
        (field (name Reference) U)
        (field (name Value) OPTO-TRANSISTOR4)
        (field (name Footprint) ~)
        (field (name Datasheet) ~))
      (pins
        (pin (num 1) (name A) (type input))
        (pin (num 2) (name K) (type input))
        (pin (num 3) (name E) (type output))
        (pin (num 4) (name C) (type output)))))
  (libraries
    (library (logical device)
      (uri /usr/share/kicad/library/device.lib))
    (library (logical conn)
      (uri /usr/share/kicad/library/conn.lib))
    (library (logical regul)
      (uri /usr/share/kicad/library/regul.lib))
    (library (logical opto)
      (uri /usr/share/kicad/library/opto.lib)))
  (nets
    (net (code 1) (name /nash_prm)
      (node (ref Q2) (pin 1))
      (node (ref R6) (pin 1))
      (node (ref Q3) (pin 2))
      (node (ref R11) (pin 2))
      (node (ref R16) (pin 1))
      (node (ref R22) (pin 1)))
    (net (code 2) (name GND)
      (node (ref SP1) (pin 2))
      (node (ref U8) (pin 4))
      (node (ref U8) (pin 2))
      (node (ref C1) (pin 2))
      (node (ref C3) (pin 2))
      (node (ref C2) (pin 2))
      (node (ref U2) (pin 3))
      (node (ref R11) (pin 1))
      (node (ref P3) (pin 2))
      (node (ref Q5) (pin 1))
      (node (ref R10) (pin 1))
      (node (ref D4) (pin 1))
      (node (ref R7) (pin 1))
      (node (ref K1) (pin 3))
      (node (ref U5) (pin 3))
      (node (ref U7) (pin 3))
      (node (ref U7) (pin 2))
      (node (ref D3) (pin 2))
      (node (ref R24) (pin 1))
      (node (ref D1) (pin 2))
      (node (ref U5) (pin 2))
      (node (ref Q6) (pin 1))
      (node (ref U1) (pin 2))
      (node (ref RV1) (pin 1))
      (node (ref D2) (pin 2)))
    (net (code 3) (name "")
      (node (ref U5) (pin 4))
      (node (ref JP1) (pin 2))
      (node (ref U6) (pin 3)))
    (net (code 4) (name /nasha_prd)
      (node (ref R2) (pin 1))
      (node (ref U3) (pin 3))
      (node (ref Q1) (pin 1))
      (node (ref R7) (pin 2))
      (node (ref R13) (pin 1)))
    (net (code 5) (name "")
      (node (ref U4) (pin 2))
      (node (ref U5) (pin 1)))
    (net (code 6) (name "")
      (node (ref Q6) (pin 3))
      (node (ref U4) (pin 1))
      (node (ref R15) (pin 2)))
    (net (code 7) (name "")
      (node (ref R1) (pin 2))
      (node (ref D1) (pin 1)))
    (net (code 8) (name +12V)
      (node (ref Q2) (pin 3))
      (node (ref C1) (pin 1))
      (node (ref R17) (pin 1))
      (node (ref U3) (pin 4))
      (node (ref U8) (pin 6))
      (node (ref R15) (pin 1))
      (node (ref R1) (pin 1))
      (node (ref R8) (pin 2))
      (node (ref R12) (pin 2))
      (node (ref P3) (pin 1))
      (node (ref Q4) (pin 3))
      (node (ref Q3) (pin 3))
      (node (ref Q1) (pin 3)))
    (net (code 9) (name "")
      (node (ref R18) (pin 2))
      (node (ref U6) (pin 4))
      (node (ref U4) (pin 4))
      (node (ref R19) (pin 2))
      (node (ref R20) (pin 2))
      (node (ref U9) (pin 2)))
    (net (code 10) (name "")
      (node (ref U8) (pin 5))
      (node (ref R24) (pin 2))
      (node (ref R23) (pin 1)))
    (net (code 11) (name "")
      (node (ref U8) (pin 1))
      (node (ref D8) (pin 1))
      (node (ref L1) (pin 2)))
    (net (code 12) (name "")
      (node (ref R21) (pin 1))
      (node (ref U8) (pin 8)))
    (net (code 13) (name "")
      (node (ref U7) (pin 1))
      (node (ref U6) (pin 2)))
    (net (code 14) (name "")
      (node (ref U4) (pin 3))
      (node (ref P2) (pin 4))
      (node (ref U7) (pin 4)))
    (net (code 15) (name "")
      (node (ref JP1) (pin 1))
      (node (ref P2) (pin 3)))
    (net (code 16) (name "")
      (node (ref R22) (pin 2))
      (node (ref U6) (pin 1)))
    (net (code 17) (name "")
      (node (ref R16) (pin 2))
      (node (ref Q6) (pin 2)))
    (net (code 18) (name "")
      (node (ref U9) (pin 1))
      (node (ref R20) (pin 1))
      (node (ref R19) (pin 1))
      (node (ref R18) (pin 1)))
    (net (code 19) (name "")
      (node (ref RV1) (pin 2))
      (node (ref SW1) (pin 2)))
    (net (code 20) (name "")
      (node (ref R9) (pin 2))
      (node (ref SW1) (pin 1)))
    (net (code 21) (name "")
      (node (ref R10) (pin 2))
      (node (ref Q3) (pin 1))
      (node (ref K1) (pin 2)))
    (net (code 22) (name "")
      (node (ref R9) (pin 1))
      (node (ref Q4) (pin 2)))
    (net (code 23) (name "")
      (node (ref D6) (pin 2))
      (node (ref D5) (pin 2))
      (node (ref RV1) (pin 3)))
    (net (code 24) (name "")
      (node (ref SP1) (pin 1))
      (node (ref Q4) (pin 1)))
    (net (code 25) (name "")
      (node (ref R2) (pin 2))
      (node (ref D2) (pin 1))
      (node (ref D6) (pin 1)))
    (net (code 26) (name "")
      (node (ref D3) (pin 1))
      (node (ref R6) (pin 2))
      (node (ref D5) (pin 1)))
    (net (code 27) (name "")
      (node (ref R3) (pin 1))
      (node (ref K1) (pin 1)))
    (net (code 28) (name "")
      (node (ref Q1) (pin 2))
      (node (ref R3) (pin 2))
      (node (ref D4) (pin 2)))
    (net (code 29) (name "")
      (node (ref L1) (pin 1))
      (node (ref R17) (pin 2))
      (node (ref U8) (pin 7))
      (node (ref R21) (pin 2)))
    (net (code 30) (name "")
      (node (ref R14) (pin 2))
      (node (ref U3) (pin 1))
      (node (ref D7) (pin 2)))
    (net (code 31) (name "")
      (node (ref D7) (pin 1))
      (node (ref P2) (pin 2))
      (node (ref U3) (pin 2)))
    (net (code 32) (name "")
      (node (ref P2) (pin 1))
      (node (ref R14) (pin 1)))
    (net (code 33) (name "")
      (node (ref C2) (pin 1))
      (node (ref U8) (pin 3)))
    (net (code 34) (name "")
      (node (ref R4) (pin 2))
      (node (ref U2) (pin 1)))
    (net (code 35) (name "")
      (node (ref P1) (pin 1))
      (node (ref R4) (pin 1)))
    (net (code 36) (name "")
      (node (ref P1) (pin 4))
      (node (ref U1) (pin 3)))
    (net (code 37) (name "")
      (node (ref P1) (pin 2))
      (node (ref U2) (pin 2)))
    (net (code 38) (name "")
      (node (ref R13) (pin 2))
      (node (ref Q5) (pin 2)))
    (net (code 39) (name "")
      (node (ref R23) (pin 2))
      (node (ref U9) (pin 3))
      (node (ref D8) (pin 2))
      (node (ref C3) (pin 1)))
    (net (code 40) (name "")
      (node (ref P1) (pin 3))
      (node (ref R5) (pin 1)))
    (net (code 41) (name "")
      (node (ref U1) (pin 4))
      (node (ref R5) (pin 2)))
    (net (code 42) (name "")
      (node (ref Q2) (pin 2))
      (node (ref U2) (pin 4))
      (node (ref R8) (pin 1)))
    (net (code 43) (name "")
      (node (ref U1) (pin 1))
      (node (ref R12) (pin 1))
      (node (ref Q5) (pin 3)))))