EESchema Schematic File Version 2
LIBS:power
LIBS:device
LIBS:transistors
LIBS:conn
LIBS:linear
LIBS:regul
LIBS:74xx
LIBS:cmos4000
LIBS:adc-dac
LIBS:memory
LIBS:xilinx
LIBS:special
LIBS:microcontrollers
LIBS:dsp
LIBS:microchip
LIBS:analog_switches
LIBS:motorola
LIBS:texas
LIBS:intel
LIBS:audio
LIBS:interface
LIBS:digital-audio
LIBS:philips
LIBS:display
LIBS:cypress
LIBS:siliconi
LIBS:opto
LIBS:atmel
LIBS:contrib
LIBS:valves
EELAYER 27 0
EELAYER END
$Descr A4 11693 8268
encoding utf-8
Sheet 1 1
Title ""
Date "1 jul 2015"
Rev ""
Comp ""
Comment1 ""
Comment2 ""
Comment3 ""
Comment4 ""
$EndDescr
$Comp
L CONN_4 P1
U 1 1 55937A16
P 1000 2800
F 0 "P1" V 950 2800 50  0000 C CNN
F 1 "CONN_4" V 1050 2800 50  0000 C CNN
F 2 "" H 1000 2800 60  0000 C CNN
F 3 "" H 1000 2800 60  0000 C CNN
	1    1000 2800
	-1   0    0    1   
$EndComp
$Comp
L DB9 J1
U 1 1 55937ABD
P 7600 2900
F 0 "J1" H 7600 3450 70  0000 C CNN
F 1 "DB9" H 7600 2350 70  0000 C CNN
F 2 "" H 7600 2900 60  0000 C CNN
F 3 "" H 7600 2900 60  0000 C CNN
	1    7600 2900
	1    0    0    -1  
$EndComp
$Comp
L NPN Q1
U 1 1 55937CE4
P 2200 2750
F 0 "Q1" H 2200 2600 50  0000 R CNN
F 1 "NPN" H 2200 2900 50  0000 R CNN
F 2 "~" H 2200 2750 60  0000 C CNN
F 3 "~" H 2200 2750 60  0000 C CNN
	1    2200 2750
	1    0    0    -1  
$EndComp
$Comp
L PC817 IC1
U 1 1 55937CF7
P 5350 2700
F 0 "IC1" H 5140 2890 40  0000 C CNN
F 1 "PC817" H 5500 2510 40  0000 C CNN
F 2 "DIP4" H 5150 2520 30  0000 C CIN
F 3 "~" H 5350 2700 60  0000 C CNN
	1    5350 2700
	1    0    0    -1  
$EndComp
$Comp
L R R1
U 1 1 55937D0A
P 2300 3350
F 0 "R1" V 2380 3350 40  0000 C CNN
F 1 "1k" V 2307 3351 40  0000 C CNN
F 2 "~" V 2230 3350 30  0000 C CNN
F 3 "~" H 2300 3350 30  0000 C CNN
	1    2300 3350
	1    0    0    -1  
$EndComp
$Comp
L GND #PWR01
U 1 1 55938EE4
P 1500 3700
F 0 "#PWR01" H 1500 3700 30  0001 C CNN
F 1 "GND" H 1500 3630 30  0001 C CNN
F 2 "" H 1500 3700 60  0000 C CNN
F 3 "" H 1500 3700 60  0000 C CNN
	1    1500 3700
	1    0    0    -1  
$EndComp
$Comp
L PWR_FLAG #FLG02
U 1 1 55938EF3
P 1500 2100
F 0 "#FLG02" H 1500 2195 30  0001 C CNN
F 1 "PWR_FLAG" H 1500 2280 30  0000 C CNN
F 2 "" H 1500 2100 60  0000 C CNN
F 3 "" H 1500 2100 60  0000 C CNN
	1    1500 2100
	1    0    0    -1  
$EndComp
$Comp
L PWR_FLAG #FLG03
U 1 1 55938F19
P 1750 2100
F 0 "#FLG03" H 1750 2195 30  0001 C CNN
F 1 "PWR_FLAG" H 1750 2280 30  0000 C CNN
F 2 "" H 1750 2100 60  0000 C CNN
F 3 "" H 1750 2100 60  0000 C CNN
	1    1750 2100
	1    0    0    -1  
$EndComp
$Comp
L GND #PWR04
U 1 1 5593916D
P 2300 3700
F 0 "#PWR04" H 2300 3700 30  0001 C CNN
F 1 "GND" H 2300 3630 30  0001 C CNN
F 2 "" H 2300 3700 60  0000 C CNN
F 3 "" H 2300 3700 60  0000 C CNN
	1    2300 3700
	1    0    0    -1  
$EndComp
$Comp
L R R7
U 1 1 5593922C
P 4550 2600
F 0 "R7" V 4630 2600 40  0000 C CNN
F 1 "600" V 4557 2601 40  0000 C CNN
F 2 "~" V 4480 2600 30  0000 C CNN
F 3 "~" H 4550 2600 30  0000 C CNN
	1    4550 2600
	0    -1   -1   0   
$EndComp
$Comp
L GND #PWR05
U 1 1 55939239
P 3500 3700
F 0 "#PWR05" H 3500 3700 30  0001 C CNN
F 1 "GND" H 3500 3630 30  0001 C CNN
F 2 "" H 3500 3700 60  0000 C CNN
F 3 "" H 3500 3700 60  0000 C CNN
	1    3500 3700
	1    0    0    -1  
$EndComp
$Comp
L PC817 IC2
U 1 1 5593929D
P 5350 3350
F 0 "IC2" H 5140 3540 40  0000 C CNN
F 1 "PC817" H 5500 3160 40  0000 C CNN
F 2 "DIP4" H 5150 3170 30  0000 C CIN
F 3 "~" H 5350 3350 60  0000 C CNN
	1    5350 3350
	1    0    0    -1  
$EndComp
$Comp
L PC817 IC4
U 1 1 559392A4
P 6350 2700
F 0 "IC4" H 6140 2890 40  0000 C CNN
F 1 "PC817" H 6500 2510 40  0000 C CNN
F 2 "DIP4" H 6150 2520 30  0000 C CIN
F 3 "~" H 6350 2700 60  0000 C CNN
	1    6350 2700
	1    0    0    -1  
$EndComp
$Comp
L PC817 IC5
U 1 1 559392AC
P 6350 3350
F 0 "IC5" H 6140 3540 40  0000 C CNN
F 1 "PC817" H 6500 3160 40  0000 C CNN
F 2 "DIP4" H 6150 3170 30  0000 C CIN
F 3 "~" H 6350 3350 60  0000 C CNN
	1    6350 3350
	1    0    0    -1  
$EndComp
Wire Wire Line
	1350 2950 1500 2950
Wire Wire Line
	1500 2100 1500 3700
Connection ~ 1500 2950
Wire Wire Line
	1750 2850 1350 2850
Wire Wire Line
	1750 2100 1750 5100
Wire Wire Line
	2000 2750 1350 2750
Wire Wire Line
	2300 2550 2300 2200
Wire Wire Line
	1750 2200 6700 2200
Connection ~ 1750 2200
Wire Wire Line
	2300 2950 2300 3100
Wire Wire Line
	2300 3600 2300 3700
Wire Wire Line
	5000 2800 5000 3000
Wire Wire Line
	5000 3000 5700 3000
Wire Wire Line
	5700 3000 6000 3250
Wire Wire Line
	5000 3250 5000 3100
Wire Wire Line
	5000 3100 5700 3100
Wire Wire Line
	5700 3100 6000 2800
$Comp
L NPN Q2
U 1 1 5593948D
P 3400 3400
F 0 "Q2" H 3400 3250 50  0000 R CNN
F 1 "NPN" H 3400 3550 50  0000 R CNN
F 2 "~" H 3400 3400 60  0000 C CNN
F 3 "~" H 3400 3400 60  0000 C CNN
	1    3400 3400
	1    0    0    -1  
$EndComp
$Comp
L R R2
U 1 1 55939496
P 2850 3400
F 0 "R2" V 2930 3400 40  0000 C CNN
F 1 "1k" V 2857 3401 40  0000 C CNN
F 2 "~" V 2780 3400 30  0000 C CNN
F 3 "~" H 2850 3400 30  0000 C CNN
	1    2850 3400
	0    -1   -1   0   
$EndComp
$Comp
L R R3
U 1 1 5593953B
P 3500 2850
F 0 "R3" V 3580 2850 40  0000 C CNN
F 1 "1k" V 3507 2851 40  0000 C CNN
F 2 "~" V 3430 2850 30  0000 C CNN
F 3 "~" H 3500 2850 30  0000 C CNN
	1    3500 2850
	-1   0    0    1   
$EndComp
Wire Wire Line
	2500 3400 2600 3400
Wire Wire Line
	2500 2400 2500 3400
Wire Wire Line
	2500 3000 2300 3000
Connection ~ 2300 3000
Wire Wire Line
	3100 3400 3200 3400
Wire Wire Line
	3500 3600 3500 3700
Wire Wire Line
	3500 3200 3500 3100
Wire Wire Line
	3500 2200 3500 2600
Connection ~ 2300 2200
$Comp
L NPN Q3
U 1 1 559395F2
P 3850 2750
F 0 "Q3" H 3850 2600 50  0000 R CNN
F 1 "NPN" H 3850 2900 50  0000 R CNN
F 2 "~" H 3850 2750 60  0000 C CNN
F 3 "~" H 3850 2750 60  0000 C CNN
	1    3850 2750
	1    0    0    -1  
$EndComp
$Comp
L R R4
U 1 1 559395F8
P 3950 3350
F 0 "R4" V 4030 3350 40  0000 C CNN
F 1 "1k" V 3957 3351 40  0000 C CNN
F 2 "~" V 3880 3350 30  0000 C CNN
F 3 "~" H 3950 3350 30  0000 C CNN
	1    3950 3350
	-1   0    0    1   
$EndComp
$Comp
L GND #PWR06
U 1 1 559395FE
P 3950 3700
F 0 "#PWR06" H 3950 3700 30  0001 C CNN
F 1 "GND" H 3950 3630 30  0001 C CNN
F 2 "" H 3950 3700 60  0000 C CNN
F 3 "" H 3950 3700 60  0000 C CNN
	1    3950 3700
	1    0    0    -1  
$EndComp
Wire Wire Line
	3950 3600 3950 3700
Wire Wire Line
	3950 2950 3950 3100
Wire Wire Line
	3950 2200 3950 2550
Connection ~ 3500 2200
Wire Wire Line
	3650 2750 3650 3150
Wire Wire Line
	3650 3150 3500 3150
Connection ~ 3500 3150
$Comp
L R R6
U 1 1 5593967C
P 4550 2400
F 0 "R6" V 4630 2400 40  0000 C CNN
F 1 "600" V 4557 2401 40  0000 C CNN
F 2 "~" V 4480 2400 30  0000 C CNN
F 3 "~" H 4550 2400 30  0000 C CNN
	1    4550 2400
	0    -1   -1   0   
$EndComp
$Comp
L GND #PWR07
U 1 1 55939682
P 5000 3700
F 0 "#PWR07" H 5000 3700 30  0001 C CNN
F 1 "GND" H 5000 3630 30  0001 C CNN
F 2 "" H 5000 3700 60  0000 C CNN
F 3 "" H 5000 3700 60  0000 C CNN
	1    5000 3700
	1    0    0    -1  
$EndComp
$Comp
L GND #PWR08
U 1 1 55939688
P 5700 3700
F 0 "#PWR08" H 5700 3700 30  0001 C CNN
F 1 "GND" H 5700 3630 30  0001 C CNN
F 2 "" H 5700 3700 60  0000 C CNN
F 3 "" H 5700 3700 60  0000 C CNN
	1    5700 3700
	1    0    0    -1  
$EndComp
$Comp
L GND #PWR09
U 1 1 5593968E
P 6000 3700
F 0 "#PWR09" H 6000 3700 30  0001 C CNN
F 1 "GND" H 6000 3630 30  0001 C CNN
F 2 "" H 6000 3700 60  0000 C CNN
F 3 "" H 6000 3700 60  0000 C CNN
	1    6000 3700
	1    0    0    -1  
$EndComp
$Comp
L GND #PWR010
U 1 1 55939694
P 6700 3700
F 0 "#PWR010" H 6700 3700 30  0001 C CNN
F 1 "GND" H 6700 3630 30  0001 C CNN
F 2 "" H 6700 3700 60  0000 C CNN
F 3 "" H 6700 3700 60  0000 C CNN
	1    6700 3700
	1    0    0    -1  
$EndComp
Wire Wire Line
	4300 2600 4200 2600
Wire Wire Line
	4200 2600 4200 3000
Wire Wire Line
	4200 3000 3950 3000
Connection ~ 3950 3000
Wire Wire Line
	4300 2400 2500 2400
Connection ~ 2500 3000
Wire Wire Line
	4800 2600 5000 2600
Wire Wire Line
	6000 3450 6000 3700
Wire Wire Line
	5700 3450 5700 3700
Wire Wire Line
	5000 3450 5000 3700
Wire Wire Line
	6700 3450 6700 3700
Wire Wire Line
	4800 2400 6000 2400
Wire Wire Line
	6000 2400 6000 2600
Wire Wire Line
	5700 2800 5800 2800
Wire Wire Line
	5800 2800 5800 4400
Wire Wire Line
	5800 3250 5700 3250
Wire Wire Line
	6700 2800 6800 2800
Wire Wire Line
	6800 2800 6800 3900
Wire Wire Line
	6800 3250 6700 3250
Wire Wire Line
	5700 2200 5700 2600
Connection ~ 3950 2200
Wire Wire Line
	6700 2200 6700 2600
Connection ~ 5700 2200
$Comp
L R R8
U 1 1 5593994C
P 6350 4100
F 0 "R8" V 6430 4100 40  0000 C CNN
F 1 "0" V 6357 4101 40  0000 C CNN
F 2 "~" V 6280 4100 30  0000 C CNN
F 3 "~" H 6350 4100 30  0000 C CNN
	1    6350 4100
	0    -1   -1   0   
$EndComp
$Comp
L R R9
U 1 1 55939957
P 6350 4400
F 0 "R9" V 6430 4400 40  0000 C CNN
F 1 "0" V 6357 4401 40  0000 C CNN
F 2 "~" V 6280 4400 30  0000 C CNN
F 3 "~" H 6350 4400 30  0000 C CNN
	1    6350 4400
	0    -1   -1   0   
$EndComp
Wire Wire Line
	5800 4400 6100 4400
Connection ~ 5800 3250
Wire Wire Line
	6000 4100 6100 4100
Wire Wire Line
	6000 3900 6000 4100
Wire Wire Line
	6800 3900 6000 3900
Connection ~ 6800 3250
Wire Wire Line
	7150 3100 6900 3100
Wire Wire Line
	6900 3100 6900 4100
Wire Wire Line
	6900 4100 6600 4100
Wire Wire Line
	7150 2500 7000 2500
Wire Wire Line
	7000 2500 7000 4900
Wire Wire Line
	7000 4400 6600 4400
$Comp
L R R10
U 1 1 55939A93
P 6350 4900
F 0 "R10" V 6430 4900 40  0000 C CNN
F 1 "600" V 6357 4901 40  0000 C CNN
F 2 "~" V 6280 4900 30  0000 C CNN
F 3 "~" H 6350 4900 30  0000 C CNN
	1    6350 4900
	0    -1   -1   0   
$EndComp
$Comp
L PC817 IC3
U 1 1 55939A99
P 5350 5000
F 0 "IC3" H 5140 5190 40  0000 C CNN
F 1 "PC817" H 5500 4810 40  0000 C CNN
F 2 "DIP4" H 5150 4820 30  0000 C CIN
F 3 "~" H 5350 5000 60  0000 C CNN
	1    5350 5000
	-1   0    0    1   
$EndComp
$Comp
L R R11
U 1 1 55939A9F
P 6350 5100
F 0 "R11" V 6430 5100 40  0000 C CNN
F 1 "600" V 6357 5101 40  0000 C CNN
F 2 "~" V 6280 5100 30  0000 C CNN
F 3 "~" H 6350 5100 30  0000 C CNN
	1    6350 5100
	0    -1   -1   0   
$EndComp
Wire Wire Line
	7000 4900 6600 4900
Connection ~ 7000 4400
Wire Wire Line
	7150 2900 7100 2900
Wire Wire Line
	7100 2900 7100 5100
Wire Wire Line
	7100 5100 6600 5100
Wire Wire Line
	6100 4900 5700 4900
Wire Wire Line
	6100 5100 5700 5100
NoConn ~ 7150 2600
NoConn ~ 7150 2700
NoConn ~ 7150 2800
NoConn ~ 7150 3000
NoConn ~ 7150 3200
NoConn ~ 7150 3300
$Comp
L R R5
U 1 1 55939C56
P 4200 5150
F 0 "R5" V 4280 5150 40  0000 C CNN
F 1 "1k" V 4207 5151 40  0000 C CNN
F 2 "~" V 4130 5150 30  0000 C CNN
F 3 "~" H 4200 5150 30  0000 C CNN
	1    4200 5150
	-1   0    0    1   
$EndComp
$Comp
L GND #PWR011
U 1 1 55939C5C
P 4200 5500
F 0 "#PWR011" H 4200 5500 30  0001 C CNN
F 1 "GND" H 4200 5430 30  0001 C CNN
F 2 "" H 4200 5500 60  0000 C CNN
F 3 "" H 4200 5500 60  0000 C CNN
	1    4200 5500
	1    0    0    -1  
$EndComp
Wire Wire Line
	4200 5400 4200 5500
Wire Wire Line
	1900 4900 5000 4900
Wire Wire Line
	1750 5100 5000 5100
Connection ~ 1750 2850
Wire Wire Line
	1900 4900 1900 2650
Wire Wire Line
	1900 2650 1350 2650
Connection ~ 4200 4900
$EndSCHEMATC
