%!PS-Adobe-3.0
%%Creator: PCBNEW
%%CreationDate: Mon Jul  6 11:37:08 2015
%%Title: /home/max/av/!мое/паяние/kicad/телеграф модульный/модуль сом-порта/com-port-module-B_Cu.ps
%%Pages: 1
%%PageOrder: Ascend
%%BoundingBox: 0 0 842 1191
%%DocumentMedia: A3 842 1191 0 () ()
%%Orientation: Landscape
%%EndComments
%%BeginProlog
/line { newpath moveto lineto stroke } bind def
/cir0 { newpath 0 360 arc stroke } bind def
/cir1 { newpath 0 360 arc gsave fill grestore stroke } bind def
/cir2 { newpath 0 360 arc gsave fill grestore stroke } bind def
/arc0 { newpath arc stroke } bind def
/arc1 { newpath 4 index 4 index moveto arc closepath gsave fill
    grestore stroke } bind def
/arc2 { newpath 4 index 4 index moveto arc closepath gsave fill
    grestore stroke } bind def
/poly0 { stroke } bind def
/poly1 { closepath gsave fill grestore stroke } bind def
/poly2 { closepath gsave fill grestore stroke } bind def
/rect0 { rectstroke } bind def
/rect1 { rectfill } bind def
/rect2 { rectfill } bind def
/linemode0 { 0 setlinecap 0 setlinejoin 0 setlinewidth } bind def
/linemode1 { 1 setlinecap 1 setlinejoin } bind def
/dashedline { [200] 100 setdash } bind def
/solidline { [] 0 setdash } bind def
/phantomshow { moveto
    /KicadFont findfont 0.000001 scalefont setfont
    show } bind def
/textshow { gsave
    findfont exch scalefont setfont concat 1 scale 0 0 moveto show
    } bind def
/reencodefont {
  findfont dup length dict begin
  { 1 index /FID ne
    { def }
    { pop pop } ifelse
  } forall
  /Encoding ISOLatin1Encoding def
  currentdict
  end } bind def
/KicadFont /Helvetica reencodefont definefont pop
/KicadFont-Bold /Helvetica-Bold reencodefont definefont pop
/KicadFont-Oblique /Helvetica-Oblique reencodefont definefont pop
/KicadFont-BoldOblique /Helvetica-BoldOblique reencodefont definefont pop
%%EndProlog
%%Page: 1 1
%%BeginPageSetup
gsave
0.0072 0.0072 scale
linemode1
116930 0 translate 90 rotate
59.0551 setlinewidth
%%EndPageSetup
0 0 0 setrgbcolor
0 0 0 setrgbcolor
59.0551 setlinewidth
newpath
80945.5 75084.5 moveto
80454.5 75084.5 lineto
80454.5 75575.5 lineto
80945.5 75575.5 lineto
80945.5 75084.5 lineto
poly1
0 0 0 setrgbcolor
80700 74330 245.472 cir1
0 0 0 setrgbcolor
81700 74330 245.472 cir1
0 0 0 setrgbcolor
newpath
87704.5 75584.5 moveto
87704.5 76075.5 lineto
88195.5 76075.5 lineto
88195.5 75584.5 lineto
87704.5 75584.5 lineto
poly1
0 0 0 setrgbcolor
86950 75830 245.472 cir1
0 0 0 setrgbcolor
86950 74830 245.472 cir1
0 0 0 setrgbcolor
newpath
89695.5 76075.5 moveto
89695.5 75584.5 lineto
89204.5 75584.5 lineto
89204.5 76075.5 lineto
89695.5 76075.5 lineto
poly1
0 0 0 setrgbcolor
90450 75830 245.472 cir1
0 0 0 setrgbcolor
90450 76830 245.472 cir1
0 0 0 setrgbcolor
82200 75330 245.472 cir1
0 0 0 setrgbcolor
85200 75330 245.472 cir1
0 0 0 setrgbcolor
80700 79580 245.472 cir1
0 0 0 setrgbcolor
83700 79580 245.472 cir1
0 0 0 setrgbcolor
80700 83330 245.472 cir1
0 0 0 setrgbcolor
80700 86330 245.472 cir1
0 0 0 setrgbcolor
83700 83330 245.472 cir1
0 0 0 setrgbcolor
83700 86330 245.472 cir1
0 0 0 setrgbcolor
85200 83330 245.472 cir1
0 0 0 setrgbcolor
85200 86330 245.472 cir1
0 0 0 setrgbcolor
88200 83330 245.472 cir1
0 0 0 setrgbcolor
88200 86330 245.472 cir1
0 0 0 setrgbcolor
82950 73580 245.472 cir1
0 0 0 setrgbcolor
85950 73580 245.472 cir1
0 0 0 setrgbcolor
92700 73830 245.472 cir1
0 0 0 setrgbcolor
92700 76830 245.472 cir1
0 0 0 setrgbcolor
89700 73130 245.472 cir1
0 0 0 setrgbcolor
86700 73130 245.472 cir1
0 0 0 setrgbcolor
87700 77580 245.472 cir1
0 0 0 setrgbcolor
84700 77580 245.472 cir1
0 0 0 setrgbcolor
83700 71580 245.472 cir1
0 0 0 setrgbcolor
80700 71580 245.472 cir1
0 0 0 setrgbcolor
newpath
88970.5 72350.5 moveto
88970.5 71809.5 lineto
88429.5 71809.5 lineto
88429.5 72350.5 lineto
88970.5 72350.5 lineto
poly1
0 0 0 setrgbcolor
87700 72080 270.472 cir1
0 0 0 setrgbcolor
86700 72080 270.472 cir1
0 0 0 setrgbcolor
85700 72080 270.472 cir1
0 0 0 setrgbcolor
newpath
91454.5 78584.5 moveto
91454.5 79075.5 lineto
91945.5 79075.5 lineto
91945.5 78584.5 lineto
91454.5 78584.5 lineto
poly1
0 0 0 setrgbcolor
92700 78830 245.472 cir1
0 0 0 setrgbcolor
92700 81830 245.472 cir1
0 0 0 setrgbcolor
91700 81830 245.472 cir1
0 0 0 setrgbcolor
newpath
85454.5 78584.5 moveto
85454.5 79075.5 lineto
85945.5 79075.5 lineto
85945.5 78584.5 lineto
85454.5 78584.5 lineto
poly1
0 0 0 setrgbcolor
86700 78830 245.472 cir1
0 0 0 setrgbcolor
86700 81830 245.472 cir1
0 0 0 setrgbcolor
85700 81830 245.472 cir1
0 0 0 setrgbcolor
newpath
88454.5 78584.5 moveto
88454.5 79075.5 lineto
88945.5 79075.5 lineto
88945.5 78584.5 lineto
88454.5 78584.5 lineto
poly1
0 0 0 setrgbcolor
89700 78830 245.472 cir1
0 0 0 setrgbcolor
89700 81830 245.472 cir1
0 0 0 setrgbcolor
88700 81830 245.472 cir1
0 0 0 setrgbcolor
newpath
80454.5 82075.5 moveto
80945.5 82075.5 lineto
80945.5 81584.5 lineto
80454.5 81584.5 lineto
80454.5 82075.5 lineto
poly1
0 0 0 setrgbcolor
80700 80830 245.472 cir1
0 0 0 setrgbcolor
83700 80830 245.472 cir1
0 0 0 setrgbcolor
83700 81830 245.472 cir1
0 0 0 setrgbcolor
newpath
83945.5 77334.5 moveto
83454.5 77334.5 lineto
83454.5 77825.5 lineto
83945.5 77825.5 lineto
83945.5 77334.5 lineto
poly1
0 0 0 setrgbcolor
83700 78580 245.472 cir1
0 0 0 setrgbcolor
80700 78580 245.472 cir1
0 0 0 setrgbcolor
80700 77580 245.472 cir1
0 0 0 setrgbcolor
92250 88830 720.472 cir1
0 0 0 setrgbcolor
82250 88830 720.472 cir1
0 0 0 setrgbcolor
newpath
89129.5 87559.5 moveto
89129.5 88100.5 lineto
89670.5 88100.5 lineto
89670.5 87559.5 lineto
89129.5 87559.5 lineto
poly1
0 0 0 setrgbcolor
88300 87830 270.472 cir1
0 0 0 setrgbcolor
87200 87830 270.472 cir1
0 0 0 setrgbcolor
86150 87830 270.472 cir1
0 0 0 setrgbcolor
85050 87830 270.472 cir1
0 0 0 setrgbcolor
85600 88830 270.472 cir1
0 0 0 setrgbcolor
86700 88830 270.472 cir1
0 0 0 setrgbcolor
87750 88830 270.472 cir1
0 0 0 setrgbcolor
88850 88830 270.472 cir1
0 0 0 setrgbcolor
400 setlinewidth
newpath
79000 78330 moveto
79000 91130 lineto
stroke
0 0 0 setrgbcolor
newpath
93400 90930 moveto
93400 78930 lineto
stroke
0 0 0 setrgbcolor
newpath
93600 91130 moveto
93400 90930 lineto
stroke
0 0 0 setrgbcolor
newpath
79000 91130 moveto
93600 91130 lineto
stroke
0 0 0 setrgbcolor
newpath
82200 69330 moveto
79000 69330 lineto
stroke
0 0 0 setrgbcolor
newpath
79000 69330 moveto
79000 72330 lineto
stroke
0 0 0 setrgbcolor
newpath
86200 69330 moveto
93400 69330 lineto
stroke
0 0 0 setrgbcolor
newpath
93400 69330 moveto
93400 73530 lineto
stroke
0 0 0 setrgbcolor
newpath
89700 78830 moveto
89700 78630 lineto
stroke
0 0 0 setrgbcolor
newpath
92700 78430 moveto
92700 78830 lineto
stroke
0 0 0 setrgbcolor
newpath
92200 77930 moveto
92700 78430 lineto
stroke
0 0 0 setrgbcolor
newpath
90400 77930 moveto
92200 77930 lineto
stroke
0 0 0 setrgbcolor
newpath
89700 78630 moveto
90400 77930 lineto
stroke
0 0 0 setrgbcolor
newpath
92700 81830 moveto
92700 82030 lineto
stroke
0 0 0 setrgbcolor
newpath
89700 82230 moveto
89700 81830 lineto
stroke
0 0 0 setrgbcolor
newpath
90200 82730 moveto
89700 82230 lineto
stroke
0 0 0 setrgbcolor
newpath
92000 82730 moveto
90200 82730 lineto
stroke
0 0 0 setrgbcolor
newpath
92700 82030 moveto
92000 82730 lineto
stroke
0 0 0 setrgbcolor
newpath
92700 78830 moveto
92700 81830 lineto
stroke
0 0 0 setrgbcolor
newpath
92700 73830 moveto
93400 74530 lineto
stroke
0 0 0 setrgbcolor
newpath
93400 74530 moveto
93400 78130 lineto
stroke
0 0 0 setrgbcolor
newpath
93400 78130 moveto
92700 78830 lineto
stroke
0 0 0 setrgbcolor
newpath
80700 71580 moveto
80700 71630 lineto
stroke
0 0 0 setrgbcolor
newpath
80250 79580 moveto
80700 79580 lineto
stroke
0 0 0 setrgbcolor
newpath
79000 78330 moveto
80250 79580 lineto
stroke
0 0 0 setrgbcolor
newpath
79000 73330 moveto
79000 78330 lineto
stroke
0 0 0 setrgbcolor
newpath
80700 71630 moveto
79000 73330 lineto
stroke
0 0 0 setrgbcolor
newpath
88700 72080 moveto
88700 71830 lineto
stroke
0 0 0 setrgbcolor
newpath
80700 70830 moveto
80700 71580 lineto
stroke
0 0 0 setrgbcolor
newpath
82200 69330 moveto
80700 70830 lineto
stroke
0 0 0 setrgbcolor
newpath
86200 69330 moveto
82200 69330 lineto
stroke
0 0 0 setrgbcolor
newpath
88700 71830 moveto
86200 69330 lineto
stroke
0 0 0 setrgbcolor
newpath
86950 74830 moveto
85900 74830 lineto
stroke
0 0 0 setrgbcolor
newpath
89700 78430 moveto
89700 78830 lineto
stroke
0 0 0 setrgbcolor
newpath
89400 78130 moveto
89700 78430 lineto
stroke
0 0 0 setrgbcolor
newpath
88400 78130 moveto
89400 78130 lineto
stroke
0 0 0 setrgbcolor
newpath
88000 78530 moveto
88400 78130 lineto
stroke
0 0 0 setrgbcolor
newpath
87600 78530 moveto
88000 78530 lineto
stroke
0 0 0 setrgbcolor
newpath
85200 76130 moveto
87600 78530 lineto
stroke
0 0 0 setrgbcolor
newpath
84800 76130 moveto
85200 76130 lineto
stroke
0 0 0 setrgbcolor
newpath
84400 75730 moveto
84800 76130 lineto
stroke
0 0 0 setrgbcolor
newpath
84400 75130 moveto
84400 75730 lineto
stroke
0 0 0 setrgbcolor
newpath
85000 74530 moveto
84400 75130 lineto
stroke
0 0 0 setrgbcolor
newpath
85600 74530 moveto
85000 74530 lineto
stroke
0 0 0 setrgbcolor
newpath
85900 74830 moveto
85600 74530 lineto
stroke
0 0 0 setrgbcolor
newpath
88700 72080 moveto
91700 72080 lineto
stroke
0 0 0 setrgbcolor
newpath
92700 73080 moveto
92700 73830 lineto
stroke
0 0 0 setrgbcolor
newpath
91700 72080 moveto
92700 73080 lineto
stroke
0 0 0 setrgbcolor
newpath
83700 79580 moveto
83450 79580 lineto
stroke
0 0 0 setrgbcolor
newpath
82950 74830 moveto
85700 72080 lineto
stroke
0 0 0 setrgbcolor
newpath
82950 79080 moveto
82950 74830 lineto
stroke
0 0 0 setrgbcolor
newpath
83450 79580 moveto
82950 79080 lineto
stroke
0 0 0 setrgbcolor
newpath
83700 80830 moveto
83700 79580 lineto
stroke
0 0 0 setrgbcolor
newpath
88300 87830 moveto
88300 86430 lineto
stroke
0 0 0 setrgbcolor
newpath
88300 86430 moveto
88200 86330 lineto
stroke
0 0 0 setrgbcolor
newpath
88700 78830 moveto
88500 78830 lineto
stroke
0 0 0 setrgbcolor
newpath
87000 79130 moveto
86700 78830 lineto
stroke
0 0 0 setrgbcolor
newpath
88200 79130 moveto
87000 79130 lineto
stroke
0 0 0 setrgbcolor
newpath
88500 78830 moveto
88200 79130 lineto
stroke
0 0 0 setrgbcolor
newpath
86700 72080 moveto
86700 71830 lineto
stroke
0 0 0 setrgbcolor
newpath
80700 73830 moveto
80700 74330 lineto
stroke
0 0 0 setrgbcolor
newpath
81200 73330 moveto
80700 73830 lineto
stroke
0 0 0 setrgbcolor
newpath
81950 73330 moveto
81200 73330 lineto
stroke
0 0 0 setrgbcolor
newpath
82950 72330 moveto
81950 73330 lineto
stroke
0 0 0 setrgbcolor
newpath
82950 71080 moveto
82950 72330 lineto
stroke
0 0 0 setrgbcolor
newpath
83200 70830 moveto
82950 71080 lineto
stroke
0 0 0 setrgbcolor
newpath
85700 70830 moveto
83200 70830 lineto
stroke
0 0 0 setrgbcolor
newpath
86700 71830 moveto
85700 70830 lineto
stroke
0 0 0 setrgbcolor
newpath
85950 73580 moveto
85150 73580 lineto
stroke
0 0 0 setrgbcolor
newpath
85700 77430 moveto
85700 78830 lineto
stroke
0 0 0 setrgbcolor
newpath
85000 76730 moveto
85700 77430 lineto
stroke
0 0 0 setrgbcolor
newpath
84000 76730 moveto
85000 76730 lineto
stroke
0 0 0 setrgbcolor
newpath
83600 76330 moveto
84000 76730 lineto
stroke
0 0 0 setrgbcolor
newpath
83600 75130 moveto
83600 76330 lineto
stroke
0 0 0 setrgbcolor
newpath
85150 73580 moveto
83600 75130 lineto
stroke
0 0 0 setrgbcolor
newpath
83700 78580 moveto
84200 78580 lineto
stroke
0 0 0 setrgbcolor
newpath
90700 79830 moveto
91700 78830 lineto
stroke
0 0 0 setrgbcolor
newpath
85200 79830 moveto
90700 79830 lineto
stroke
0 0 0 setrgbcolor
newpath
84700 79330 moveto
85200 79830 lineto
stroke
0 0 0 setrgbcolor
newpath
84700 79080 moveto
84700 79330 lineto
stroke
0 0 0 setrgbcolor
newpath
84200 78580 moveto
84700 79080 lineto
stroke
0 0 0 setrgbcolor
newpath
86950 75830 moveto
85700 75830 lineto
stroke
0 0 0 setrgbcolor
newpath
85700 75830 moveto
85200 75330 lineto
stroke
0 0 0 setrgbcolor
newpath
89700 73130 moveto
89800 73130 lineto
stroke
0 0 0 setrgbcolor
newpath
90450 73780 moveto
90450 75830 lineto
stroke
0 0 0 setrgbcolor
newpath
89800 73130 moveto
90450 73780 lineto
stroke
0 0 0 setrgbcolor
newpath
90450 75830 moveto
90450 75880 lineto
stroke
0 0 0 setrgbcolor
newpath
88850 76730 moveto
87950 75830 lineto
stroke
0 0 0 setrgbcolor
newpath
89600 76730 moveto
88850 76730 lineto
stroke
0 0 0 setrgbcolor
newpath
90450 75880 moveto
89600 76730 lineto
stroke
0 0 0 setrgbcolor
newpath
83700 71580 moveto
83700 72830 lineto
stroke
0 0 0 setrgbcolor
newpath
82200 74330 moveto
81700 74330 lineto
stroke
0 0 0 setrgbcolor
newpath
83700 72830 moveto
82200 74330 lineto
stroke
0 0 0 setrgbcolor
newpath
81700 74330 moveto
82200 74830 lineto
stroke
0 0 0 setrgbcolor
newpath
82200 74830 moveto
82200 75330 lineto
stroke
0 0 0 setrgbcolor
newpath
86700 73130 moveto
86750 73130 lineto
stroke
0 0 0 setrgbcolor
newpath
86750 73130 moveto
89450 75830 lineto
stroke
0 0 0 setrgbcolor
newpath
86700 73130 moveto
87000 73130 lineto
stroke
0 0 0 setrgbcolor
newpath
87700 72430 moveto
87700 72080 lineto
stroke
0 0 0 setrgbcolor
newpath
87000 73130 moveto
87700 72430 lineto
stroke
0 0 0 setrgbcolor
newpath
87700 72080 moveto
87700 71830 lineto
stroke
0 0 0 setrgbcolor
newpath
80450 75330 moveto
80700 75330 lineto
stroke
0 0 0 setrgbcolor
newpath
79700 74580 moveto
80450 75330 lineto
stroke
0 0 0 setrgbcolor
newpath
79700 73580 moveto
79700 74580 lineto
stroke
0 0 0 setrgbcolor
newpath
80700 72580 moveto
79700 73580 lineto
stroke
0 0 0 setrgbcolor
newpath
81450 72580 moveto
80700 72580 lineto
stroke
0 0 0 setrgbcolor
newpath
81950 72080 moveto
81450 72580 lineto
stroke
0 0 0 setrgbcolor
newpath
81950 71080 moveto
81950 72080 lineto
stroke
0 0 0 setrgbcolor
newpath
82950 70080 moveto
81950 71080 lineto
stroke
0 0 0 setrgbcolor
newpath
85950 70080 moveto
82950 70080 lineto
stroke
0 0 0 setrgbcolor
newpath
87700 71830 moveto
85950 70080 lineto
stroke
0 0 0 setrgbcolor
newpath
80700 75330 moveto
80950 75330 lineto
stroke
0 0 0 setrgbcolor
newpath
82200 76580 moveto
82200 78580 lineto
stroke
0 0 0 setrgbcolor
newpath
80950 75330 moveto
82200 76580 lineto
stroke
0 0 0 setrgbcolor
newpath
83700 81830 moveto
82950 81080 lineto
stroke
0 0 0 setrgbcolor
newpath
81200 77580 moveto
80700 77580 lineto
stroke
0 0 0 setrgbcolor
newpath
82200 78580 moveto
81200 77580 lineto
stroke
0 0 0 setrgbcolor
newpath
82200 79830 moveto
82200 78580 lineto
stroke
0 0 0 setrgbcolor
newpath
82950 80580 moveto
82200 79830 lineto
stroke
0 0 0 setrgbcolor
newpath
82950 81080 moveto
82950 80580 lineto
stroke
0 0 0 setrgbcolor
newpath
85700 81830 moveto
83700 81830 lineto
stroke
0 0 0 setrgbcolor
newpath
90450 76830 moveto
90450 76880 lineto
stroke
0 0 0 setrgbcolor
newpath
87950 77330 moveto
87700 77580 lineto
stroke
0 0 0 setrgbcolor
newpath
90000 77330 moveto
87950 77330 lineto
stroke
0 0 0 setrgbcolor
newpath
90450 76880 moveto
90000 77330 lineto
stroke
0 0 0 setrgbcolor
newpath
92700 76830 moveto
90450 76830 lineto
stroke
0 0 0 setrgbcolor
newpath
85200 83330 moveto
84450 82580 lineto
stroke
0 0 0 setrgbcolor
newpath
81200 78580 moveto
80700 78580 lineto
stroke
0 0 0 setrgbcolor
newpath
81450 78830 moveto
81200 78580 lineto
stroke
0 0 0 setrgbcolor
newpath
81450 80080 moveto
81450 78830 lineto
stroke
0 0 0 setrgbcolor
newpath
82200 80830 moveto
81450 80080 lineto
stroke
0 0 0 setrgbcolor
newpath
82200 81330 moveto
82200 80830 lineto
stroke
0 0 0 setrgbcolor
newpath
83450 82580 moveto
82200 81330 lineto
stroke
0 0 0 setrgbcolor
newpath
84450 82580 moveto
83450 82580 lineto
stroke
0 0 0 setrgbcolor
newpath
88700 81830 moveto
88700 82330 lineto
stroke
0 0 0 setrgbcolor
newpath
88700 82330 moveto
89200 82830 lineto
stroke
0 0 0 setrgbcolor
newpath
89200 82830 moveto
89200 83830 lineto
stroke
0 0 0 setrgbcolor
newpath
89200 83830 moveto
88950 84080 lineto
stroke
0 0 0 setrgbcolor
newpath
88950 84080 moveto
88700 84330 lineto
stroke
0 0 0 setrgbcolor
newpath
88700 84330 moveto
86200 84330 lineto
stroke
0 0 0 setrgbcolor
newpath
86200 84330 moveto
85200 83330 lineto
stroke
0 0 0 setrgbcolor
newpath
83700 77580 moveto
84700 77580 lineto
stroke
0 0 0 setrgbcolor
newpath
88200 83330 moveto
86700 81830 lineto
stroke
0 0 0 setrgbcolor
newpath
86700 81330 moveto
87200 80830 lineto
stroke
0 0 0 setrgbcolor
newpath
87200 80830 moveto
91200 80830 lineto
stroke
0 0 0 setrgbcolor
newpath
91200 80830 moveto
91700 81330 lineto
stroke
0 0 0 setrgbcolor
newpath
91700 81330 moveto
91700 81830 lineto
stroke
0 0 0 setrgbcolor
newpath
86700 81830 moveto
86700 81330 lineto
stroke
0 0 0 setrgbcolor
newpath
83700 86330 moveto
85200 86330 lineto
stroke
0 0 0 setrgbcolor
newpath
85200 86330 moveto
85050 86480 lineto
stroke
0 0 0 setrgbcolor
newpath
85050 86480 moveto
85050 87830 lineto
stroke
0 0 0 setrgbcolor
newpath
80700 86330 moveto
81700 85330 lineto
stroke
0 0 0 setrgbcolor
newpath
87200 86830 moveto
87200 87830 lineto
stroke
0 0 0 setrgbcolor
newpath
85700 85330 moveto
87200 86830 lineto
stroke
0 0 0 setrgbcolor
newpath
85200 85330 moveto
85700 85330 lineto
stroke
0 0 0 setrgbcolor
newpath
81700 85330 moveto
85200 85330 lineto
stroke
0 0 0 setrgbcolor
newpath
80700 80830 moveto
81200 80830 lineto
stroke
0 0 0 setrgbcolor
newpath
81700 83330 moveto
83700 83330 lineto
stroke
0 0 0 setrgbcolor
newpath
81450 83080 moveto
81700 83330 lineto
stroke
0 0 0 setrgbcolor
newpath
81450 81080 moveto
81450 83080 lineto
stroke
0 0 0 setrgbcolor
newpath
81200 80830 moveto
81450 81080 lineto
stroke
0 0 0 setrgbcolor
newpath
80700 81830 moveto
80700 83330 lineto
stroke
showpage
grestore
%%EOF
