%!PS-Adobe-3.0
%%Creator: PCBNEW
%%CreationDate: Mon Jul  6 11:37:08 2015
%%Title: /home/max/av/!мое/паяние/kicad/телеграф модульный/модуль сом-порта/com-port-module-F_SilkS.ps
%%Pages: 1
%%PageOrder: Ascend
%%BoundingBox: 0 0 842 1191
%%DocumentMedia: A3 842 1191 0 () ()
%%Orientation: Landscape
%%EndComments
%%BeginProlog
/line { newpath moveto lineto stroke } bind def
/cir0 { newpath 0 360 arc stroke } bind def
/cir1 { newpath 0 360 arc gsave fill grestore stroke } bind def
/cir2 { newpath 0 360 arc gsave fill grestore stroke } bind def
/arc0 { newpath arc stroke } bind def
/arc1 { newpath 4 index 4 index moveto arc closepath gsave fill
    grestore stroke } bind def
/arc2 { newpath 4 index 4 index moveto arc closepath gsave fill
    grestore stroke } bind def
/poly0 { stroke } bind def
/poly1 { closepath gsave fill grestore stroke } bind def
/poly2 { closepath gsave fill grestore stroke } bind def
/rect0 { rectstroke } bind def
/rect1 { rectfill } bind def
/rect2 { rectfill } bind def
/linemode0 { 0 setlinecap 0 setlinejoin 0 setlinewidth } bind def
/linemode1 { 1 setlinecap 1 setlinejoin } bind def
/dashedline { [200] 100 setdash } bind def
/solidline { [] 0 setdash } bind def
/phantomshow { moveto
    /KicadFont findfont 0.000001 scalefont setfont
    show } bind def
/textshow { gsave
    findfont exch scalefont setfont concat 1 scale 0 0 moveto show
    } bind def
/reencodefont {
  findfont dup length dict begin
  { 1 index /FID ne
    { def }
    { pop pop } ifelse
  } forall
  /Encoding ISOLatin1Encoding def
  currentdict
  end } bind def
/KicadFont /Helvetica reencodefont definefont pop
/KicadFont-Bold /Helvetica-Bold reencodefont definefont pop
/KicadFont-Oblique /Helvetica-Oblique reencodefont definefont pop
/KicadFont-BoldOblique /Helvetica-BoldOblique reencodefont definefont pop
%%EndProlog
%%Page: 1 1
%%BeginPageSetup
gsave
0.0072 0.0072 scale
linemode1
116930 0 translate 90 rotate
59.0551 setlinewidth
%%EndPageSetup
0 0 0 setrgbcolor
0 0 0 setrgbcolor
120 setlinewidth
newpath
82200 74330 moveto
80700 75830 lineto
stroke
0 0 0 setrgbcolor
newpath
80700 75830 moveto
80200 75830 lineto
stroke
0 0 0 setrgbcolor
newpath
80200 75830 moveto
79700 75330 lineto
stroke
0 0 0 setrgbcolor
newpath
79700 75330 moveto
79700 74330 lineto
stroke
0 0 0 setrgbcolor
newpath
79700 74330 moveto
80700 73330 lineto
stroke
0 0 0 setrgbcolor
newpath
80700 73330 moveto
81700 73330 lineto
stroke
0 0 0 setrgbcolor
newpath
81700 73330 moveto
82200 73830 lineto
stroke
0 0 0 setrgbcolor
newpath
82200 73830 moveto
82200 74330 lineto
stroke
0 0 0 setrgbcolor
newpath
86950 74330 moveto
88450 75830 lineto
stroke
0 0 0 setrgbcolor
newpath
88450 75830 moveto
88450 76330 lineto
stroke
0 0 0 setrgbcolor
newpath
88450 76330 moveto
87950 76830 lineto
stroke
0 0 0 setrgbcolor
newpath
87950 76830 moveto
86950 76830 lineto
stroke
0 0 0 setrgbcolor
newpath
86950 76830 moveto
85950 75830 lineto
stroke
0 0 0 setrgbcolor
newpath
85950 75830 moveto
85950 74830 lineto
stroke
0 0 0 setrgbcolor
newpath
85950 74830 moveto
86450 74330 lineto
stroke
0 0 0 setrgbcolor
newpath
86450 74330 moveto
86950 74330 lineto
stroke
0 0 0 setrgbcolor
newpath
90450 77330 moveto
88950 75830 lineto
stroke
0 0 0 setrgbcolor
newpath
88950 75830 moveto
88950 75330 lineto
stroke
0 0 0 setrgbcolor
newpath
88950 75330 moveto
89450 74830 lineto
stroke
0 0 0 setrgbcolor
newpath
89450 74830 moveto
90450 74830 lineto
stroke
0 0 0 setrgbcolor
newpath
90450 74830 moveto
91450 75830 lineto
stroke
0 0 0 setrgbcolor
newpath
91450 75830 moveto
91450 76830 lineto
stroke
0 0 0 setrgbcolor
newpath
91450 76830 moveto
90950 77330 lineto
stroke
0 0 0 setrgbcolor
newpath
90950 77330 moveto
90450 77330 lineto
stroke
0 0 0 setrgbcolor
80 setlinewidth
newpath
82200 75330 moveto
82400 75330 lineto
stroke
0 0 0 setrgbcolor
newpath
85200 75330 moveto
85000 75330 lineto
stroke
0 0 0 setrgbcolor
newpath
85000 75330 moveto
85000 75730 lineto
stroke
0 0 0 setrgbcolor
newpath
85000 75730 moveto
82400 75730 lineto
stroke
0 0 0 setrgbcolor
newpath
82400 75730 moveto
82400 74930 lineto
stroke
0 0 0 setrgbcolor
newpath
82400 74930 moveto
85000 74930 lineto
stroke
0 0 0 setrgbcolor
newpath
85000 74930 moveto
85000 75330 lineto
stroke
0 0 0 setrgbcolor
newpath
82400 75530 moveto
82600 75730 lineto
stroke
0 0 0 setrgbcolor
newpath
80700 79580 moveto
80900 79580 lineto
stroke
0 0 0 setrgbcolor
newpath
83700 79580 moveto
83500 79580 lineto
stroke
0 0 0 setrgbcolor
newpath
83500 79580 moveto
83500 79980 lineto
stroke
0 0 0 setrgbcolor
newpath
83500 79980 moveto
80900 79980 lineto
stroke
0 0 0 setrgbcolor
newpath
80900 79980 moveto
80900 79180 lineto
stroke
0 0 0 setrgbcolor
newpath
80900 79180 moveto
83500 79180 lineto
stroke
0 0 0 setrgbcolor
newpath
83500 79180 moveto
83500 79580 lineto
stroke
0 0 0 setrgbcolor
newpath
80900 79780 moveto
81100 79980 lineto
stroke
0 0 0 setrgbcolor
newpath
80700 83330 moveto
80700 83530 lineto
stroke
0 0 0 setrgbcolor
newpath
80700 86330 moveto
80700 86130 lineto
stroke
0 0 0 setrgbcolor
newpath
80700 86130 moveto
80300 86130 lineto
stroke
0 0 0 setrgbcolor
newpath
80300 86130 moveto
80300 83530 lineto
stroke
0 0 0 setrgbcolor
newpath
80300 83530 moveto
81100 83530 lineto
stroke
0 0 0 setrgbcolor
newpath
81100 83530 moveto
81100 86130 lineto
stroke
0 0 0 setrgbcolor
newpath
81100 86130 moveto
80700 86130 lineto
stroke
0 0 0 setrgbcolor
newpath
80500 83530 moveto
80300 83730 lineto
stroke
0 0 0 setrgbcolor
newpath
83700 83330 moveto
83700 83530 lineto
stroke
0 0 0 setrgbcolor
newpath
83700 86330 moveto
83700 86130 lineto
stroke
0 0 0 setrgbcolor
newpath
83700 86130 moveto
83300 86130 lineto
stroke
0 0 0 setrgbcolor
newpath
83300 86130 moveto
83300 83530 lineto
stroke
0 0 0 setrgbcolor
newpath
83300 83530 moveto
84100 83530 lineto
stroke
0 0 0 setrgbcolor
newpath
84100 83530 moveto
84100 86130 lineto
stroke
0 0 0 setrgbcolor
newpath
84100 86130 moveto
83700 86130 lineto
stroke
0 0 0 setrgbcolor
newpath
83500 83530 moveto
83300 83730 lineto
stroke
0 0 0 setrgbcolor
newpath
85200 83330 moveto
85200 83530 lineto
stroke
0 0 0 setrgbcolor
newpath
85200 86330 moveto
85200 86130 lineto
stroke
0 0 0 setrgbcolor
newpath
85200 86130 moveto
84800 86130 lineto
stroke
0 0 0 setrgbcolor
newpath
84800 86130 moveto
84800 83530 lineto
stroke
0 0 0 setrgbcolor
newpath
84800 83530 moveto
85600 83530 lineto
stroke
0 0 0 setrgbcolor
newpath
85600 83530 moveto
85600 86130 lineto
stroke
0 0 0 setrgbcolor
newpath
85600 86130 moveto
85200 86130 lineto
stroke
0 0 0 setrgbcolor
newpath
85000 83530 moveto
84800 83730 lineto
stroke
0 0 0 setrgbcolor
newpath
88200 83330 moveto
88200 83530 lineto
stroke
0 0 0 setrgbcolor
newpath
88200 86330 moveto
88200 86130 lineto
stroke
0 0 0 setrgbcolor
newpath
88200 86130 moveto
87800 86130 lineto
stroke
0 0 0 setrgbcolor
newpath
87800 86130 moveto
87800 83530 lineto
stroke
0 0 0 setrgbcolor
newpath
87800 83530 moveto
88600 83530 lineto
stroke
0 0 0 setrgbcolor
newpath
88600 83530 moveto
88600 86130 lineto
stroke
0 0 0 setrgbcolor
newpath
88600 86130 moveto
88200 86130 lineto
stroke
0 0 0 setrgbcolor
newpath
88000 83530 moveto
87800 83730 lineto
stroke
0 0 0 setrgbcolor
newpath
82950 73580 moveto
83150 73580 lineto
stroke
0 0 0 setrgbcolor
newpath
85950 73580 moveto
85750 73580 lineto
stroke
0 0 0 setrgbcolor
newpath
85750 73580 moveto
85750 73980 lineto
stroke
0 0 0 setrgbcolor
newpath
85750 73980 moveto
83150 73980 lineto
stroke
0 0 0 setrgbcolor
newpath
83150 73980 moveto
83150 73180 lineto
stroke
0 0 0 setrgbcolor
newpath
83150 73180 moveto
85750 73180 lineto
stroke
0 0 0 setrgbcolor
newpath
85750 73180 moveto
85750 73580 lineto
stroke
0 0 0 setrgbcolor
newpath
83150 73780 moveto
83350 73980 lineto
stroke
0 0 0 setrgbcolor
newpath
92700 73830 moveto
92700 74030 lineto
stroke
0 0 0 setrgbcolor
newpath
92700 76830 moveto
92700 76630 lineto
stroke
0 0 0 setrgbcolor
newpath
92700 76630 moveto
92300 76630 lineto
stroke
0 0 0 setrgbcolor
newpath
92300 76630 moveto
92300 74030 lineto
stroke
0 0 0 setrgbcolor
newpath
92300 74030 moveto
93100 74030 lineto
stroke
0 0 0 setrgbcolor
newpath
93100 74030 moveto
93100 76630 lineto
stroke
0 0 0 setrgbcolor
newpath
93100 76630 moveto
92700 76630 lineto
stroke
0 0 0 setrgbcolor
newpath
92500 74030 moveto
92300 74230 lineto
stroke
0 0 0 setrgbcolor
newpath
89700 73130 moveto
89500 73130 lineto
stroke
0 0 0 setrgbcolor
newpath
86700 73130 moveto
86900 73130 lineto
stroke
0 0 0 setrgbcolor
newpath
86900 73130 moveto
86900 72730 lineto
stroke
0 0 0 setrgbcolor
newpath
86900 72730 moveto
89500 72730 lineto
stroke
0 0 0 setrgbcolor
newpath
89500 72730 moveto
89500 73530 lineto
stroke
0 0 0 setrgbcolor
newpath
89500 73530 moveto
86900 73530 lineto
stroke
0 0 0 setrgbcolor
newpath
86900 73530 moveto
86900 73130 lineto
stroke
0 0 0 setrgbcolor
newpath
89500 72930 moveto
89300 72730 lineto
stroke
0 0 0 setrgbcolor
newpath
87700 77580 moveto
87500 77580 lineto
stroke
0 0 0 setrgbcolor
newpath
84700 77580 moveto
84900 77580 lineto
stroke
0 0 0 setrgbcolor
newpath
84900 77580 moveto
84900 77180 lineto
stroke
0 0 0 setrgbcolor
newpath
84900 77180 moveto
87500 77180 lineto
stroke
0 0 0 setrgbcolor
newpath
87500 77180 moveto
87500 77980 lineto
stroke
0 0 0 setrgbcolor
newpath
87500 77980 moveto
84900 77980 lineto
stroke
0 0 0 setrgbcolor
newpath
84900 77980 moveto
84900 77580 lineto
stroke
0 0 0 setrgbcolor
newpath
87500 77380 moveto
87300 77180 lineto
stroke
0 0 0 setrgbcolor
newpath
83700 71580 moveto
83500 71580 lineto
stroke
0 0 0 setrgbcolor
newpath
80700 71580 moveto
80900 71580 lineto
stroke
0 0 0 setrgbcolor
newpath
80900 71580 moveto
80900 71180 lineto
stroke
0 0 0 setrgbcolor
newpath
80900 71180 moveto
83500 71180 lineto
stroke
0 0 0 setrgbcolor
newpath
83500 71180 moveto
83500 71980 lineto
stroke
0 0 0 setrgbcolor
newpath
83500 71980 moveto
80900 71980 lineto
stroke
0 0 0 setrgbcolor
newpath
80900 71980 moveto
80900 71580 lineto
stroke
0 0 0 setrgbcolor
newpath
83500 71380 moveto
83300 71180 lineto
stroke
0 0 0 setrgbcolor
100 setlinewidth
newpath
85200 72580 moveto
89200 72580 lineto
stroke
0 0 0 setrgbcolor
newpath
85200 71580 moveto
89200 71580 lineto
stroke
0 0 0 setrgbcolor
newpath
89200 71580 moveto
89200 72580 lineto
stroke
0 0 0 setrgbcolor
newpath
85200 72580 moveto
85200 71580 lineto
stroke
0 0 0 setrgbcolor
150 setlinewidth
newpath
91700 81330 moveto
91700 79330 lineto
stroke
0 0 0 setrgbcolor
newpath
91700 79330 moveto
92700 79330 lineto
stroke
0 0 0 setrgbcolor
newpath
92700 79330 moveto
92700 81330 lineto
stroke
0 0 0 setrgbcolor
newpath
92700 81330 moveto
91700 81330 lineto
stroke
0 0 0 setrgbcolor
newpath
85700 81330 moveto
85700 79330 lineto
stroke
0 0 0 setrgbcolor
newpath
85700 79330 moveto
86700 79330 lineto
stroke
0 0 0 setrgbcolor
newpath
86700 79330 moveto
86700 81330 lineto
stroke
0 0 0 setrgbcolor
newpath
86700 81330 moveto
85700 81330 lineto
stroke
0 0 0 setrgbcolor
newpath
88700 81330 moveto
88700 79330 lineto
stroke
0 0 0 setrgbcolor
newpath
88700 79330 moveto
89700 79330 lineto
stroke
0 0 0 setrgbcolor
newpath
89700 79330 moveto
89700 81330 lineto
stroke
0 0 0 setrgbcolor
newpath
89700 81330 moveto
88700 81330 lineto
stroke
0 0 0 setrgbcolor
newpath
83200 81830 moveto
81200 81830 lineto
stroke
0 0 0 setrgbcolor
newpath
81200 81830 moveto
81200 80830 lineto
stroke
0 0 0 setrgbcolor
newpath
81200 80830 moveto
83200 80830 lineto
stroke
0 0 0 setrgbcolor
newpath
83200 80830 moveto
83200 81830 lineto
stroke
0 0 0 setrgbcolor
newpath
81200 77580 moveto
83200 77580 lineto
stroke
0 0 0 setrgbcolor
newpath
83200 77580 moveto
83200 78580 lineto
stroke
0 0 0 setrgbcolor
newpath
83200 78580 moveto
81200 78580 lineto
stroke
0 0 0 setrgbcolor
newpath
81200 78580 moveto
81200 77580 lineto
stroke
0 0 0 setrgbcolor
120 setlinewidth
newpath
80850 87430 moveto
93650 87430 lineto
stroke
0 0 0 setrgbcolor
newpath
93650 87430 moveto
93650 94430 lineto
stroke
0 0 0 setrgbcolor
newpath
93650 94430 moveto
80850 94430 lineto
stroke
0 0 0 setrgbcolor
newpath
80850 94430 moveto
80850 87430 lineto
stroke
0 0 0 setrgbcolor
newpath
83650 94430 moveto
83650 91430 lineto
stroke
0 0 0 setrgbcolor
newpath
83650 91430 moveto
90850 91430 lineto
stroke
0 0 0 setrgbcolor
newpath
90850 91430 moveto
90850 94430 lineto
stroke
0 0 0 setrgbcolor
newpath
84250 94430 moveto
84250 97830 lineto
stroke
0 0 0 setrgbcolor
newpath
84250 97830 moveto
90250 97830 lineto
stroke
0 0 0 setrgbcolor
newpath
90250 97830 moveto
90250 94430 lineto
stroke
0 0 0 setrgbcolor
80 setlinewidth
0 0 0 setrgbcolor
(Q1) 82700 74330 phantomshow
0 0 0 setrgbcolor
newpath
82900 74291.9 moveto
82881 74253.8 lineto
82842.9 74215.7 lineto
82785.7 74158.6 lineto
82766.7 74120.5 lineto
82766.7 74082.4 lineto
stroke
newpath
82861.9 74101.4 moveto
82842.9 74063.3 lineto
82804.8 74025.2 lineto
82728.6 74006.2 lineto
82595.2 74006.2 lineto
82519 74025.2 lineto
82481 74063.3 lineto
82461.9 74101.4 lineto
82461.9 74177.6 lineto
82481 74215.7 lineto
82519 74253.8 lineto
82595.2 74272.9 lineto
82728.6 74272.9 lineto
82804.8 74253.8 lineto
82842.9 74215.7 lineto
82861.9 74177.6 lineto
82861.9 74101.4 lineto
stroke
newpath
82861.9 74653.8 moveto
82861.9 74425.2 lineto
stroke
newpath
82861.9 74539.5 moveto
82461.9 74539.5 lineto
82519 74501.4 lineto
82557.1 74463.3 lineto
82576.2 74425.2 lineto
stroke
0 0 0 setrgbcolor
0 0 0 setrgbcolor
(NPN) 79200 74330 phantomshow
0 0 0 setrgbcolor
newpath
79361.9 73806.2 moveto
78961.9 73806.2 lineto
79361.9 74034.8 lineto
78961.9 74034.8 lineto
stroke
newpath
79361.9 74225.2 moveto
78961.9 74225.2 lineto
78961.9 74377.6 lineto
78981 74415.7 lineto
79000 74434.8 lineto
79038.1 74453.8 lineto
79095.2 74453.8 lineto
79133.3 74434.8 lineto
79152.4 74415.7 lineto
79171.4 74377.6 lineto
79171.4 74225.2 lineto
stroke
newpath
79361.9 74625.2 moveto
78961.9 74625.2 lineto
79361.9 74853.8 lineto
78961.9 74853.8 lineto
stroke
0 0 0 setrgbcolor
0 0 0 setrgbcolor
(Q2) 86950 73830 phantomshow
0 0 0 setrgbcolor
newpath
86911.9 73630 moveto
86873.8 73649 lineto
86835.7 73687.1 lineto
86778.6 73744.3 lineto
86740.5 73763.3 lineto
86702.4 73763.3 lineto
stroke
newpath
86721.4 73668.1 moveto
86683.3 73687.1 lineto
86645.2 73725.2 lineto
86626.2 73801.4 lineto
86626.2 73934.8 lineto
86645.2 74011 lineto
86683.3 74049 lineto
86721.4 74068.1 lineto
86797.6 74068.1 lineto
86835.7 74049 lineto
86873.8 74011 lineto
86892.9 73934.8 lineto
86892.9 73801.4 lineto
86873.8 73725.2 lineto
86835.7 73687.1 lineto
86797.6 73668.1 lineto
86721.4 73668.1 lineto
stroke
newpath
87045.2 74030 moveto
87064.3 74049 lineto
87102.4 74068.1 lineto
87197.6 74068.1 lineto
87235.7 74049 lineto
87254.8 74030 lineto
87273.8 73991.9 lineto
87273.8 73953.8 lineto
87254.8 73896.7 lineto
87026.2 73668.1 lineto
87273.8 73668.1 lineto
stroke
0 0 0 setrgbcolor
0 0 0 setrgbcolor
(NPN) 86950 77330 phantomshow
0 0 0 setrgbcolor
newpath
86426.2 77168.1 moveto
86426.2 77568.1 lineto
86654.8 77168.1 lineto
86654.8 77568.1 lineto
stroke
newpath
86845.2 77168.1 moveto
86845.2 77568.1 lineto
86997.6 77568.1 lineto
87035.7 77549 lineto
87054.8 77530 lineto
87073.8 77491.9 lineto
87073.8 77434.8 lineto
87054.8 77396.7 lineto
87035.7 77377.6 lineto
86997.6 77358.6 lineto
86845.2 77358.6 lineto
stroke
newpath
87245.2 77168.1 moveto
87245.2 77568.1 lineto
87473.8 77168.1 lineto
87473.8 77568.1 lineto
stroke
0 0 0 setrgbcolor
0 0 0 setrgbcolor
(Q3) 90450 77830 phantomshow
0 0 0 setrgbcolor
newpath
90411.9 77630 moveto
90373.8 77649 lineto
90335.7 77687.1 lineto
90278.6 77744.3 lineto
90240.5 77763.3 lineto
90202.4 77763.3 lineto
stroke
newpath
90221.4 77668.1 moveto
90183.3 77687.1 lineto
90145.2 77725.2 lineto
90126.2 77801.4 lineto
90126.2 77934.8 lineto
90145.2 78011 lineto
90183.3 78049 lineto
90221.4 78068.1 lineto
90297.6 78068.1 lineto
90335.7 78049 lineto
90373.8 78011 lineto
90392.9 77934.8 lineto
90392.9 77801.4 lineto
90373.8 77725.2 lineto
90335.7 77687.1 lineto
90297.6 77668.1 lineto
90221.4 77668.1 lineto
stroke
newpath
90526.2 78068.1 moveto
90773.8 78068.1 lineto
90640.5 77915.7 lineto
90697.6 77915.7 lineto
90735.7 77896.7 lineto
90754.8 77877.6 lineto
90773.8 77839.5 lineto
90773.8 77744.3 lineto
90754.8 77706.2 lineto
90735.7 77687.1 lineto
90697.6 77668.1 lineto
90583.3 77668.1 lineto
90545.2 77687.1 lineto
90526.2 77706.2 lineto
stroke
0 0 0 setrgbcolor
0 0 0 setrgbcolor
(NPN) 90450 74330 phantomshow
0 0 0 setrgbcolor
newpath
89926.2 74168.1 moveto
89926.2 74568.1 lineto
90154.8 74168.1 lineto
90154.8 74568.1 lineto
stroke
newpath
90345.2 74168.1 moveto
90345.2 74568.1 lineto
90497.6 74568.1 lineto
90535.7 74549 lineto
90554.8 74530 lineto
90573.8 74491.9 lineto
90573.8 74434.8 lineto
90554.8 74396.7 lineto
90535.7 74377.6 lineto
90497.6 74358.6 lineto
90345.2 74358.6 lineto
stroke
newpath
90745.2 74168.1 moveto
90745.2 74568.1 lineto
90973.8 74168.1 lineto
90973.8 74568.1 lineto
stroke
0 0 0 setrgbcolor
0 0 0 setrgbcolor
(1k) 83700 75280 phantomshow
0 0 0 setrgbcolor
newpath
83640.5 75057.4 moveto
83354.8 75057.4 lineto
stroke
newpath
83497.6 75057.4 moveto
83497.6 75607.4 lineto
83450 75528.8 lineto
83402.4 75476.4 lineto
83354.8 75450.2 lineto
stroke
newpath
83854.8 75057.4 moveto
83854.8 75607.4 lineto
stroke
newpath
83902.4 75266.9 moveto
84045.2 75057.4 lineto
stroke
newpath
84045.2 75424 moveto
83854.8 75214.5 lineto
stroke
0 0 0 setrgbcolor
0 0 0 setrgbcolor
(1k) 82200 79530 phantomshow
0 0 0 setrgbcolor
newpath
82140.5 79307.4 moveto
81854.8 79307.4 lineto
stroke
newpath
81997.6 79307.4 moveto
81997.6 79857.4 lineto
81950 79778.8 lineto
81902.4 79726.4 lineto
81854.8 79700.2 lineto
stroke
newpath
82354.8 79307.4 moveto
82354.8 79857.4 lineto
stroke
newpath
82402.4 79516.9 moveto
82545.2 79307.4 lineto
stroke
newpath
82545.2 79674 moveto
82354.8 79464.5 lineto
stroke
0 0 0 setrgbcolor
0 0 0 setrgbcolor
(600) 80750 84830 phantomshow
0 0 0 setrgbcolor
newpath
80422.6 84449 moveto
80422.6 84353.8 lineto
80448.8 84306.2 lineto
80475 84282.4 lineto
80553.6 84234.8 lineto
80658.3 84211 lineto
80867.9 84211 lineto
80920.2 84234.8 lineto
80946.4 84258.6 lineto
80972.6 84306.2 lineto
80972.6 84401.4 lineto
80946.4 84449 lineto
80920.2 84472.9 lineto
80867.9 84496.7 lineto
80736.9 84496.7 lineto
80684.5 84472.9 lineto
80658.3 84449 lineto
80632.1 84401.4 lineto
80632.1 84306.2 lineto
80658.3 84258.6 lineto
80684.5 84234.8 lineto
80736.9 84211 lineto
stroke
newpath
80422.6 84806.2 moveto
80422.6 84853.8 lineto
80448.8 84901.4 lineto
80475 84925.2 lineto
80527.4 84949 lineto
80632.1 84972.9 lineto
80763.1 84972.9 lineto
80867.9 84949 lineto
80920.2 84925.2 lineto
80946.4 84901.4 lineto
80972.6 84853.8 lineto
80972.6 84806.2 lineto
80946.4 84758.6 lineto
80920.2 84734.8 lineto
80867.9 84711 lineto
80763.1 84687.1 lineto
80632.1 84687.1 lineto
80527.4 84711 lineto
80475 84734.8 lineto
80448.8 84758.6 lineto
80422.6 84806.2 lineto
stroke
newpath
80422.6 85282.4 moveto
80422.6 85330 lineto
80448.8 85377.6 lineto
80475 85401.4 lineto
80527.4 85425.2 lineto
80632.1 85449 lineto
80763.1 85449 lineto
80867.9 85425.2 lineto
80920.2 85401.4 lineto
80946.4 85377.6 lineto
80972.6 85330 lineto
80972.6 85282.4 lineto
80946.4 85234.8 lineto
80920.2 85211 lineto
80867.9 85187.1 lineto
80763.1 85163.3 lineto
80632.1 85163.3 lineto
80527.4 85187.1 lineto
80475 85211 lineto
80448.8 85234.8 lineto
80422.6 85282.4 lineto
stroke
0 0 0 setrgbcolor
0 0 0 setrgbcolor
(600) 83750 84830 phantomshow
0 0 0 setrgbcolor
newpath
83422.6 84449 moveto
83422.6 84353.8 lineto
83448.8 84306.2 lineto
83475 84282.4 lineto
83553.6 84234.8 lineto
83658.3 84211 lineto
83867.9 84211 lineto
83920.2 84234.8 lineto
83946.4 84258.6 lineto
83972.6 84306.2 lineto
83972.6 84401.4 lineto
83946.4 84449 lineto
83920.2 84472.9 lineto
83867.9 84496.7 lineto
83736.9 84496.7 lineto
83684.5 84472.9 lineto
83658.3 84449 lineto
83632.1 84401.4 lineto
83632.1 84306.2 lineto
83658.3 84258.6 lineto
83684.5 84234.8 lineto
83736.9 84211 lineto
stroke
newpath
83422.6 84806.2 moveto
83422.6 84853.8 lineto
83448.8 84901.4 lineto
83475 84925.2 lineto
83527.4 84949 lineto
83632.1 84972.9 lineto
83763.1 84972.9 lineto
83867.9 84949 lineto
83920.2 84925.2 lineto
83946.4 84901.4 lineto
83972.6 84853.8 lineto
83972.6 84806.2 lineto
83946.4 84758.6 lineto
83920.2 84734.8 lineto
83867.9 84711 lineto
83763.1 84687.1 lineto
83632.1 84687.1 lineto
83527.4 84711 lineto
83475 84734.8 lineto
83448.8 84758.6 lineto
83422.6 84806.2 lineto
stroke
newpath
83422.6 85282.4 moveto
83422.6 85330 lineto
83448.8 85377.6 lineto
83475 85401.4 lineto
83527.4 85425.2 lineto
83632.1 85449 lineto
83763.1 85449 lineto
83867.9 85425.2 lineto
83920.2 85401.4 lineto
83946.4 85377.6 lineto
83972.6 85330 lineto
83972.6 85282.4 lineto
83946.4 85234.8 lineto
83920.2 85211 lineto
83867.9 85187.1 lineto
83763.1 85163.3 lineto
83632.1 85163.3 lineto
83527.4 85187.1 lineto
83475 85211 lineto
83448.8 85234.8 lineto
83422.6 85282.4 lineto
stroke
0 0 0 setrgbcolor
0 0 0 setrgbcolor
(0) 85250 84830 phantomshow
0 0 0 setrgbcolor
newpath
84922.6 84806.2 moveto
84922.6 84853.8 lineto
84948.8 84901.4 lineto
84975 84925.2 lineto
85027.4 84949 lineto
85132.1 84972.9 lineto
85263.1 84972.9 lineto
85367.9 84949 lineto
85420.2 84925.2 lineto
85446.4 84901.4 lineto
85472.6 84853.8 lineto
85472.6 84806.2 lineto
85446.4 84758.6 lineto
85420.2 84734.8 lineto
85367.9 84711 lineto
85263.1 84687.1 lineto
85132.1 84687.1 lineto
85027.4 84711 lineto
84975 84734.8 lineto
84948.8 84758.6 lineto
84922.6 84806.2 lineto
stroke
0 0 0 setrgbcolor
0 0 0 setrgbcolor
(0) 88250 84830 phantomshow
0 0 0 setrgbcolor
newpath
87922.6 84806.2 moveto
87922.6 84853.8 lineto
87948.8 84901.4 lineto
87975 84925.2 lineto
88027.4 84949 lineto
88132.1 84972.9 lineto
88263.1 84972.9 lineto
88367.9 84949 lineto
88420.2 84925.2 lineto
88446.4 84901.4 lineto
88472.6 84853.8 lineto
88472.6 84806.2 lineto
88446.4 84758.6 lineto
88420.2 84734.8 lineto
88367.9 84711 lineto
88263.1 84687.1 lineto
88132.1 84687.1 lineto
88027.4 84711 lineto
87975 84734.8 lineto
87948.8 84758.6 lineto
87922.6 84806.2 lineto
stroke
0 0 0 setrgbcolor
0 0 0 setrgbcolor
(600) 84450 73530 phantomshow
0 0 0 setrgbcolor
newpath
84069 73857.4 moveto
83973.8 73857.4 lineto
83926.2 73831.2 lineto
83902.4 73805 lineto
83854.8 73726.4 lineto
83831 73621.7 lineto
83831 73412.1 lineto
83854.8 73359.8 lineto
83878.6 73333.6 lineto
83926.2 73307.4 lineto
84021.4 73307.4 lineto
84069 73333.6 lineto
84092.9 73359.8 lineto
84116.7 73412.1 lineto
84116.7 73543.1 lineto
84092.9 73595.5 lineto
84069 73621.7 lineto
84021.4 73647.9 lineto
83926.2 73647.9 lineto
83878.6 73621.7 lineto
83854.8 73595.5 lineto
83831 73543.1 lineto
stroke
newpath
84426.2 73857.4 moveto
84473.8 73857.4 lineto
84521.4 73831.2 lineto
84545.2 73805 lineto
84569 73752.6 lineto
84592.9 73647.9 lineto
84592.9 73516.9 lineto
84569 73412.1 lineto
84545.2 73359.8 lineto
84521.4 73333.6 lineto
84473.8 73307.4 lineto
84426.2 73307.4 lineto
84378.6 73333.6 lineto
84354.8 73359.8 lineto
84331 73412.1 lineto
84307.1 73516.9 lineto
84307.1 73647.9 lineto
84331 73752.6 lineto
84354.8 73805 lineto
84378.6 73831.2 lineto
84426.2 73857.4 lineto
stroke
newpath
84902.4 73857.4 moveto
84950 73857.4 lineto
84997.6 73831.2 lineto
85021.4 73805 lineto
85045.2 73752.6 lineto
85069 73647.9 lineto
85069 73516.9 lineto
85045.2 73412.1 lineto
85021.4 73359.8 lineto
84997.6 73333.6 lineto
84950 73307.4 lineto
84902.4 73307.4 lineto
84854.8 73333.6 lineto
84831 73359.8 lineto
84807.1 73412.1 lineto
84783.3 73516.9 lineto
84783.3 73647.9 lineto
84807.1 73752.6 lineto
84831 73805 lineto
84854.8 73831.2 lineto
84902.4 73857.4 lineto
stroke
0 0 0 setrgbcolor
0 0 0 setrgbcolor
(1k) 92750 75330 phantomshow
0 0 0 setrgbcolor
newpath
92972.6 75270.5 moveto
92972.6 74984.8 lineto
stroke
newpath
92972.6 75127.6 moveto
92422.6 75127.6 lineto
92501.2 75080 lineto
92553.6 75032.4 lineto
92579.8 74984.8 lineto
stroke
newpath
92972.6 75484.8 moveto
92422.6 75484.8 lineto
stroke
newpath
92763.1 75532.4 moveto
92972.6 75675.2 lineto
stroke
newpath
92606 75675.2 moveto
92815.5 75484.8 lineto
stroke
0 0 0 setrgbcolor
0 0 0 setrgbcolor
(1k) 88200 73180 phantomshow
0 0 0 setrgbcolor
newpath
88140.5 72957.4 moveto
87854.8 72957.4 lineto
stroke
newpath
87997.6 72957.4 moveto
87997.6 73507.4 lineto
87950 73428.8 lineto
87902.4 73376.4 lineto
87854.8 73350.2 lineto
stroke
newpath
88354.8 72957.4 moveto
88354.8 73507.4 lineto
stroke
newpath
88402.4 73166.9 moveto
88545.2 72957.4 lineto
stroke
newpath
88545.2 73324 moveto
88354.8 73114.5 lineto
stroke
0 0 0 setrgbcolor
0 0 0 setrgbcolor
(600) 86200 77630 phantomshow
0 0 0 setrgbcolor
newpath
85819 77957.4 moveto
85723.8 77957.4 lineto
85676.2 77931.2 lineto
85652.4 77905 lineto
85604.8 77826.4 lineto
85581 77721.7 lineto
85581 77512.1 lineto
85604.8 77459.8 lineto
85628.6 77433.6 lineto
85676.2 77407.4 lineto
85771.4 77407.4 lineto
85819 77433.6 lineto
85842.9 77459.8 lineto
85866.7 77512.1 lineto
85866.7 77643.1 lineto
85842.9 77695.5 lineto
85819 77721.7 lineto
85771.4 77747.9 lineto
85676.2 77747.9 lineto
85628.6 77721.7 lineto
85604.8 77695.5 lineto
85581 77643.1 lineto
stroke
newpath
86176.2 77957.4 moveto
86223.8 77957.4 lineto
86271.4 77931.2 lineto
86295.2 77905 lineto
86319 77852.6 lineto
86342.9 77747.9 lineto
86342.9 77616.9 lineto
86319 77512.1 lineto
86295.2 77459.8 lineto
86271.4 77433.6 lineto
86223.8 77407.4 lineto
86176.2 77407.4 lineto
86128.6 77433.6 lineto
86104.8 77459.8 lineto
86081 77512.1 lineto
86057.1 77616.9 lineto
86057.1 77747.9 lineto
86081 77852.6 lineto
86104.8 77905 lineto
86128.6 77931.2 lineto
86176.2 77957.4 lineto
stroke
newpath
86652.4 77957.4 moveto
86700 77957.4 lineto
86747.6 77931.2 lineto
86771.4 77905 lineto
86795.2 77852.6 lineto
86819 77747.9 lineto
86819 77616.9 lineto
86795.2 77512.1 lineto
86771.4 77459.8 lineto
86747.6 77433.6 lineto
86700 77407.4 lineto
86652.4 77407.4 lineto
86604.8 77433.6 lineto
86581 77459.8 lineto
86557.1 77512.1 lineto
86533.3 77616.9 lineto
86533.3 77747.9 lineto
86557.1 77852.6 lineto
86581 77905 lineto
86604.8 77931.2 lineto
86652.4 77957.4 lineto
stroke
0 0 0 setrgbcolor
0 0 0 setrgbcolor
(1k) 82200 71630 phantomshow
0 0 0 setrgbcolor
newpath
82140.5 71407.4 moveto
81854.8 71407.4 lineto
stroke
newpath
81997.6 71407.4 moveto
81997.6 71957.4 lineto
81950 71878.8 lineto
81902.4 71826.4 lineto
81854.8 71800.2 lineto
stroke
newpath
82354.8 71407.4 moveto
82354.8 71957.4 lineto
stroke
newpath
82402.4 71616.9 moveto
82545.2 71407.4 lineto
stroke
newpath
82545.2 71774 moveto
82354.8 71564.5 lineto
stroke
0 0 0 setrgbcolor
0 0 0 setrgbcolor
(P1) 87200 71080 phantomshow
0 0 0 setrgbcolor
newpath
86904.8 70918.1 moveto
86904.8 71318.1 lineto
87057.1 71318.1 lineto
87095.2 71299 lineto
87114.3 71280 lineto
87133.3 71241.9 lineto
87133.3 71184.8 lineto
87114.3 71146.7 lineto
87095.2 71127.6 lineto
87057.1 71108.6 lineto
86904.8 71108.6 lineto
stroke
newpath
87514.3 70918.1 moveto
87285.7 70918.1 lineto
stroke
newpath
87400 70918.1 moveto
87400 71318.1 lineto
87361.9 71261 lineto
87323.8 71222.9 lineto
87285.7 71203.8 lineto
stroke
0 0 0 setrgbcolor
0 0 0 setrgbcolor
(IC5) 90700 80330 phantomshow
0 0 0 setrgbcolor
newpath
91003.6 79939.5 moveto
90253.6 79939.5 lineto
stroke
newpath
90932.1 80358.6 moveto
90967.9 80339.5 lineto
91003.6 80282.4 lineto
91003.6 80244.3 lineto
90967.9 80187.1 lineto
90896.4 80149 lineto
90825 80130 lineto
90682.1 80111 lineto
90575 80111 lineto
90432.1 80130 lineto
90360.7 80149 lineto
90289.3 80187.1 lineto
90253.6 80244.3 lineto
90253.6 80282.4 lineto
90289.3 80339.5 lineto
90325 80358.6 lineto
stroke
newpath
90253.6 80720.5 moveto
90253.6 80530 lineto
90610.7 80511 lineto
90575 80530 lineto
90539.3 80568.1 lineto
90539.3 80663.3 lineto
90575 80701.4 lineto
90610.7 80720.5 lineto
90682.1 80739.5 lineto
90860.7 80739.5 lineto
90932.1 80720.5 lineto
90967.9 80701.4 lineto
91003.6 80663.3 lineto
91003.6 80568.1 lineto
90967.9 80530 lineto
90932.1 80511 lineto
stroke
0 0 0 setrgbcolor
0 0 0 setrgbcolor
(PC817) 93700 80330 phantomshow
0 0 0 setrgbcolor
newpath
93942.9 79563.3 moveto
93342.9 79563.3 lineto
93342.9 79696.7 lineto
93371.4 79730 lineto
93400 79746.7 lineto
93457.1 79763.3 lineto
93542.9 79763.3 lineto
93600 79746.7 lineto
93628.6 79730 lineto
93657.1 79696.7 lineto
93657.1 79563.3 lineto
stroke
newpath
93885.7 80113.3 moveto
93914.3 80096.7 lineto
93942.9 80046.7 lineto
93942.9 80013.3 lineto
93914.3 79963.3 lineto
93857.1 79930 lineto
93800 79913.3 lineto
93685.7 79896.7 lineto
93600 79896.7 lineto
93485.7 79913.3 lineto
93428.6 79930 lineto
93371.4 79963.3 lineto
93342.9 80013.3 lineto
93342.9 80046.7 lineto
93371.4 80096.7 lineto
93400 80113.3 lineto
stroke
newpath
93600 80313.3 moveto
93571.4 80280 lineto
93542.9 80263.3 lineto
93485.7 80246.7 lineto
93457.1 80246.7 lineto
93400 80263.3 lineto
93371.4 80280 lineto
93342.9 80313.3 lineto
93342.9 80380 lineto
93371.4 80413.3 lineto
93400 80430 lineto
93457.1 80446.7 lineto
93485.7 80446.7 lineto
93542.9 80430 lineto
93571.4 80413.3 lineto
93600 80380 lineto
93600 80313.3 lineto
93628.6 80280 lineto
93657.1 80263.3 lineto
93714.3 80246.7 lineto
93828.6 80246.7 lineto
93885.7 80263.3 lineto
93914.3 80280 lineto
93942.9 80313.3 lineto
93942.9 80380 lineto
93914.3 80413.3 lineto
93885.7 80430 lineto
93828.6 80446.7 lineto
93714.3 80446.7 lineto
93657.1 80430 lineto
93628.6 80413.3 lineto
93600 80380 lineto
stroke
newpath
93942.9 80780 moveto
93942.9 80580 lineto
stroke
newpath
93942.9 80680 moveto
93342.9 80680 lineto
93428.6 80646.7 lineto
93485.7 80613.3 lineto
93514.3 80580 lineto
stroke
newpath
93342.9 80896.7 moveto
93342.9 81130 lineto
93942.9 80980 lineto
stroke
0 0 0 setrgbcolor
0 0 0 setrgbcolor
(IC4) 84700 80330 phantomshow
0 0 0 setrgbcolor
newpath
85003.6 79939.5 moveto
84253.6 79939.5 lineto
stroke
newpath
84932.1 80358.6 moveto
84967.9 80339.5 lineto
85003.6 80282.4 lineto
85003.6 80244.3 lineto
84967.9 80187.1 lineto
84896.4 80149 lineto
84825 80130 lineto
84682.1 80111 lineto
84575 80111 lineto
84432.1 80130 lineto
84360.7 80149 lineto
84289.3 80187.1 lineto
84253.6 80244.3 lineto
84253.6 80282.4 lineto
84289.3 80339.5 lineto
84325 80358.6 lineto
stroke
newpath
84503.6 80701.4 moveto
85003.6 80701.4 lineto
stroke
newpath
84217.9 80606.2 moveto
84753.6 80511 lineto
84753.6 80758.6 lineto
stroke
0 0 0 setrgbcolor
0 0 0 setrgbcolor
(PC817) 87700 80330 phantomshow
0 0 0 setrgbcolor
newpath
87942.9 79563.3 moveto
87342.9 79563.3 lineto
87342.9 79696.7 lineto
87371.4 79730 lineto
87400 79746.7 lineto
87457.1 79763.3 lineto
87542.9 79763.3 lineto
87600 79746.7 lineto
87628.6 79730 lineto
87657.1 79696.7 lineto
87657.1 79563.3 lineto
stroke
newpath
87885.7 80113.3 moveto
87914.3 80096.7 lineto
87942.9 80046.7 lineto
87942.9 80013.3 lineto
87914.3 79963.3 lineto
87857.1 79930 lineto
87800 79913.3 lineto
87685.7 79896.7 lineto
87600 79896.7 lineto
87485.7 79913.3 lineto
87428.6 79930 lineto
87371.4 79963.3 lineto
87342.9 80013.3 lineto
87342.9 80046.7 lineto
87371.4 80096.7 lineto
87400 80113.3 lineto
stroke
newpath
87600 80313.3 moveto
87571.4 80280 lineto
87542.9 80263.3 lineto
87485.7 80246.7 lineto
87457.1 80246.7 lineto
87400 80263.3 lineto
87371.4 80280 lineto
87342.9 80313.3 lineto
87342.9 80380 lineto
87371.4 80413.3 lineto
87400 80430 lineto
87457.1 80446.7 lineto
87485.7 80446.7 lineto
87542.9 80430 lineto
87571.4 80413.3 lineto
87600 80380 lineto
87600 80313.3 lineto
87628.6 80280 lineto
87657.1 80263.3 lineto
87714.3 80246.7 lineto
87828.6 80246.7 lineto
87885.7 80263.3 lineto
87914.3 80280 lineto
87942.9 80313.3 lineto
87942.9 80380 lineto
87914.3 80413.3 lineto
87885.7 80430 lineto
87828.6 80446.7 lineto
87714.3 80446.7 lineto
87657.1 80430 lineto
87628.6 80413.3 lineto
87600 80380 lineto
stroke
newpath
87942.9 80780 moveto
87942.9 80580 lineto
stroke
newpath
87942.9 80680 moveto
87342.9 80680 lineto
87428.6 80646.7 lineto
87485.7 80613.3 lineto
87514.3 80580 lineto
stroke
newpath
87342.9 80896.7 moveto
87342.9 81130 lineto
87942.9 80980 lineto
stroke
0 0 0 setrgbcolor
0 0 0 setrgbcolor
(IC2) 87700 80330 phantomshow
0 0 0 setrgbcolor
newpath
88003.6 79939.5 moveto
87253.6 79939.5 lineto
stroke
newpath
87932.1 80358.6 moveto
87967.9 80339.5 lineto
88003.6 80282.4 lineto
88003.6 80244.3 lineto
87967.9 80187.1 lineto
87896.4 80149 lineto
87825 80130 lineto
87682.1 80111 lineto
87575 80111 lineto
87432.1 80130 lineto
87360.7 80149 lineto
87289.3 80187.1 lineto
87253.6 80244.3 lineto
87253.6 80282.4 lineto
87289.3 80339.5 lineto
87325 80358.6 lineto
stroke
newpath
87325 80511 moveto
87289.3 80530 lineto
87253.6 80568.1 lineto
87253.6 80663.3 lineto
87289.3 80701.4 lineto
87325 80720.5 lineto
87396.4 80739.5 lineto
87467.9 80739.5 lineto
87575 80720.5 lineto
88003.6 80491.9 lineto
88003.6 80739.5 lineto
stroke
0 0 0 setrgbcolor
0 0 0 setrgbcolor
(PC817) 90700 80330 phantomshow
0 0 0 setrgbcolor
newpath
90942.9 79563.3 moveto
90342.9 79563.3 lineto
90342.9 79696.7 lineto
90371.4 79730 lineto
90400 79746.7 lineto
90457.1 79763.3 lineto
90542.9 79763.3 lineto
90600 79746.7 lineto
90628.6 79730 lineto
90657.1 79696.7 lineto
90657.1 79563.3 lineto
stroke
newpath
90885.7 80113.3 moveto
90914.3 80096.7 lineto
90942.9 80046.7 lineto
90942.9 80013.3 lineto
90914.3 79963.3 lineto
90857.1 79930 lineto
90800 79913.3 lineto
90685.7 79896.7 lineto
90600 79896.7 lineto
90485.7 79913.3 lineto
90428.6 79930 lineto
90371.4 79963.3 lineto
90342.9 80013.3 lineto
90342.9 80046.7 lineto
90371.4 80096.7 lineto
90400 80113.3 lineto
stroke
newpath
90600 80313.3 moveto
90571.4 80280 lineto
90542.9 80263.3 lineto
90485.7 80246.7 lineto
90457.1 80246.7 lineto
90400 80263.3 lineto
90371.4 80280 lineto
90342.9 80313.3 lineto
90342.9 80380 lineto
90371.4 80413.3 lineto
90400 80430 lineto
90457.1 80446.7 lineto
90485.7 80446.7 lineto
90542.9 80430 lineto
90571.4 80413.3 lineto
90600 80380 lineto
90600 80313.3 lineto
90628.6 80280 lineto
90657.1 80263.3 lineto
90714.3 80246.7 lineto
90828.6 80246.7 lineto
90885.7 80263.3 lineto
90914.3 80280 lineto
90942.9 80313.3 lineto
90942.9 80380 lineto
90914.3 80413.3 lineto
90885.7 80430 lineto
90828.6 80446.7 lineto
90714.3 80446.7 lineto
90657.1 80430 lineto
90628.6 80413.3 lineto
90600 80380 lineto
stroke
newpath
90942.9 80780 moveto
90942.9 80580 lineto
stroke
newpath
90942.9 80680 moveto
90342.9 80680 lineto
90428.6 80646.7 lineto
90485.7 80613.3 lineto
90514.3 80580 lineto
stroke
newpath
90342.9 80896.7 moveto
90342.9 81130 lineto
90942.9 80980 lineto
stroke
0 0 0 setrgbcolor
0 0 0 setrgbcolor
(IC3) 82200 82830 phantomshow
0 0 0 setrgbcolor
newpath
81809.5 82526.4 moveto
81809.5 83276.4 lineto
stroke
newpath
82228.6 82597.9 moveto
82209.5 82562.1 lineto
82152.4 82526.4 lineto
82114.3 82526.4 lineto
82057.1 82562.1 lineto
82019 82633.6 lineto
82000 82705 lineto
81981 82847.9 lineto
81981 82955 lineto
82000 83097.9 lineto
82019 83169.3 lineto
82057.1 83240.7 lineto
82114.3 83276.4 lineto
82152.4 83276.4 lineto
82209.5 83240.7 lineto
82228.6 83205 lineto
stroke
newpath
82361.9 83276.4 moveto
82609.5 83276.4 lineto
82476.2 82990.7 lineto
82533.3 82990.7 lineto
82571.4 82955 lineto
82590.5 82919.3 lineto
82609.5 82847.9 lineto
82609.5 82669.3 lineto
82590.5 82597.9 lineto
82571.4 82562.1 lineto
82533.3 82526.4 lineto
82419 82526.4 lineto
82381 82562.1 lineto
82361.9 82597.9 lineto
stroke
0 0 0 setrgbcolor
0 0 0 setrgbcolor
(PC817) 82200 79830 phantomshow
0 0 0 setrgbcolor
newpath
81433.3 79587.1 moveto
81433.3 80187.1 lineto
81566.7 80187.1 lineto
81600 80158.6 lineto
81616.7 80130 lineto
81633.3 80072.9 lineto
81633.3 79987.1 lineto
81616.7 79930 lineto
81600 79901.4 lineto
81566.7 79872.9 lineto
81433.3 79872.9 lineto
stroke
newpath
81983.3 79644.3 moveto
81966.7 79615.7 lineto
81916.7 79587.1 lineto
81883.3 79587.1 lineto
81833.3 79615.7 lineto
81800 79672.9 lineto
81783.3 79730 lineto
81766.7 79844.3 lineto
81766.7 79930 lineto
81783.3 80044.3 lineto
81800 80101.4 lineto
81833.3 80158.6 lineto
81883.3 80187.1 lineto
81916.7 80187.1 lineto
81966.7 80158.6 lineto
81983.3 80130 lineto
stroke
newpath
82183.3 79930 moveto
82150 79958.6 lineto
82133.3 79987.1 lineto
82116.7 80044.3 lineto
82116.7 80072.9 lineto
82133.3 80130 lineto
82150 80158.6 lineto
82183.3 80187.1 lineto
82250 80187.1 lineto
82283.3 80158.6 lineto
82300 80130 lineto
82316.7 80072.9 lineto
82316.7 80044.3 lineto
82300 79987.1 lineto
82283.3 79958.6 lineto
82250 79930 lineto
82183.3 79930 lineto
82150 79901.4 lineto
82133.3 79872.9 lineto
82116.7 79815.7 lineto
82116.7 79701.4 lineto
82133.3 79644.3 lineto
82150 79615.7 lineto
82183.3 79587.1 lineto
82250 79587.1 lineto
82283.3 79615.7 lineto
82300 79644.3 lineto
82316.7 79701.4 lineto
82316.7 79815.7 lineto
82300 79872.9 lineto
82283.3 79901.4 lineto
82250 79930 lineto
stroke
newpath
82650 79587.1 moveto
82450 79587.1 lineto
stroke
newpath
82550 79587.1 moveto
82550 80187.1 lineto
82516.7 80101.4 lineto
82483.3 80044.3 lineto
82450 80015.7 lineto
stroke
newpath
82766.7 80187.1 moveto
83000 80187.1 lineto
82850 79587.1 lineto
stroke
0 0 0 setrgbcolor
0 0 0 setrgbcolor
(IC1) 82200 76580 phantomshow
0 0 0 setrgbcolor
newpath
81809.5 76276.4 moveto
81809.5 77026.4 lineto
stroke
newpath
82228.6 76347.9 moveto
82209.5 76312.1 lineto
82152.4 76276.4 lineto
82114.3 76276.4 lineto
82057.1 76312.1 lineto
82019 76383.6 lineto
82000 76455 lineto
81981 76597.9 lineto
81981 76705 lineto
82000 76847.9 lineto
82019 76919.3 lineto
82057.1 76990.7 lineto
82114.3 77026.4 lineto
82152.4 77026.4 lineto
82209.5 76990.7 lineto
82228.6 76955 lineto
stroke
newpath
82609.5 76276.4 moveto
82381 76276.4 lineto
stroke
newpath
82495.2 76276.4 moveto
82495.2 77026.4 lineto
82457.1 76919.3 lineto
82419 76847.9 lineto
82381 76812.1 lineto
stroke
0 0 0 setrgbcolor
0 0 0 setrgbcolor
(PC817) 82200 79580 phantomshow
0 0 0 setrgbcolor
newpath
81433.3 79337.1 moveto
81433.3 79937.1 lineto
81566.7 79937.1 lineto
81600 79908.6 lineto
81616.7 79880 lineto
81633.3 79822.9 lineto
81633.3 79737.1 lineto
81616.7 79680 lineto
81600 79651.4 lineto
81566.7 79622.9 lineto
81433.3 79622.9 lineto
stroke
newpath
81983.3 79394.3 moveto
81966.7 79365.7 lineto
81916.7 79337.1 lineto
81883.3 79337.1 lineto
81833.3 79365.7 lineto
81800 79422.9 lineto
81783.3 79480 lineto
81766.7 79594.3 lineto
81766.7 79680 lineto
81783.3 79794.3 lineto
81800 79851.4 lineto
81833.3 79908.6 lineto
81883.3 79937.1 lineto
81916.7 79937.1 lineto
81966.7 79908.6 lineto
81983.3 79880 lineto
stroke
newpath
82183.3 79680 moveto
82150 79708.6 lineto
82133.3 79737.1 lineto
82116.7 79794.3 lineto
82116.7 79822.9 lineto
82133.3 79880 lineto
82150 79908.6 lineto
82183.3 79937.1 lineto
82250 79937.1 lineto
82283.3 79908.6 lineto
82300 79880 lineto
82316.7 79822.9 lineto
82316.7 79794.3 lineto
82300 79737.1 lineto
82283.3 79708.6 lineto
82250 79680 lineto
82183.3 79680 lineto
82150 79651.4 lineto
82133.3 79622.9 lineto
82116.7 79565.7 lineto
82116.7 79451.4 lineto
82133.3 79394.3 lineto
82150 79365.7 lineto
82183.3 79337.1 lineto
82250 79337.1 lineto
82283.3 79365.7 lineto
82300 79394.3 lineto
82316.7 79451.4 lineto
82316.7 79565.7 lineto
82300 79622.9 lineto
82283.3 79651.4 lineto
82250 79680 lineto
stroke
newpath
82650 79337.1 moveto
82450 79337.1 lineto
stroke
newpath
82550 79337.1 moveto
82550 79937.1 lineto
82516.7 79851.4 lineto
82483.3 79794.3 lineto
82450 79765.7 lineto
stroke
newpath
82766.7 79937.1 moveto
83000 79937.1 lineto
82850 79337.1 lineto
stroke
0 0 0 setrgbcolor
120 setlinewidth
0 0 0 setrgbcolor
(J1) 87700 92330 phantomshow
0 0 0 setrgbcolor
newpath
87500 92687.1 moveto
87500 92258.6 lineto
87471.4 92172.9 lineto
87414.3 92115.7 lineto
87328.6 92087.1 lineto
87271.4 92087.1 lineto
stroke
newpath
88100 92087.1 moveto
87757.1 92087.1 lineto
stroke
newpath
87928.6 92087.1 moveto
87928.6 92687.1 lineto
87871.4 92601.4 lineto
87814.3 92544.3 lineto
87757.1 92515.7 lineto
stroke
0 0 0 setrgbcolor
0 0 0 setrgbcolor
(DB9) 87700 89830 phantomshow
0 0 0 setrgbcolor
newpath
86957.1 89587.1 moveto
86957.1 90187.1 lineto
87100 90187.1 lineto
87185.7 90158.6 lineto
87242.9 90101.4 lineto
87271.4 90044.3 lineto
87300 89930 lineto
87300 89844.3 lineto
87271.4 89730 lineto
87242.9 89672.9 lineto
87185.7 89615.7 lineto
87100 89587.1 lineto
86957.1 89587.1 lineto
stroke
newpath
87757.1 89901.4 moveto
87842.9 89872.9 lineto
87871.4 89844.3 lineto
87900 89787.1 lineto
87900 89701.4 lineto
87871.4 89644.3 lineto
87842.9 89615.7 lineto
87785.7 89587.1 lineto
87557.1 89587.1 lineto
87557.1 90187.1 lineto
87757.1 90187.1 lineto
87814.3 90158.6 lineto
87842.9 90130 lineto
87871.4 90072.9 lineto
87871.4 90015.7 lineto
87842.9 89958.6 lineto
87814.3 89930 lineto
87757.1 89901.4 lineto
87557.1 89901.4 lineto
stroke
newpath
88185.7 89587.1 moveto
88300 89587.1 lineto
88357.1 89615.7 lineto
88385.7 89644.3 lineto
88442.9 89730 lineto
88471.4 89844.3 lineto
88471.4 90072.9 lineto
88442.9 90130 lineto
88414.3 90158.6 lineto
88357.1 90187.1 lineto
88242.9 90187.1 lineto
88185.7 90158.6 lineto
88157.1 90130 lineto
88128.6 90072.9 lineto
88128.6 89930 lineto
88157.1 89872.9 lineto
88185.7 89844.3 lineto
88242.9 89815.7 lineto
88357.1 89815.7 lineto
88414.3 89844.3 lineto
88442.9 89872.9 lineto
88471.4 89930 lineto
stroke
showpage
grestore
%%EOF
