%!PS-Adobe-3.0
%%Creator: PCBNEW
%%CreationDate: Mon Jul  6 11:37:08 2015
%%Title: /home/max/av/!мое/паяние/kicad/телеграф модульный/модуль сом-порта/com-port-module-F_Cu.ps
%%Pages: 1
%%PageOrder: Ascend
%%BoundingBox: 0 0 842 1191
%%DocumentMedia: A3 842 1191 0 () ()
%%Orientation: Landscape
%%EndComments
%%BeginProlog
/line { newpath moveto lineto stroke } bind def
/cir0 { newpath 0 360 arc stroke } bind def
/cir1 { newpath 0 360 arc gsave fill grestore stroke } bind def
/cir2 { newpath 0 360 arc gsave fill grestore stroke } bind def
/arc0 { newpath arc stroke } bind def
/arc1 { newpath 4 index 4 index moveto arc closepath gsave fill
    grestore stroke } bind def
/arc2 { newpath 4 index 4 index moveto arc closepath gsave fill
    grestore stroke } bind def
/poly0 { stroke } bind def
/poly1 { closepath gsave fill grestore stroke } bind def
/poly2 { closepath gsave fill grestore stroke } bind def
/rect0 { rectstroke } bind def
/rect1 { rectfill } bind def
/rect2 { rectfill } bind def
/linemode0 { 0 setlinecap 0 setlinejoin 0 setlinewidth } bind def
/linemode1 { 1 setlinecap 1 setlinejoin } bind def
/dashedline { [200] 100 setdash } bind def
/solidline { [] 0 setdash } bind def
/phantomshow { moveto
    /KicadFont findfont 0.000001 scalefont setfont
    show } bind def
/textshow { gsave
    findfont exch scalefont setfont concat 1 scale 0 0 moveto show
    } bind def
/reencodefont {
  findfont dup length dict begin
  { 1 index /FID ne
    { def }
    { pop pop } ifelse
  } forall
  /Encoding ISOLatin1Encoding def
  currentdict
  end } bind def
/KicadFont /Helvetica reencodefont definefont pop
/KicadFont-Bold /Helvetica-Bold reencodefont definefont pop
/KicadFont-Oblique /Helvetica-Oblique reencodefont definefont pop
/KicadFont-BoldOblique /Helvetica-BoldOblique reencodefont definefont pop
%%EndProlog
%%Page: 1 1
%%BeginPageSetup
gsave
0.0072 0.0072 scale
linemode1
116930 0 translate 90 rotate
59.0551 setlinewidth
%%EndPageSetup
0 0 0 setrgbcolor
0 0 0 setrgbcolor
59.0551 setlinewidth
newpath
80945.5 75084.5 moveto
80454.5 75084.5 lineto
80454.5 75575.5 lineto
80945.5 75575.5 lineto
80945.5 75084.5 lineto
poly1
0 0 0 setrgbcolor
80700 74330 245.472 cir1
0 0 0 setrgbcolor
81700 74330 245.472 cir1
0 0 0 setrgbcolor
newpath
87704.5 75584.5 moveto
87704.5 76075.5 lineto
88195.5 76075.5 lineto
88195.5 75584.5 lineto
87704.5 75584.5 lineto
poly1
0 0 0 setrgbcolor
86950 75830 245.472 cir1
0 0 0 setrgbcolor
86950 74830 245.472 cir1
0 0 0 setrgbcolor
newpath
89695.5 76075.5 moveto
89695.5 75584.5 lineto
89204.5 75584.5 lineto
89204.5 76075.5 lineto
89695.5 76075.5 lineto
poly1
0 0 0 setrgbcolor
90450 75830 245.472 cir1
0 0 0 setrgbcolor
90450 76830 245.472 cir1
0 0 0 setrgbcolor
82200 75330 245.472 cir1
0 0 0 setrgbcolor
85200 75330 245.472 cir1
0 0 0 setrgbcolor
80700 79580 245.472 cir1
0 0 0 setrgbcolor
83700 79580 245.472 cir1
0 0 0 setrgbcolor
80700 83330 245.472 cir1
0 0 0 setrgbcolor
80700 86330 245.472 cir1
0 0 0 setrgbcolor
83700 83330 245.472 cir1
0 0 0 setrgbcolor
83700 86330 245.472 cir1
0 0 0 setrgbcolor
85200 83330 245.472 cir1
0 0 0 setrgbcolor
85200 86330 245.472 cir1
0 0 0 setrgbcolor
88200 83330 245.472 cir1
0 0 0 setrgbcolor
88200 86330 245.472 cir1
0 0 0 setrgbcolor
82950 73580 245.472 cir1
0 0 0 setrgbcolor
85950 73580 245.472 cir1
0 0 0 setrgbcolor
92700 73830 245.472 cir1
0 0 0 setrgbcolor
92700 76830 245.472 cir1
0 0 0 setrgbcolor
89700 73130 245.472 cir1
0 0 0 setrgbcolor
86700 73130 245.472 cir1
0 0 0 setrgbcolor
87700 77580 245.472 cir1
0 0 0 setrgbcolor
84700 77580 245.472 cir1
0 0 0 setrgbcolor
83700 71580 245.472 cir1
0 0 0 setrgbcolor
80700 71580 245.472 cir1
0 0 0 setrgbcolor
newpath
88970.5 72350.5 moveto
88970.5 71809.5 lineto
88429.5 71809.5 lineto
88429.5 72350.5 lineto
88970.5 72350.5 lineto
poly1
0 0 0 setrgbcolor
87700 72080 270.472 cir1
0 0 0 setrgbcolor
86700 72080 270.472 cir1
0 0 0 setrgbcolor
85700 72080 270.472 cir1
0 0 0 setrgbcolor
newpath
91454.5 78584.5 moveto
91454.5 79075.5 lineto
91945.5 79075.5 lineto
91945.5 78584.5 lineto
91454.5 78584.5 lineto
poly1
0 0 0 setrgbcolor
92700 78830 245.472 cir1
0 0 0 setrgbcolor
92700 81830 245.472 cir1
0 0 0 setrgbcolor
91700 81830 245.472 cir1
0 0 0 setrgbcolor
newpath
85454.5 78584.5 moveto
85454.5 79075.5 lineto
85945.5 79075.5 lineto
85945.5 78584.5 lineto
85454.5 78584.5 lineto
poly1
0 0 0 setrgbcolor
86700 78830 245.472 cir1
0 0 0 setrgbcolor
86700 81830 245.472 cir1
0 0 0 setrgbcolor
85700 81830 245.472 cir1
0 0 0 setrgbcolor
newpath
88454.5 78584.5 moveto
88454.5 79075.5 lineto
88945.5 79075.5 lineto
88945.5 78584.5 lineto
88454.5 78584.5 lineto
poly1
0 0 0 setrgbcolor
89700 78830 245.472 cir1
0 0 0 setrgbcolor
89700 81830 245.472 cir1
0 0 0 setrgbcolor
88700 81830 245.472 cir1
0 0 0 setrgbcolor
newpath
80454.5 82075.5 moveto
80945.5 82075.5 lineto
80945.5 81584.5 lineto
80454.5 81584.5 lineto
80454.5 82075.5 lineto
poly1
0 0 0 setrgbcolor
80700 80830 245.472 cir1
0 0 0 setrgbcolor
83700 80830 245.472 cir1
0 0 0 setrgbcolor
83700 81830 245.472 cir1
0 0 0 setrgbcolor
newpath
83945.5 77334.5 moveto
83454.5 77334.5 lineto
83454.5 77825.5 lineto
83945.5 77825.5 lineto
83945.5 77334.5 lineto
poly1
0 0 0 setrgbcolor
83700 78580 245.472 cir1
0 0 0 setrgbcolor
80700 78580 245.472 cir1
0 0 0 setrgbcolor
80700 77580 245.472 cir1
0 0 0 setrgbcolor
92250 88830 720.472 cir1
0 0 0 setrgbcolor
82250 88830 720.472 cir1
0 0 0 setrgbcolor
newpath
89129.5 87559.5 moveto
89129.5 88100.5 lineto
89670.5 88100.5 lineto
89670.5 87559.5 lineto
89129.5 87559.5 lineto
poly1
0 0 0 setrgbcolor
88300 87830 270.472 cir1
0 0 0 setrgbcolor
87200 87830 270.472 cir1
0 0 0 setrgbcolor
86150 87830 270.472 cir1
0 0 0 setrgbcolor
85050 87830 270.472 cir1
0 0 0 setrgbcolor
85600 88830 270.472 cir1
0 0 0 setrgbcolor
86700 88830 270.472 cir1
0 0 0 setrgbcolor
87750 88830 270.472 cir1
0 0 0 setrgbcolor
88850 88830 270.472 cir1
showpage
grestore
%%EOF
