PCBNEW-BOARD Version 1 date Пнд 16 Фев 2015 11:57:43

# Created by Pcbnew(2012-apr-16-27)-stable

$GENERAL
encoding utf-8
LayerCount 2
Ly 1FFF8001
EnabledLayers 1FFF8001
Links 25
NoConn 0
Di 53300 35300 77201 47201
Ndraw 0
Ntrack 79
Nzone 0
BoardThickness 630
Nmodule 12
Nnets 14
$EndGENERAL

$SHEETDESCR
Sheet A4 11700 8267
Title ""
Date "16 feb 2015"
Rev ""
Comp ""
Comment1 ""
Comment2 ""
Comment3 ""
Comment4 ""
$EndSHEETDESCR

$SETUP
InternalUnit 0.000100 INCH
Layers 2
Layer[0] Back signal
Layer[15] Front signal
TrackWidth 400
TrackClearence 100
ZoneClearence 200
TrackMinWidth 80
DrawSegmWidth 150
EdgeSegmWidth 150
ViaSize 350
ViaDrill 250
ViaMinSize 350
ViaMinDrill 200
MicroViaSize 200
MicroViaDrill 50
MicroViasAllowed 0
MicroViaMinSize 200
MicroViaMinDrill 50
TextPcbWidth 120
TextPcbSize 600 800
EdgeModWidth 150
TextModSize 600 600
TextModWidth 120
PadSize 550 550
PadDrill 320
Pad2MaskClearance 100
AuxiliaryAxisOrg 0 0
PcbPlotParams (pcbplotparams (layerselection 1) (usegerberextensions true) (excludeedgelayer false) (linewidth 60) (plotframeref false) (viasonmask false) (mode 1) (useauxorigin false) (hpglpennumber 1) (hpglpenspeed 20) (hpglpendiameter 15) (hpglpenoverlay 2) (pscolor true) (psnegative false) (psa4output false) (plotreference true) (plotvalue true) (plotothertext true) (plotinvisibletext false) (padsonsilk false) (subtractmaskfromsilk false) (outputformat 2) (mirror false) (drillshape 1) (scaleselection 1) (outputdirectory ""))
$EndSETUP

$EQUIPOT
Na 0 ""
St ~
$EndEQUIPOT
$EQUIPOT
Na 1 "+12V"
St ~
$EndEQUIPOT
$EQUIPOT
Na 2 "GND"
St ~
$EndEQUIPOT
$EQUIPOT
Na 3 "N-000001"
St ~
$EndEQUIPOT
$EQUIPOT
Na 4 "N-000004"
St ~
$EndEQUIPOT
$EQUIPOT
Na 5 "N-000005"
St ~
$EndEQUIPOT
$EQUIPOT
Na 6 "N-000006"
St ~
$EndEQUIPOT
$EQUIPOT
Na 7 "N-000007"
St ~
$EndEQUIPOT
$EQUIPOT
Na 8 "N-000008"
St ~
$EndEQUIPOT
$EQUIPOT
Na 9 "N-000009"
St ~
$EndEQUIPOT
$EQUIPOT
Na 10 "N-000010"
St ~
$EndEQUIPOT
$EQUIPOT
Na 11 "N-000011"
St ~
$EndEQUIPOT
$EQUIPOT
Na 12 "N-000012"
St ~
$EndEQUIPOT
$EQUIPOT
Na 13 "N-000013"
St ~
$EndEQUIPOT
$NCLASS
Name "Default"
Desc "Это класс цепей по умолчанию."
Clearance 100
TrackWidth 400
ViaDia 350
ViaDrill 250
uViaDia 200
uViaDrill 50
AddNet ""
AddNet "+12V"
AddNet "GND"
AddNet "N-000001"
AddNet "N-000004"
AddNet "N-000005"
AddNet "N-000006"
AddNet "N-000007"
AddNet "N-000008"
AddNet "N-000009"
AddNet "N-000010"
AddNet "N-000011"
AddNet "N-000012"
AddNet "N-000013"
$EndNCLASS
$MODULE TO92
Po 70500 38500 0 15 443CFFD1 54DC6CF8 ~~
Li TO92
Cd Transistor TO92 brochage type BC237
Kw TR TO92
Sc 54DC6CF8
AR /54DC658F
Op 0 0 0
T0 -500 1500 400 400 0 80 N V 21 N "Q1"
T1 -500 -2000 400 400 0 80 N V 21 N "NPN"
DS -500 1000 1000 -500 120 21
DS 1000 -500 1000 -1000 120 21
DS 1000 -1000 500 -1500 120 21
DS 500 -1500 -500 -1500 120 21
DS -500 -1500 -1500 -500 120 21
DS -1500 -500 -1500 500 120 21
DS -1500 500 -1000 1000 120 21
DS -1000 1000 -500 1000 120 21
$PAD
Sh "1" R 550 550 0 0 0
Dr 320 0 0
At STD N 00E0FFFF
Ne 12 "N-000012"
Po 500 -500
$EndPAD
$PAD
Sh "2" C 550 550 0 0 0
Dr 320 0 0
At STD N 00E0FFFF
Ne 11 "N-000011"
Po -500 -500
$EndPAD
$PAD
Sh "3" C 550 550 0 0 0
Dr 320 0 0
At STD N 00E0FFFF
Ne 1 "+12V"
Po -500 500
$EndPAD
$SHAPE3D
Na "discret/to98.wrl"
Sc 1.000000 1.000000 1.000000
Of 0.000000 0.000000 0.000000
Ro 0.000000 0.000000 0.000000
$EndSHAPE3D
$EndMODULE  TO92
$MODULE R7
Po 58500 38000 1800 15 00200000 54DC6CF9 ~~
Li R7
Cd Resitance 7 pas
Kw R
Sc 54DC6CF9
AR /54DC5B24
Op 0 A 0
T0 900 400 550 500 1800 80 N V 21 N "R1"
T1 -900 -500 550 500 1800 80 N V 21 N "3000"
DS -3500 0 -3500 0 120 21
DS -3500 0 -3500 0 120 21
DS 2750 0 3500 0 120 21
DS 3500 0 3500 0 120 21
DS 2750 1000 -2750 1000 120 21
DS -2750 -1000 2750 -1000 120 21
DS -2750 -500 -2250 -1000 120 21
DS 2750 -1000 2750 1000 120 21
DS -2750 -1000 -2750 1000 120 21
DS -3500 0 -2750 0 120 21
$PAD
Sh "1" C 700 700 0 0 1800
Dr 500 0 0
At STD N 00E0FFFF
Ne 10 "N-000010"
Po -3500 0
$EndPAD
$PAD
Sh "2" C 700 700 0 0 1800
Dr 500 0 0
At STD N 00E0FFFF
Ne 4 "N-000004"
Po 3500 0
$EndPAD
$SHAPE3D
Na "discret/resistor.wrl"
Sc 0.700000 0.700000 0.700000
Of 0.000000 0.000000 0.000000
Ro 0.000000 0.000000 0.000000
$EndSHAPE3D
$EndMODULE  R7
$MODULE R7
Po 58500 42000 1800 15 00200000 54DC6CFB ~~
Li R7
Cd Resitance 7 pas
Kw R
Sc 54DC6CFB
AR /54DC583F
Op 0 A 0
T0 900 400 550 500 1800 80 N V 21 N "R2"
T1 -900 -500 550 500 1800 80 N V 21 N "2500"
DS -3500 0 -3500 0 120 21
DS -3500 0 -3500 0 120 21
DS 2750 0 3500 0 120 21
DS 3500 0 3500 0 120 21
DS 2750 1000 -2750 1000 120 21
DS -2750 -1000 2750 -1000 120 21
DS -2750 -500 -2250 -1000 120 21
DS 2750 -1000 2750 1000 120 21
DS -2750 -1000 -2750 1000 120 21
DS -3500 0 -2750 0 120 21
$PAD
Sh "1" C 700 700 0 0 1800
Dr 500 0 0
At STD N 00E0FFFF
Ne 7 "N-000007"
Po -3500 0
$EndPAD
$PAD
Sh "2" C 700 700 0 0 1800
Dr 500 0 0
At STD N 00E0FFFF
Ne 6 "N-000006"
Po 3500 0
$EndPAD
$SHAPE3D
Na "discret/resistor.wrl"
Sc 0.700000 0.700000 0.700000
Of 0.000000 0.000000 0.000000
Ro 0.000000 0.000000 0.000000
$EndSHAPE3D
$EndMODULE  R7
$MODULE R4
Po 70000 42000 0 15 00200000 54DC6CFC ~~
Li R4
Cd Resitance 4 pas
Kw R
Sc 54DC6CFC
AR /54DC5E8E
Op 0 A 0
T0 0 0 550 500 0 80 N V 21 N "R3"
T1 0 0 550 500 0 80 N I 21 N "300"
DS -2000 0 -1600 0 120 21
DS -1600 0 -1600 -400 120 21
DS -1600 -400 1600 -400 120 21
DS 1600 -400 1600 400 120 21
DS 1600 400 -1600 400 120 21
DS -1600 400 -1600 0 120 21
DS -1600 -200 -1400 -400 120 21
DS 2000 0 1600 0 120 21
$PAD
Sh "1" C 600 600 0 0 0
Dr 320 0 0
At STD N 00E0FFFF
Ne 9 "N-000009"
Po -2000 0
$EndPAD
$PAD
Sh "2" C 600 600 0 0 0
Dr 320 0 0
At STD N 00E0FFFF
Ne 1 "+12V"
Po 2000 0
$EndPAD
$SHAPE3D
Na "discret/resistor.wrl"
Sc 0.400000 0.400000 0.400000
Of 0.000000 0.000000 0.000000
Ro 0.000000 0.000000 0.000000
$EndSHAPE3D
$EndMODULE  R4
$MODULE R4
Po 64500 40500 0 15 00200000 54DC6CFE ~~
Li R4
Cd Resitance 4 pas
Kw R
Sc 54DC6CFE
AR /54DC5B60
Op 0 A 0
T0 0 0 550 500 0 80 N V 21 N "R4"
T1 0 0 550 500 0 80 N I 21 N "1k"
DS -2000 0 -1600 0 120 21
DS -1600 0 -1600 -400 120 21
DS -1600 -400 1600 -400 120 21
DS 1600 -400 1600 400 120 21
DS 1600 400 -1600 400 120 21
DS -1600 400 -1600 0 120 21
DS -1600 -200 -1400 -400 120 21
DS 2000 0 1600 0 120 21
$PAD
Sh "1" C 600 600 0 0 0
Dr 320 0 0
At STD N 00E0FFFF
Ne 12 "N-000012"
Po -2000 0
$EndPAD
$PAD
Sh "2" C 600 600 0 0 0
Dr 320 0 0
At STD N 00E0FFFF
Ne 2 "GND"
Po 2000 0
$EndPAD
$SHAPE3D
Na "discret/resistor.wrl"
Sc 0.400000 0.400000 0.400000
Of 0.000000 0.000000 0.000000
Ro 0.000000 0.000000 0.000000
$EndSHAPE3D
$EndMODULE  R4
$MODULE PIN_ARRAY_4x1
Po 58500 44500 1800 15 4C10F42E 54DC6CFF ~~
Li PIN_ARRAY_4x1
Cd Double rangee de contacts 2 x 5 pins
Kw CONN
Sc 54DC6CFF
AR /54DC578D
Op 0 0 0
T0 0 -1000 400 400 1800 80 N V 21 N "P1"
T1 0 1000 400 400 1800 80 N I 21 N "CONN_4"
DS 2000 500 -2000 500 100 21
DS 2000 -500 -2000 -500 100 21
DS -2000 -500 -2000 500 100 21
DS 2000 500 2000 -500 100 21
$PAD
Sh "1" R 600 600 0 0 1800
Dr 400 0 0
At STD N 00E0FFFF
Ne 4 "N-000004"
Po -1500 0
$EndPAD
$PAD
Sh "2" C 600 600 0 0 1800
Dr 400 0 0
At STD N 00E0FFFF
Ne 5 "N-000005"
Po -500 0
$EndPAD
$PAD
Sh "3" C 600 600 0 0 1800
Dr 400 0 0
At STD N 00E0FFFF
Ne 8 "N-000008"
Po 500 0
$EndPAD
$PAD
Sh "4" C 600 600 0 0 1800
Dr 400 0 0
At STD N 00E0FFFF
Ne 6 "N-000006"
Po 1500 0
$EndPAD
$SHAPE3D
Na "pin_array\\pins_array_4x1.wrl"
Sc 1.000000 1.000000 1.000000
Of 0.000000 0.000000 0.000000
Ro 0.000000 0.000000 0.000000
$EndSHAPE3D
$EndMODULE  PIN_ARRAY_4x1
$MODULE R4
Po 68000 38500 900 15 00200000 54DC7948 ~~
Li R4
Cd Resitance 4 pas
Kw R
Sc 54DC7948
AR /54DC71C1
Op 0 A 0
T0 0 0 550 500 900 80 N V 21 N "R5"
T1 0 0 550 500 900 80 N I 21 N "1k"
DS -2000 0 -1600 0 120 21
DS -1600 0 -1600 -400 120 21
DS -1600 -400 1600 -400 120 21
DS 1600 -400 1600 400 120 21
DS 1600 400 -1600 400 120 21
DS -1600 400 -1600 0 120 21
DS -1600 -200 -1400 -400 120 21
DS 2000 0 1600 0 120 21
$PAD
Sh "1" C 600 600 0 0 900
Dr 320 0 0
At STD N 00E0FFFF
Ne 1 "+12V"
Po -2000 0
$EndPAD
$PAD
Sh "2" C 600 600 0 0 900
Dr 320 0 0
At STD N 00E0FFFF
Ne 11 "N-000011"
Po 2000 0
$EndPAD
$SHAPE3D
Na "discret/resistor.wrl"
Sc 0.400000 0.400000 0.400000
Of 0.000000 0.000000 0.000000
Ro 0.000000 0.000000 0.000000
$EndSHAPE3D
$EndMODULE  R4
$MODULE TO92
Po 67500 44500 1800 15 443CFFD1 54E173A2 ~~
Li TO92
Cd Transistor TO92 brochage type BC237
Kw TR TO92
Sc 54E173A2
AR /54E16C8A
Op 0 0 0
T0 -500 1500 400 400 1800 80 N V 21 N "Q2"
T1 -500 -2000 400 400 1800 80 N V 21 N "NPN"
DS -500 1000 1000 -500 120 21
DS 1000 -500 1000 -1000 120 21
DS 1000 -1000 500 -1500 120 21
DS 500 -1500 -500 -1500 120 21
DS -500 -1500 -1500 -500 120 21
DS -1500 -500 -1500 500 120 21
DS -1500 500 -1000 1000 120 21
DS -1000 1000 -500 1000 120 21
$PAD
Sh "1" R 550 550 0 0 1800
Dr 320 0 0
At STD N 00E0FFFF
Ne 2 "GND"
Po 500 -500
$EndPAD
$PAD
Sh "2" C 550 550 0 0 1800
Dr 320 0 0
At STD N 00E0FFFF
Ne 3 "N-000001"
Po -500 -500
$EndPAD
$PAD
Sh "3" C 550 550 0 0 1800
Dr 320 0 0
At STD N 00E0FFFF
Ne 9 "N-000009"
Po -500 500
$EndPAD
$SHAPE3D
Na "discret/to98.wrl"
Sc 1.000000 1.000000 1.000000
Of 0.000000 0.000000 0.000000
Ro 0.000000 0.000000 0.000000
$EndSHAPE3D
$EndMODULE  TO92
$MODULE R4
Po 72000 40500 1800 15 00200000 54E173A3 ~~
Li R4
Cd Resitance 4 pas
Kw R
Sc 54E173A3
AR /54E16CB7
Op 0 A 0
T0 0 0 550 500 1800 80 N V 21 N "R6"
T1 0 0 550 500 1800 80 N I 21 N "1k"
DS -2000 0 -1600 0 120 21
DS -1600 0 -1600 -400 120 21
DS -1600 -400 1600 -400 120 21
DS 1600 -400 1600 400 120 21
DS 1600 400 -1600 400 120 21
DS -1600 400 -1600 0 120 21
DS -1600 -200 -1400 -400 120 21
DS 2000 0 1600 0 120 21
$PAD
Sh "1" C 600 600 0 0 1800
Dr 320 0 0
At STD N 00E0FFFF
Ne 13 "N-000013"
Po -2000 0
$EndPAD
$PAD
Sh "2" C 600 600 0 0 1800
Dr 320 0 0
At STD N 00E0FFFF
Ne 3 "N-000001"
Po 2000 0
$EndPAD
$SHAPE3D
Na "discret/resistor.wrl"
Sc 0.400000 0.400000 0.400000
Of 0.000000 0.000000 0.000000
Ro 0.000000 0.000000 0.000000
$EndSHAPE3D
$EndMODULE  R4
$MODULE pin_array_4x2
Po 73500 44500 0 15 3FAB90E6 54E173EA ~~
Li pin_array_4x2
Cd Double rangee de contacts 2 x 4 pins
Kw CONN
Sc 54E173EA
AR /54E16BFE
Op 0 0 0
T0 0 -1500 400 400 0 80 N V 21 N "P2"
T1 0 1500 400 400 0 80 N I 21 N "CONN_4X2"
DS -2000 -1000 2000 -1000 120 21
DS 2000 -1000 2000 1000 120 21
DS 2000 1000 -2000 1000 120 21
DS -2000 1000 -2000 -1000 120 21
$PAD
Sh "1" R 600 600 0 0 0
Dr 400 0 0
At STD N 00E0FFFF
Ne 1 "+12V"
Po -1500 500
$EndPAD
$PAD
Sh "2" C 600 600 0 0 0
Dr 400 0 0
At STD N 00E0FFFF
Ne 1 "+12V"
Po -1500 -500
$EndPAD
$PAD
Sh "3" C 600 600 0 0 0
Dr 400 0 0
At STD N 00E0FFFF
Ne 2 "GND"
Po -500 500
$EndPAD
$PAD
Sh "4" C 600 600 0 0 0
Dr 400 0 0
At STD N 00E0FFFF
Ne 2 "GND"
Po -500 -500
$EndPAD
$PAD
Sh "5" C 600 600 0 0 0
Dr 400 0 0
At STD N 00E0FFFF
Ne 13 "N-000013"
Po 500 500
$EndPAD
$PAD
Sh "6" C 600 600 0 0 0
Dr 400 0 0
At STD N 00E0FFFF
Ne 13 "N-000013"
Po 500 -500
$EndPAD
$PAD
Sh "7" C 600 600 0 0 0
Dr 400 0 0
At STD N 00E0FFFF
Ne 12 "N-000012"
Po 1500 500
$EndPAD
$PAD
Sh "8" C 600 600 0 0 0
Dr 400 0 0
At STD N 00E0FFFF
Ne 12 "N-000012"
Po 1500 -500
$EndPAD
$SHAPE3D
Na "pin_array/pins_array_4x2.wrl"
Sc 1.000000 1.000000 1.000000
Of 0.000000 0.000000 0.000000
Ro 0.000000 0.000000 0.000000
$EndSHAPE3D
$EndMODULE  pin_array_4x2
$MODULE DIP-4
Po 65000 42000 900 15 54DC77CB 54E17894 ~~
Li DIP-4
Cd 4 pins
Kw DIP
Sc 54E17894
AR /54DC5B17
Op 0 0 0
T0 -2000 0 750 400 1800 80 N V 21 N "U1"
T1 1000 0 600 350 1800 80 N V 21 N "OPTO-TRANSISTOR4"
DS -1000 -1000 -1000 1000 150 21
DS -1000 1000 0 1000 150 21
DS 0 1000 0 -1000 150 21
DS 0 -1000 -1000 -1000 150 21
$PAD
Sh "1" R 550 550 0 0 900
Dr 320 0 0
At STD N 00E0FFFF
Ne 9 "N-000009"
Po -1000 1500
$EndPAD
$PAD
Sh "2" C 550 550 0 0 900
Dr 320 0 0
At STD N 00E0FFFF
Ne 2 "GND"
Po 0 1500
$EndPAD
$PAD
Sh "3" C 550 550 0 0 900
Dr 320 0 0
At STD N 00E0FFFF
Ne 8 "N-000008"
Po 0 -1500
$EndPAD
$PAD
Sh "4" C 550 550 0 0 900
Dr 320 0 0
At STD N 00E0FFFF
Ne 7 "N-000007"
Po -1000 -1500
$EndPAD
$SHAPE3D
Na "dil/dil_6.wrl"
Sc 1.000000 1.000000 1.000000
Of 0.000000 0.000000 0.000000
Ro 0.000000 0.000000 0.000000
$EndSHAPE3D
$EndMODULE  DIP-4
$MODULE DIP-4
Po 65000 39000 2700 15 54DC77CB 54E17896 ~~
Li DIP-4
Cd 4 pins
Kw DIP
Sc 54E17896
AR /54DC5866
Op 0 0 0
T0 -2000 0 750 400 3600 80 N V 21 N "U2"
T1 1000 0 600 350 3600 80 N V 21 N "OPTO-TRANSISTOR4"
DS -1000 -1000 -1000 1000 150 21
DS -1000 1000 0 1000 150 21
DS 0 1000 0 -1000 150 21
DS 0 -1000 -1000 -1000 150 21
$PAD
Sh "1" R 550 550 0 0 2700
Dr 320 0 0
At STD N 00E0FFFF
Ne 10 "N-000010"
Po -1000 1500
$EndPAD
$PAD
Sh "2" C 550 550 0 0 2700
Dr 320 0 0
At STD N 00E0FFFF
Ne 5 "N-000005"
Po 0 1500
$EndPAD
$PAD
Sh "3" C 550 550 0 0 2700
Dr 320 0 0
At STD N 00E0FFFF
Ne 2 "GND"
Po 0 -1500
$EndPAD
$PAD
Sh "4" C 550 550 0 0 2700
Dr 320 0 0
At STD N 00E0FFFF
Ne 11 "N-000011"
Po -1000 -1500
$EndPAD
$SHAPE3D
Na "dil/dil_6.wrl"
Sc 1.000000 1.000000 1.000000
Of 0.000000 0.000000 0.000000
Ro 0.000000 0.000000 0.000000
$EndSHAPE3D
$EndMODULE  DIP-4
$TRACK
Po 0 69500 39000 68000 40500 400 -1
De 0 0 1 0 800000
Po 0 72000 44000 72000 45000 400 -1
De 0 0 1 0 C00000
Po 0 72000 44000 72000 42000 400 -1
De 0 0 1 0 C00000
Po 0 72000 42000 72000 41000 400 -1
De 0 0 1 0 400000
Po 0 72000 41000 70000 39000 400 -1
De 0 0 1 0 800000
Po 0 70000 39000 69500 39000 400 -1
De 0 0 1 0 400000
Po 0 66000 42000 66500 42000 400 -1
De 0 0 2 0 800000
Po 0 66500 45000 65500 44000 400 -1
De 0 0 2 0 0
Po 0 65500 44000 65500 42500 400 -1
De 0 0 2 0 0
Po 0 65500 42500 66000 42000 400 -1
De 0 0 2 0 0
Po 0 73000 44000 73000 45000 400 -1
De 0 0 2 0 C00000
Po 0 67000 45000 66500 45000 400 -1
De 0 0 2 0 400000
Po 0 66500 40500 66500 39000 400 -1
De 0 0 2 0 C00000
Po 0 66500 42000 66500 40500 400 -1
De 0 0 2 0 C00000
Po 0 73000 45500 71500 47000 400 -1
De 0 0 2 0 0
Po 0 71500 47000 68000 47000 400 -1
De 0 0 2 0 0
Po 0 67000 46000 67000 45000 400 -1
De 0 0 2 0 800000
Po 0 73000 45000 73000 45500 400 -1
De 0 0 2 0 400000
Po 0 77000 47000 71500 47000 400 -1
De 0 0 2 0 0
Po 0 68000 47000 67000 46000 400 -1
De 0 0 2 0 0
Po 0 53500 47000 53500 40000 400 -1
De 0 0 2 0 0
Po 0 68000 47000 53500 47000 400 -1
De 0 0 2 0 0
Po 0 77000 47000 77000 35500 400 -1
De 0 0 2 0 0
Po 0 71000 35500 77000 35500 400 -1
De 0 0 2 0 0
Po 0 68000 45000 68500 45000 400 -1
De 0 0 3 0 400000
Po 0 70000 43500 70000 40500 400 -1
De 0 0 3 0 800000
Po 0 68500 45000 70000 43500 400 -1
De 0 0 3 0 0
Po 0 60000 44500 60000 40500 400 -1
De 0 0 4 0 400000
Po 0 57500 38000 55000 38000 400 -1
De 0 0 4 0 800000
Po 0 60000 40500 57500 38000 400 -1
De 0 0 4 0 0
Po 0 59000 44500 59000 42000 400 -1
De 0 0 5 0 400000
Po 0 59000 42000 57000 40000 400 -1
De 0 0 5 0 0
Po 0 57000 40000 55000 40000 400 -1
De 0 0 5 0 0
Po 0 55000 40000 53500 38500 400 -1
De 0 0 5 0 0
Po 0 53500 38500 53500 37500 400 -1
De 0 0 5 0 0
Po 0 53500 37500 54500 36500 400 -1
De 0 0 5 0 0
Po 0 54500 36500 58500 36500 400 -1
De 0 0 5 0 0
Po 0 58500 36500 61000 39000 400 -1
De 0 0 5 0 0
Po 0 61000 39000 63500 39000 400 -1
De 0 0 5 0 800000
Po 0 56000 44500 55000 43500 400 -1
De 0 0 6 0 0
Po 0 57000 44500 56000 44500 400 -1
De 0 0 6 0 400000
Po 0 55000 43500 55000 42000 400 -1
De 0 0 6 0 800000
Po 0 62000 42000 62000 42500 400 -1
De 0 0 7 0 400000
Po 0 62500 43000 63500 43000 400 -1
De 0 0 7 0 800000
Po 0 62000 42500 62500 43000 400 -1
De 0 0 7 0 0
Po 0 64000 42000 64500 42500 400 -1
De 0 0 8 0 0
Po 0 64500 42500 64500 44500 400 -1
De 0 0 8 0 0
Po 0 64500 44500 63500 45500 400 -1
De 0 0 8 0 0
Po 0 63500 45500 58500 45500 400 -1
De 0 0 8 0 0
Po 0 58500 45500 58000 45000 400 -1
De 0 0 8 0 0
Po 0 58000 45000 58000 44500 400 -1
De 0 0 8 0 800000
Po 0 63500 42000 64000 42000 400 -1
De 0 0 8 0 400000
Po 0 68000 43000 68000 42000 400 -1
De 0 0 9 0 800000
Po 0 66500 43000 68000 43000 400 -1
De 0 0 9 0 400000
Po 0 68000 44000 68000 43000 400 -1
De 0 0 9 0 400000
Po 0 62000 38000 63500 38000 400 -1
De 0 0 10 0 C00000
Po 0 68000 36500 68000 38000 400 -1
De 0 0 11 0 400000
Po 0 70000 38000 68000 38000 400 -1
De 0 0 11 0 400000
Po 0 68000 38000 66500 38000 400 -1
De 0 0 11 0 800000
Po 0 62500 40500 65000 40500 400 -1
De 0 0 12 0 400000
Po 0 69500 35500 71000 37000 400 -1
De 0 0 12 0 0
Po 0 75000 44000 75000 42500 400 -1
De 0 0 12 0 400000
Po 0 65000 40500 65500 40000 400 -1
De 0 0 12 0 0
Po 0 65500 36500 66500 35500 400 -1
De 0 0 12 0 0
Po 0 73000 42500 73000 40000 400 -1
De 0 0 12 0 0
Po 0 66500 35500 53500 35500 400 -1
De 0 0 12 0 0
Po 0 66500 35500 69500 35500 400 -1
De 0 0 12 0 0
Po 0 65500 40000 65500 36500 400 -1
De 0 0 12 0 0
Po 0 73000 40000 71000 38000 400 -1
De 0 0 12 0 800000
Po 0 75000 44000 75000 45000 400 -1
De 0 0 12 0 C00000
Po 0 53500 35500 53500 36000 400 -1
De 0 0 12 0 0
Po 0 71000 37000 71000 38000 400 -1
De 0 0 12 0 800000
Po 0 75000 42500 73000 42500 400 -1
De 0 0 12 0 0
Po 0 74000 40500 74500 40500 400 -1
De 0 0 13 0 400000
Po 0 74000 46000 74000 45000 400 -1
De 0 0 13 0 800000
Po 0 76000 46000 74000 46000 400 -1
De 0 0 13 0 0
Po 0 76000 42000 76000 46000 400 -1
De 0 0 13 0 0
Po 0 74500 40500 76000 42000 400 -1
De 0 0 13 0 0
Po 0 74000 44000 74000 45000 400 -1
De 0 0 13 0 C00000
$EndTRACK
$ZONE
$EndZONE
$EndBOARD
