EESchema Schematic File Version 2  date Пнд 16 Фев 2015 18:46:01
LIBS:power
LIBS:device
LIBS:transistors
LIBS:conn
LIBS:linear
LIBS:regul
LIBS:74xx
LIBS:cmos4000
LIBS:adc-dac
LIBS:memory
LIBS:xilinx
LIBS:special
LIBS:microcontrollers
LIBS:dsp
LIBS:microchip
LIBS:analog_switches
LIBS:motorola
LIBS:texas
LIBS:intel
LIBS:audio
LIBS:interface
LIBS:digital-audio
LIBS:philips
LIBS:display
LIBS:cypress
LIBS:siliconi
LIBS:opto
LIBS:atmel
LIBS:contrib
LIBS:valves
EELAYER 43  0
EELAYER END
$Descr A4 11700 8267
encoding utf-8
Sheet 1 1
Title ""
Date "16 feb 2015"
Rev ""
Comp ""
Comment1 ""
Comment2 ""
Comment3 ""
Comment4 ""
$EndDescr
Wire Wire Line
	1900 3700 1900 3600
Wire Wire Line
	3200 2900 3200 3000
Wire Wire Line
	3500 4800 3500 4900
Wire Wire Line
	6850 3900 5700 3900
Wire Wire Line
	5700 3900 5700 5600
Wire Wire Line
	5700 5600 5500 5600
Wire Wire Line
	6850 3700 5500 3700
Wire Wire Line
	5500 3700 5500 3900
Wire Wire Line
	5500 3900 4750 3900
Wire Wire Line
	6850 3600 5400 3600
Wire Wire Line
	1050 4000 700  4000
Wire Wire Line
	700  4000 700  4300
Wire Wire Line
	700  4300 1850 4300
Wire Wire Line
	2900 6450 2900 6700
Connection ~ 3500 5600
Wire Wire Line
	3200 5600 3500 5600
Connection ~ 3200 3600
Wire Wire Line
	3500 3600 3200 3600
Wire Wire Line
	3200 3700 3200 3500
Wire Wire Line
	2900 3900 2700 3900
Wire Wire Line
	1050 3800 1000 3800
Wire Wire Line
	1000 3800 1000 4100
Connection ~ 2000 4100
Wire Wire Line
	1000 4100 2000 4100
Wire Wire Line
	1050 3700 1050 3600
Wire Wire Line
	1050 3600 1900 3600
Connection ~ 1900 3700
Wire Wire Line
	3500 5600 3500 5400
Wire Wire Line
	2900 5950 2900 5800
Wire Wire Line
	2000 3700 2000 3650
Wire Wire Line
	1850 3800 2000 3800
Wire Wire Line
	2000 3800 2000 4500
Wire Wire Line
	1850 3900 2200 3900
Wire Wire Line
	3200 4100 3200 4500
Wire Wire Line
	3500 3900 3500 4500
Wire Wire Line
	2250 4200 2250 4500
Wire Wire Line
	3500 5900 3500 6700
Wire Wire Line
	2100 3900 2100 4200
Connection ~ 2100 3900
Wire Wire Line
	2100 4200 800  4200
Wire Wire Line
	800  4200 800  3900
Wire Wire Line
	800  3900 1050 3900
Wire Wire Line
	2900 5850 1850 5850
Wire Wire Line
	1850 5850 1850 4000
Connection ~ 1850 4300
Connection ~ 2900 5850
Wire Wire Line
	4900 3600 4750 3600
Wire Wire Line
	4750 5600 5000 5600
Wire Wire Line
	4750 5900 5800 5900
Wire Wire Line
	5800 5900 5800 3800
Wire Wire Line
	5800 3800 6850 3800
Wire Wire Line
	2900 4800 2900 5400
Wire Wire Line
	2200 3650 2200 3700
Wire Wire Line
	2200 3700 1850 3700
Connection ~ 2000 3700
$Comp
L +12V #PWR01
U 1 1 54E1713B
P 3200 2900
F 0 "#PWR01" H 3200 2850 20  0001 C CNN
F 1 "+12V" H 3200 3000 30  0000 C CNN
	1    3200 2900
	1    0    0    -1  
$EndComp
$Comp
L +12V #PWR02
U 1 1 54E17113
P 2900 4800
F 0 "#PWR02" H 2900 4750 20  0001 C CNN
F 1 "+12V" H 2900 4900 30  0000 C CNN
	1    2900 4800
	1    0    0    -1  
$EndComp
$Comp
L +12V #PWR03
U 1 1 54E1710E
P 3500 4800
F 0 "#PWR03" H 3500 4750 20  0001 C CNN
F 1 "+12V" H 3500 4900 30  0000 C CNN
	1    3500 4800
	1    0    0    -1  
$EndComp
$Comp
L GND #PWR04
U 1 1 54E16F84
P 2900 6700
F 0 "#PWR04" H 2900 6700 30  0001 C CNN
F 1 "GND" H 2900 6630 30  0001 C CNN
	1    2900 6700
	1    0    0    -1  
$EndComp
$Comp
L GND #PWR05
U 1 1 54E16F78
P 3500 6700
F 0 "#PWR05" H 3500 6700 30  0001 C CNN
F 1 "GND" H 3500 6630 30  0001 C CNN
	1    3500 6700
	1    0    0    -1  
$EndComp
$Comp
L GND #PWR06
U 1 1 54E16EEC
P 2250 4500
F 0 "#PWR06" H 2250 4500 30  0001 C CNN
F 1 "GND" H 2250 4430 30  0001 C CNN
	1    2250 4500
	1    0    0    -1  
$EndComp
$Comp
L GND #PWR07
U 1 1 54E16E42
P 3500 4500
F 0 "#PWR07" H 3500 4500 30  0001 C CNN
F 1 "GND" H 3500 4430 30  0001 C CNN
	1    3500 4500
	1    0    0    -1  
$EndComp
$Comp
L GND #PWR08
U 1 1 54E16DE5
P 3200 4500
F 0 "#PWR08" H 3200 4500 30  0001 C CNN
F 1 "GND" H 3200 4430 30  0001 C CNN
	1    3200 4500
	1    0    0    -1  
$EndComp
$Comp
L R R6
U 1 1 54E16CB7
P 2450 3900
F 0 "R6" V 2530 3900 50  0000 C CNN
F 1 "1k" V 2450 3900 50  0000 C CNN
	1    2450 3900
	0    -1   -1   0   
$EndComp
$Comp
L NPN Q2
U 1 1 54E16C8A
P 3100 3900
F 0 "Q2" H 3100 3750 50  0000 R CNN
F 1 "NPN" H 3100 4050 50  0000 R CNN
	1    3100 3900
	1    0    0    -1  
$EndComp
$Comp
L CONN_4X2 P2
U 1 1 54E16BFE
P 1450 3850
F 0 "P2" H 1450 4100 50  0000 C CNN
F 1 "CONN_4X2" V 1450 3850 40  0000 C CNN
	1    1450 3850
	1    0    0    -1  
$EndComp
$Comp
L PWR_FLAG #FLG09
U 1 1 54DC7567
P 2200 3650
F 0 "#FLG09" H 2200 3745 30  0001 C CNN
F 1 "PWR_FLAG" H 2200 3830 30  0000 C CNN
	1    2200 3650
	-1   0    0    -1  
$EndComp
$Comp
L R R5
U 1 1 54DC71C1
P 3500 5150
F 0 "R5" V 3580 5150 50  0000 C CNN
F 1 "1k" V 3500 5150 50  0000 C CNN
	1    3500 5150
	-1   0    0    -1  
$EndComp
$Comp
L NPN Q1
U 1 1 54DC658F
P 3000 5600
F 0 "Q1" H 3000 5450 50  0000 R CNN
F 1 "NPN" H 3000 5750 50  0000 R CNN
	1    3000 5600
	-1   0    0    -1  
$EndComp
$Comp
L R R3
U 1 1 54DC5E8E
P 3200 3250
F 0 "R3" V 3280 3250 50  0000 C CNN
F 1 "300" V 3200 3250 50  0000 C CNN
	1    3200 3250
	-1   0    0    1   
$EndComp
$Comp
L PWR_FLAG #FLG010
U 1 1 54DC5CBC
P 2250 4200
F 0 "#FLG010" H 2250 4295 30  0001 C CNN
F 1 "PWR_FLAG" H 2250 4380 30  0000 C CNN
	1    2250 4200
	-1   0    0    -1  
$EndComp
$Comp
L GND #PWR011
U 1 1 54DC5C55
P 2000 4500
F 0 "#PWR011" H 2000 4500 30  0001 C CNN
F 1 "GND" H 2000 4430 30  0001 C CNN
	1    2000 4500
	1    0    0    -1  
$EndComp
$Comp
L +12V #PWR012
U 1 1 54DC5C42
P 2000 3650
F 0 "#PWR012" H 2000 3600 20  0001 C CNN
F 1 "+12V" H 2000 3750 30  0000 C CNN
	1    2000 3650
	1    0    0    -1  
$EndComp
$Comp
L R R4
U 1 1 54DC5B60
P 2900 6200
F 0 "R4" V 2980 6200 50  0000 C CNN
F 1 "1k" V 2900 6200 50  0000 C CNN
	1    2900 6200
	-1   0    0    -1  
$EndComp
$Comp
L R R1
U 1 1 54DC5B24
P 5250 5600
F 0 "R1" V 5330 5600 50  0000 C CNN
F 1 "3000" V 5250 5600 50  0000 C CNN
	1    5250 5600
	0    -1   -1   0   
$EndComp
$Comp
L OPTO-TRANSISTOR4 U1
U 1 1 54DC5B17
P 4150 3750
F 0 "U1" H 4350 4000 60  0000 C CNN
F 1 "OPTO-TRANSISTOR4" H 4150 3500 60  0000 C CNN
	1    4150 3750
	1    0    0    -1  
$EndComp
$Comp
L OPTO-TRANSISTOR4 U2
U 1 1 54DC5866
P 4100 5750
F 0 "U2" H 4300 6000 60  0000 C CNN
F 1 "OPTO-TRANSISTOR4" H 4100 5500 60  0000 C CNN
	1    4100 5750
	-1   0    0    -1  
$EndComp
$Comp
L R R2
U 1 1 54DC583F
P 5150 3600
F 0 "R2" V 5230 3600 50  0000 C CNN
F 1 "2500" V 5150 3600 50  0000 C CNN
	1    5150 3600
	0    -1   -1   0   
$EndComp
$Comp
L CONN_4 P1
U 1 1 54DC578D
P 7200 3750
F 0 "P1" V 7150 3750 50  0000 C CNN
F 1 "CONN_4" V 7250 3750 50  0000 C CNN
	1    7200 3750
	1    0    0    1   
$EndComp
$EndSCHEMATC
