%!PS-Adobe-3.0
%%Creator: PCBNEW-PS
%%CreationDate: Mon Feb 16 11:57:53 2015
%%Title: /home/max/av/!мое/паяние/kicad/телеграф модульный/драйвер угломера/драйвер угломера-Back.ps
%%Pages: 1
%%PageOrder: Ascend
%%BoundingBox: 0 0 596 843
%%DocumentMedia: A4 595 842 0 () ()
%%Orientation: Landscape
%%EndComments
%%Page: 1 1
/line {
    newpath
    moveto
    lineto
    stroke
} bind def
/cir0 { newpath 0 360 arc stroke } bind def
/cir1 { newpath 0 360 arc gsave fill grestore stroke } bind def
/cir2 { newpath 0 360 arc gsave fill grestore stroke } bind def
/arc0 { newpath arc stroke } bind def
/arc1 { newpath 4 index 4 index moveto arc closepath gsave fill grestore stroke } bind def
/arc2 { newpath 4 index 4 index moveto arc closepath gsave fill grestore stroke } bind def
/poly0 { stroke } bind def
/poly1 { closepath gsave fill grestore stroke } bind def
/poly2 { closepath gsave fill grestore stroke } bind def
/rect0 { rectstroke } bind def
/rect1 { rectfill } bind def
/rect2 { rectfill } bind def
/linemode0 { 0 setlinecap 0 setlinejoin 0 setlinewidth } bind def
/linemode1 { 1 setlinecap 1 setlinejoin } bind def
/dashedline { [50 50] 0 setdash } bind def
/solidline { [] 0 setdash } bind def
gsave
0.0072 0.0072 scale
linemode1
82670 0 translate 90 rotate
60 setlinewidth
60 setlinewidth
newpath
70755 44425 moveto
70755 44915 lineto
71245 44915 lineto
71245 44425 lineto
70755 44425 lineto
poly1
70000 44670 245 cir1
70000 43670 245 cir1
62000 44670 320 cir1
55000 44670 320 cir1
62000 40670 320 cir1
55000 40670 320 cir1
68000 40670 270 cir1
72000 40670 270 cir1
62500 42170 270 cir1
66500 42170 270 cir1
newpath
60270 38440 moveto
60270 37900 lineto
59730 37900 lineto
59730 38440 lineto
60270 38440 lineto
poly1
59000 38170 270 cir1
58000 38170 270 cir1
57000 38170 270 cir1
68000 42170 270 cir1
68000 46170 270 cir1
newpath
67245 37915 moveto
67245 37425 lineto
66755 37425 lineto
66755 37915 lineto
67245 37915 lineto
poly1
68000 37670 245 cir1
68000 38670 245 cir1
74000 42170 270 cir1
70000 42170 270 cir1
newpath
71730 37400 moveto
71730 37940 lineto
72270 37940 lineto
72270 37400 lineto
71730 37400 lineto
poly1
72000 38670 270 cir1
73000 37670 270 cir1
73000 38670 270 cir1
74000 37670 270 cir1
74000 38670 270 cir1
75000 37670 270 cir1
75000 38670 270 cir1
newpath
66745 39425 moveto
66255 39425 lineto
66255 39915 lineto
66745 39915 lineto
66745 39425 lineto
poly1
66500 40670 245 cir1
63500 40670 245 cir1
63500 39670 245 cir1
newpath
63255 44915 moveto
63745 44915 lineto
63745 44425 lineto
63255 44425 lineto
63255 44915 lineto
poly1
63500 43670 245 cir1
66500 43670 245 cir1
66500 44670 245 cir1
400 setlinewidth
newpath
69500 43670 moveto
68000 42170 lineto
stroke
newpath
72000 38670 moveto
72000 37670 lineto
stroke
newpath
72000 38670 moveto
72000 40670 lineto
stroke
newpath
72000 40670 moveto
72000 41670 lineto
stroke
newpath
72000 41670 moveto
70000 43670 lineto
stroke
newpath
70000 43670 moveto
69500 43670 lineto
stroke
newpath
66000 40670 moveto
66500 40670 lineto
stroke
newpath
66500 37670 moveto
65500 38670 lineto
stroke
newpath
65500 38670 moveto
65500 40170 lineto
stroke
newpath
65500 40170 moveto
66000 40670 lineto
stroke
newpath
73000 38670 moveto
73000 37670 lineto
stroke
newpath
67000 37670 moveto
66500 37670 lineto
stroke
newpath
66500 42170 moveto
66500 43670 lineto
stroke
newpath
66500 40670 moveto
66500 42170 lineto
stroke
newpath
73000 37170 moveto
71500 35670 lineto
stroke
newpath
71500 35670 moveto
68000 35670 lineto
stroke
newpath
67000 36670 moveto
67000 37670 lineto
stroke
newpath
73000 37670 moveto
73000 37170 lineto
stroke
newpath
77000 35670 moveto
71500 35670 lineto
stroke
newpath
68000 35670 moveto
67000 36670 lineto
stroke
newpath
53500 35670 moveto
53500 42670 lineto
stroke
newpath
68000 35670 moveto
53500 35670 lineto
stroke
newpath
77000 35670 moveto
77000 47170 lineto
stroke
newpath
71000 47170 moveto
77000 47170 lineto
stroke
newpath
68000 37670 moveto
68500 37670 lineto
stroke
newpath
70000 39170 moveto
70000 42170 lineto
stroke
newpath
68500 37670 moveto
70000 39170 lineto
stroke
newpath
60000 38170 moveto
60000 42170 lineto
stroke
newpath
57500 44670 moveto
55000 44670 lineto
stroke
newpath
60000 42170 moveto
57500 44670 lineto
stroke
newpath
59000 38170 moveto
59000 40670 lineto
stroke
newpath
59000 40670 moveto
57000 42670 lineto
stroke
newpath
57000 42670 moveto
55000 42670 lineto
stroke
newpath
55000 42670 moveto
53500 44170 lineto
stroke
newpath
53500 44170 moveto
53500 45170 lineto
stroke
newpath
53500 45170 moveto
54500 46170 lineto
stroke
newpath
54500 46170 moveto
58500 46170 lineto
stroke
newpath
58500 46170 moveto
61000 43670 lineto
stroke
newpath
61000 43670 moveto
63500 43670 lineto
stroke
newpath
56000 38170 moveto
55000 39170 lineto
stroke
newpath
57000 38170 moveto
56000 38170 lineto
stroke
newpath
55000 39170 moveto
55000 40670 lineto
stroke
newpath
62000 40670 moveto
62000 40170 lineto
stroke
newpath
62500 39670 moveto
63500 39670 lineto
stroke
newpath
62000 40170 moveto
62500 39670 lineto
stroke
newpath
64000 40670 moveto
64500 40170 lineto
stroke
newpath
64500 40170 moveto
64500 38170 lineto
stroke
newpath
64500 38170 moveto
63500 37170 lineto
stroke
newpath
63500 37170 moveto
58500 37170 lineto
stroke
newpath
58500 37170 moveto
58000 37670 lineto
stroke
newpath
58000 37670 moveto
58000 38170 lineto
stroke
newpath
63500 40670 moveto
64000 40670 lineto
stroke
newpath
68000 39670 moveto
68000 40670 lineto
stroke
newpath
66500 39670 moveto
68000 39670 lineto
stroke
newpath
68000 38670 moveto
68000 39670 lineto
stroke
newpath
62000 44670 moveto
63500 44670 lineto
stroke
newpath
68000 46170 moveto
68000 44670 lineto
stroke
newpath
70000 44670 moveto
68000 44670 lineto
stroke
newpath
68000 44670 moveto
66500 44670 lineto
stroke
newpath
62500 42170 moveto
65000 42170 lineto
stroke
newpath
69500 47170 moveto
71000 45670 lineto
stroke
newpath
75000 38670 moveto
75000 40170 lineto
stroke
newpath
65000 42170 moveto
65500 42670 lineto
stroke
newpath
65500 46170 moveto
66500 47170 lineto
stroke
newpath
73000 40170 moveto
73000 42670 lineto
stroke
newpath
66500 47170 moveto
53500 47170 lineto
stroke
newpath
66500 47170 moveto
69500 47170 lineto
stroke
newpath
65500 42670 moveto
65500 46170 lineto
stroke
newpath
73000 42670 moveto
71000 44670 lineto
stroke
newpath
75000 38670 moveto
75000 37670 lineto
stroke
newpath
53500 47170 moveto
53500 46670 lineto
stroke
newpath
71000 45670 moveto
71000 44670 lineto
stroke
newpath
75000 40170 moveto
73000 40170 lineto
stroke
newpath
74000 42170 moveto
74500 42170 lineto
stroke
newpath
74000 36670 moveto
74000 37670 lineto
stroke
newpath
76000 36670 moveto
74000 36670 lineto
stroke
newpath
76000 40670 moveto
76000 36670 lineto
stroke
newpath
74500 42170 moveto
76000 40670 lineto
stroke
newpath
74000 38670 moveto
74000 37670 lineto
stroke
1 1 1 setrgbcolor
60 setlinewidth
71000 44670 45 cir1
70000 44670 45 cir1
70000 43670 45 cir1
62000 44670 45 cir1
55000 44670 45 cir1
62000 40670 45 cir1
55000 40670 45 cir1
68000 40670 45 cir1
72000 40670 45 cir1
62500 42170 45 cir1
66500 42170 45 cir1
60000 38170 45 cir1
59000 38170 45 cir1
58000 38170 45 cir1
57000 38170 45 cir1
68000 42170 45 cir1
68000 46170 45 cir1
67000 37670 45 cir1
68000 37670 45 cir1
68000 38670 45 cir1
74000 42170 45 cir1
70000 42170 45 cir1
72000 37670 45 cir1
72000 38670 45 cir1
73000 37670 45 cir1
73000 38670 45 cir1
74000 37670 45 cir1
74000 38670 45 cir1
75000 37670 45 cir1
75000 38670 45 cir1
66500 39670 45 cir1
66500 40670 45 cir1
63500 40670 45 cir1
63500 39670 45 cir1
63500 44670 45 cir1
63500 43670 45 cir1
66500 43670 45 cir1
66500 44670 45 cir1
0 0 0 setrgbcolor
showpage
grestore
%%EOF
