EESchema Schematic File Version 2
LIBS:power
LIBS:device
LIBS:transistors
LIBS:conn
LIBS:linear
LIBS:regul
LIBS:74xx
LIBS:cmos4000
LIBS:adc-dac
LIBS:memory
LIBS:xilinx
LIBS:special
LIBS:microcontrollers
LIBS:dsp
LIBS:microchip
LIBS:analog_switches
LIBS:motorola
LIBS:texas
LIBS:intel
LIBS:audio
LIBS:interface
LIBS:digital-audio
LIBS:philips
LIBS:display
LIBS:cypress
LIBS:siliconi
LIBS:opto
LIBS:atmel
LIBS:contrib
LIBS:valves
LIBS:драйвер альфа-телекса-cache
EELAYER 27 0
EELAYER END
$Descr A4 11693 8268
encoding utf-8
Sheet 1 1
Title ""
Date "29 jul 2015"
Rev ""
Comp ""
Comment1 ""
Comment2 ""
Comment3 ""
Comment4 ""
$EndDescr
Connection ~ 4250 5700
Wire Wire Line
	9250 5700 4250 5700
Wire Wire Line
	850  2050 1650 2050
Wire Wire Line
	6800 5500 6800 5800
Wire Wire Line
	9250 5800 8900 5800
Wire Wire Line
	8400 5800 8050 5800
Wire Wire Line
	3000 5200 2400 5200
Connection ~ 2700 6300
Wire Wire Line
	2700 6300 2800 6300
Wire Wire Line
	2800 6300 2800 5000
Wire Wire Line
	2800 5000 4800 5000
Wire Wire Line
	4800 5000 4800 5200
Wire Wire Line
	2700 4900 2700 5700
Wire Wire Line
	2400 6600 2300 6600
Wire Wire Line
	3000 6600 3000 7000
Wire Wire Line
	4800 5500 4800 5800
Wire Wire Line
	3000 5500 3000 5800
Wire Wire Line
	3000 5800 4500 5800
Wire Wire Line
	4500 5800 4800 6100
Wire Wire Line
	4800 6100 4800 6300
Wire Wire Line
	4250 6600 4250 7000
Wire Wire Line
	6050 5500 6050 6300
Connection ~ 6850 1700
Wire Wire Line
	4250 5200 4250 4900
Wire Wire Line
	4250 4900 7000 4900
Wire Wire Line
	7000 4900 7000 1700
Wire Wire Line
	7000 1700 6300 1700
Connection ~ 6650 2200
Connection ~ 6650 1700
Connection ~ 5300 2900
Wire Wire Line
	4400 2900 5300 2900
Wire Wire Line
	5300 2400 5300 3300
Wire Wire Line
	4500 4100 4500 2750
Wire Wire Line
	4500 2750 4400 2750
Wire Wire Line
	4700 3100 4700 3500
Wire Wire Line
	4400 2600 4700 2600
Wire Wire Line
	4400 2400 4400 2500
Wire Wire Line
	2700 2850 2700 3200
Wire Wire Line
	2700 1600 2700 1750
Wire Wire Line
	3550 3200 3550 4100
Wire Wire Line
	2100 3400 2100 4100
Connection ~ 1650 1750
Wire Wire Line
	850  1750 1700 1750
Wire Wire Line
	1900 4100 1900 1850
Connection ~ 1700 1650
Wire Wire Line
	1700 1750 1700 1600
Wire Wire Line
	1100 1000 1100 1100
Wire Wire Line
	1100 1100 850  1100
Wire Wire Line
	850  1100 850  950 
Wire Wire Line
	1900 1850 850  1850
Connection ~ 1650 1850
Wire Wire Line
	1350 1000 1350 1200
Wire Wire Line
	2100 1600 2100 3000
Wire Wire Line
	3550 1600 3550 2200
Wire Wire Line
	2700 2250 2700 2550
Wire Wire Line
	2700 3600 2700 4100
Wire Wire Line
	4400 1900 4400 1700
Wire Wire Line
	2900 2400 2900 1700
Wire Wire Line
	2900 2400 2700 2400
Connection ~ 2700 2400
Wire Wire Line
	4700 1900 4700 1700
Wire Wire Line
	4700 1700 2900 1700
Connection ~ 4400 1700
Wire Wire Line
	4700 2700 4700 2500
Connection ~ 4700 2600
Wire Wire Line
	4700 3900 4700 4100
Wire Wire Line
	5300 1900 5300 1700
Wire Wire Line
	5000 3250 5000 1700
Wire Wire Line
	5000 3250 4700 3250
Connection ~ 4700 3250
Wire Wire Line
	5300 3800 5300 4100
Wire Wire Line
	5000 1700 5500 1700
Connection ~ 5300 1700
Connection ~ 6450 1700
Wire Wire Line
	5900 2200 6850 2200
Connection ~ 6450 2200
Wire Wire Line
	4250 5500 4250 6300
Wire Wire Line
	6050 6600 6050 7000
Wire Wire Line
	6050 5200 6050 4900
Connection ~ 6050 4900
Wire Wire Line
	4800 5800 4500 6100
Wire Wire Line
	4500 6100 3000 6100
Wire Wire Line
	3000 6100 3000 6300
Wire Wire Line
	4800 6600 4800 7000
Wire Wire Line
	850  1950 1800 1950
Connection ~ 1650 1950
Wire Wire Line
	2700 6800 2700 7000
Wire Wire Line
	1800 1950 1800 6600
Connection ~ 1800 5200
Wire Wire Line
	2700 6200 2700 6400
Wire Wire Line
	1900 5200 1800 5200
Wire Wire Line
	8050 6100 9250 6100
Wire Wire Line
	9250 6100 9250 5900
Wire Wire Line
	6800 6100 6800 7400
Wire Wire Line
	6800 7400 1650 7400
Wire Wire Line
	1650 7400 1650 2050
Wire Wire Line
	9250 5600 6050 5600
Connection ~ 6050 5600
$Comp
L +12V #PWR01
U 1 1 54E42DC3
P 6800 5500
F 0 "#PWR01" H 6800 5450 20  0001 C CNN
F 1 "+12V" H 6800 5600 30  0000 C CNN
F 2 "" H 6800 5500 60  0001 C CNN
F 3 "" H 6800 5500 60  0001 C CNN
	1    6800 5500
	1    0    0    -1  
$EndComp
$Comp
L R R11
U 1 1 54E42D33
P 8650 5800
F 0 "R11" V 8730 5800 50  0000 C CNN
F 1 "2k1w" V 8650 5800 50  0000 C CNN
F 2 "" H 8650 5800 60  0001 C CNN
F 3 "" H 8650 5800 60  0001 C CNN
	1    8650 5800
	0    1    1    0   
$EndComp
$Comp
L OPTO-TRANSISTOR4 U7
U 1 1 54E42D12
P 7400 5950
F 0 "U7" H 7600 6200 60  0000 C CNN
F 1 "OPTO-TRANSISTOR4" H 7400 5700 60  0000 C CNN
F 2 "" H 7400 5950 60  0001 C CNN
F 3 "" H 7400 5950 60  0001 C CNN
	1    7400 5950
	-1   0    0    -1  
$EndComp
$Comp
L R R4
U 1 1 54E42C5C
P 2700 5950
F 0 "R4" V 2780 5950 50  0000 C CNN
F 1 "600" V 2700 5950 50  0000 C CNN
F 2 "" H 2700 5950 60  0001 C CNN
F 3 "" H 2700 5950 60  0001 C CNN
	1    2700 5950
	1    0    0    -1  
$EndComp
$Comp
L R R1
U 1 1 54E42C4B
P 2050 6600
F 0 "R1" V 2130 6600 50  0000 C CNN
F 1 "1k" V 2050 6600 50  0000 C CNN
F 2 "" H 2050 6600 60  0001 C CNN
F 3 "" H 2050 6600 60  0001 C CNN
	1    2050 6600
	0    1    1    0   
$EndComp
$Comp
L GND #PWR02
U 1 1 54E42C40
P 2700 7000
F 0 "#PWR02" H 2700 7000 30  0001 C CNN
F 1 "GND" H 2700 6930 30  0001 C CNN
F 2 "" H 2700 7000 60  0001 C CNN
F 3 "" H 2700 7000 60  0001 C CNN
	1    2700 7000
	1    0    0    -1  
$EndComp
$Comp
L R R2
U 1 1 54E42BE7
P 2150 5200
F 0 "R2" V 2230 5200 50  0000 C CNN
F 1 "600" V 2150 5200 50  0000 C CNN
F 2 "" H 2150 5200 60  0001 C CNN
F 3 "" H 2150 5200 60  0001 C CNN
	1    2150 5200
	0    1    1    0   
$EndComp
$Comp
L +12V #PWR03
U 1 1 54E42BAC
P 2700 4900
F 0 "#PWR03" H 2700 4850 20  0001 C CNN
F 1 "+12V" H 2700 5000 30  0000 C CNN
F 2 "" H 2700 4900 60  0001 C CNN
F 3 "" H 2700 4900 60  0001 C CNN
	1    2700 4900
	1    0    0    -1  
$EndComp
$Comp
L GND #PWR04
U 1 1 54E42B64
P 3000 7000
F 0 "#PWR04" H 3000 7000 30  0001 C CNN
F 1 "GND" H 3000 6930 30  0001 C CNN
F 2 "" H 3000 7000 60  0001 C CNN
F 3 "" H 3000 7000 60  0001 C CNN
	1    3000 7000
	1    0    0    -1  
$EndComp
$Comp
L GND #PWR05
U 1 1 54E42B5F
P 4800 7000
F 0 "#PWR05" H 4800 7000 30  0001 C CNN
F 1 "GND" H 4800 6930 30  0001 C CNN
F 2 "" H 4800 7000 60  0001 C CNN
F 3 "" H 4800 7000 60  0001 C CNN
	1    4800 7000
	1    0    0    -1  
$EndComp
$Comp
L GND #PWR06
U 1 1 54E428FE
P 6050 7000
F 0 "#PWR06" H 6050 7000 30  0001 C CNN
F 1 "GND" H 6050 6930 30  0001 C CNN
F 2 "" H 6050 7000 60  0001 C CNN
F 3 "" H 6050 7000 60  0001 C CNN
	1    6050 7000
	1    0    0    -1  
$EndComp
$Comp
L GND #PWR07
U 1 1 54E428F9
P 4250 7000
F 0 "#PWR07" H 4250 7000 30  0001 C CNN
F 1 "GND" H 4250 6930 30  0001 C CNN
F 2 "" H 4250 7000 60  0001 C CNN
F 3 "" H 4250 7000 60  0001 C CNN
	1    4250 7000
	1    0    0    -1  
$EndComp
$Comp
L OPTO-TRANSISTOR4 U5
U 1 1 54E42874
P 5450 6450
F 0 "U5" H 5650 6700 60  0000 C CNN
F 1 "OPTO-TRANSISTOR4" H 5450 6200 60  0000 C CNN
F 2 "" H 5450 6450 60  0001 C CNN
F 3 "" H 5450 6450 60  0001 C CNN
	1    5450 6450
	1    0    0    -1  
$EndComp
$Comp
L OPTO-TRANSISTOR4 U4
U 1 1 54E4286D
P 5450 5350
F 0 "U4" H 5650 5600 60  0000 C CNN
F 1 "OPTO-TRANSISTOR4" H 5450 5100 60  0000 C CNN
F 2 "" H 5450 5350 60  0001 C CNN
F 3 "" H 5450 5350 60  0001 C CNN
	1    5450 5350
	1    0    0    -1  
$EndComp
$Comp
L OPTO-TRANSISTOR4 U3
U 1 1 54E42860
P 3650 6450
F 0 "U3" H 3850 6700 60  0000 C CNN
F 1 "OPTO-TRANSISTOR4" H 3650 6200 60  0000 C CNN
F 2 "" H 3650 6450 60  0001 C CNN
F 3 "" H 3650 6450 60  0001 C CNN
	1    3650 6450
	1    0    0    -1  
$EndComp
$Comp
L R R10
U 1 1 54E42132
P 6850 1950
F 0 "R10" V 6930 1950 50  0000 C CNN
F 1 "150" V 6850 1950 50  0000 C CNN
F 2 "" H 6850 1950 60  0001 C CNN
F 3 "" H 6850 1950 60  0001 C CNN
	1    6850 1950
	1    0    0    -1  
$EndComp
$Comp
L R R9
U 1 1 54E4212C
P 6650 1950
F 0 "R9" V 6730 1950 50  0000 C CNN
F 1 "150" V 6650 1950 50  0000 C CNN
F 2 "" H 6650 1950 60  0001 C CNN
F 3 "" H 6650 1950 60  0001 C CNN
	1    6650 1950
	1    0    0    -1  
$EndComp
$Comp
L R R8
U 1 1 54E4210C
P 6450 1950
F 0 "R8" V 6530 1950 50  0000 C CNN
F 1 "150" V 6450 1950 50  0000 C CNN
F 2 "" H 6450 1950 60  0001 C CNN
F 3 "" H 6450 1950 60  0001 C CNN
	1    6450 1950
	1    0    0    -1  
$EndComp
$Comp
L GND #PWR08
U 1 1 54E41D61
P 5300 4100
F 0 "#PWR08" H 5300 4100 30  0001 C CNN
F 1 "GND" H 5300 4030 30  0001 C CNN
F 2 "" H 5300 4100 60  0001 C CNN
F 3 "" H 5300 4100 60  0001 C CNN
	1    5300 4100
	1    0    0    -1  
$EndComp
$Comp
L R R7
U 1 1 54E41D52
P 5300 3550
F 0 "R7" V 5380 3550 50  0000 C CNN
F 1 "1k" V 5300 3550 50  0000 C CNN
F 2 "" H 5300 3550 60  0001 C CNN
F 3 "" H 5300 3550 60  0001 C CNN
	1    5300 3550
	-1   0    0    1   
$EndComp
$Comp
L R R6
U 1 1 54E41D10
P 5300 2150
F 0 "R6" V 5380 2150 50  0000 C CNN
F 1 "10k" V 5300 2150 50  0000 C CNN
F 2 "" H 5300 2150 60  0001 C CNN
F 3 "" H 5300 2150 60  0001 C CNN
	1    5300 2150
	-1   0    0    1   
$EndComp
$Comp
L GND #PWR09
U 1 1 54E41CDA
P 4500 4100
F 0 "#PWR09" H 4500 4100 30  0001 C CNN
F 1 "GND" H 4500 4030 30  0001 C CNN
F 2 "" H 4500 4100 60  0001 C CNN
F 3 "" H 4500 4100 60  0001 C CNN
	1    4500 4100
	1    0    0    -1  
$EndComp
$Comp
L GND #PWR010
U 1 1 54E41C98
P 4700 4100
F 0 "#PWR010" H 4700 4100 30  0001 C CNN
F 1 "GND" H 4700 4030 30  0001 C CNN
F 2 "" H 4700 4100 60  0001 C CNN
F 3 "" H 4700 4100 60  0001 C CNN
	1    4700 4100
	1    0    0    -1  
$EndComp
$Comp
L CP1 C3
U 1 1 54E41C8B
P 4700 3700
F 0 "C3" H 4750 3800 50  0000 L CNN
F 1 "CP1 60v" H 4750 3600 50  0000 L CNN
F 2 "" H 4700 3700 60  0001 C CNN
F 3 "" H 4700 3700 60  0001 C CNN
	1    4700 3700
	1    0    0    -1  
$EndComp
$Comp
L R R5
U 1 1 54E41BD5
P 4400 2150
F 0 "R5" V 4480 2150 50  0000 C CNN
F 1 "180" V 4400 2150 50  0000 C CNN
F 2 "" H 4400 2150 60  0001 C CNN
F 3 "" H 4400 2150 60  0001 C CNN
	1    4400 2150
	-1   0    0    1   
$EndComp
$Comp
L GND #PWR011
U 1 1 54E41B37
P 2700 4100
F 0 "#PWR011" H 2700 4100 30  0001 C CNN
F 1 "GND" H 2700 4030 30  0001 C CNN
F 2 "" H 2700 4100 60  0001 C CNN
F 3 "" H 2700 4100 60  0001 C CNN
	1    2700 4100
	1    0    0    -1  
$EndComp
$Comp
L +12V #PWR012
U 1 1 54E41B01
P 2700 1600
F 0 "#PWR012" H 2700 1550 20  0001 C CNN
F 1 "+12V" H 2700 1700 30  0000 C CNN
F 2 "" H 2700 1600 60  0001 C CNN
F 3 "" H 2700 1600 60  0001 C CNN
	1    2700 1600
	1    0    0    -1  
$EndComp
$Comp
L +12V #PWR013
U 1 1 54E41AE0
P 3550 1600
F 0 "#PWR013" H 3550 1550 20  0001 C CNN
F 1 "+12V" H 3550 1700 30  0000 C CNN
F 2 "" H 3550 1600 60  0001 C CNN
F 3 "" H 3550 1600 60  0001 C CNN
	1    3550 1600
	1    0    0    -1  
$EndComp
$Comp
L GND #PWR014
U 1 1 54E41ACF
P 3550 4100
F 0 "#PWR014" H 3550 4100 30  0001 C CNN
F 1 "GND" H 3550 4030 30  0001 C CNN
F 2 "" H 3550 4100 60  0001 C CNN
F 3 "" H 3550 4100 60  0001 C CNN
	1    3550 4100
	1    0    0    -1  
$EndComp
$Comp
L +12V #PWR015
U 1 1 54E41AB7
P 2100 1600
F 0 "#PWR015" H 2100 1550 20  0001 C CNN
F 1 "+12V" H 2100 1700 30  0000 C CNN
F 2 "" H 2100 1600 60  0001 C CNN
F 3 "" H 2100 1600 60  0001 C CNN
	1    2100 1600
	1    0    0    -1  
$EndComp
$Comp
L GND #PWR016
U 1 1 54E41AA9
P 2100 4100
F 0 "#PWR016" H 2100 4100 30  0001 C CNN
F 1 "GND" H 2100 4030 30  0001 C CNN
F 2 "" H 2100 4100 60  0001 C CNN
F 3 "" H 2100 4100 60  0001 C CNN
	1    2100 4100
	1    0    0    -1  
$EndComp
$Comp
L PWR_FLAG #FLG017
U 1 1 54E41A84
P 1350 1000
F 0 "#FLG017" H 1350 1095 30  0001 C CNN
F 1 "PWR_FLAG" H 1350 1180 30  0000 C CNN
F 2 "" H 1350 1000 60  0001 C CNN
F 3 "" H 1350 1000 60  0001 C CNN
	1    1350 1000
	1    0    0    -1  
$EndComp
$Comp
L GND #PWR018
U 1 1 54E41A7E
P 1350 1200
F 0 "#PWR018" H 1350 1200 30  0001 C CNN
F 1 "GND" H 1350 1130 30  0001 C CNN
F 2 "" H 1350 1200 60  0001 C CNN
F 3 "" H 1350 1200 60  0001 C CNN
	1    1350 1200
	1    0    0    -1  
$EndComp
$Comp
L +12V #PWR019
U 1 1 54E41A3F
P 850 950
F 0 "#PWR019" H 850 900 20  0001 C CNN
F 1 "+12V" H 850 1050 30  0000 C CNN
F 2 "" H 850 950 60  0001 C CNN
F 3 "" H 850 950 60  0001 C CNN
	1    850  950 
	1    0    0    -1  
$EndComp
$Comp
L PWR_FLAG #FLG020
U 1 1 54E419F4
P 1100 1000
F 0 "#FLG020" H 1100 1095 30  0001 C CNN
F 1 "PWR_FLAG" H 1100 1180 30  0000 C CNN
F 2 "" H 1100 1000 60  0001 C CNN
F 3 "" H 1100 1000 60  0001 C CNN
	1    1100 1000
	1    0    0    -1  
$EndComp
$Comp
L GND #PWR021
U 1 1 54E419E6
P 1900 4100
F 0 "#PWR021" H 1900 4100 30  0001 C CNN
F 1 "GND" H 1900 4030 30  0001 C CNN
F 2 "" H 1900 4100 60  0001 C CNN
F 3 "" H 1900 4100 60  0001 C CNN
	1    1900 4100
	1    0    0    -1  
$EndComp
$Comp
L +12V #PWR022
U 1 1 54E419D8
P 1700 1600
F 0 "#PWR022" H 1700 1550 20  0001 C CNN
F 1 "+12V" H 1700 1700 30  0000 C CNN
F 2 "" H 1700 1600 60  0001 C CNN
F 3 "" H 1700 1600 60  0001 C CNN
	1    1700 1600
	1    0    0    -1  
$EndComp
$Comp
L R R3
U 1 1 54E410FE
P 2700 2000
F 0 "R3" V 2780 2000 50  0000 C CNN
F 1 "0.22" V 2700 2000 50  0000 C CNN
F 2 "" H 2700 2000 60  0001 C CNN
F 3 "" H 2700 2000 60  0001 C CNN
	1    2700 2000
	1    0    0    -1  
$EndComp
$Comp
L CONN_4 P2
U 1 1 54E410D0
P 9600 5750
F 0 "P2" V 9550 5750 50  0000 C CNN
F 1 "CONN_4" V 9650 5750 50  0000 C CNN
F 2 "" H 9600 5750 60  0001 C CNN
F 3 "" H 9600 5750 60  0001 C CNN
	1    9600 5750
	1    0    0    -1  
$EndComp
$Comp
L OPTO-TRANSISTOR4 U2
U 1 1 54E410BA
P 3650 5350
F 0 "U2" H 3850 5600 60  0000 C CNN
F 1 "OPTO-TRANSISTOR4" H 3650 5100 60  0000 C CNN
F 2 "" H 3650 5350 60  0001 C CNN
F 3 "" H 3650 5350 60  0001 C CNN
	1    3650 5350
	1    0    0    -1  
$EndComp
$Comp
L LM317 U6
U 1 1 54E41095
P 5900 1850
F 0 "U6" H 5900 2150 60  0000 C CNN
F 1 "LM317" H 5950 1600 60  0000 L CNN
F 2 "" H 5900 1850 60  0001 C CNN
F 3 "" H 5900 1850 60  0001 C CNN
	1    5900 1850
	1    0    0    -1  
$EndComp
$Comp
L NPN Q1
U 1 1 54E4107F
P 2600 6600
F 0 "Q1" H 2600 6450 50  0000 R CNN
F 1 "NPN" H 2600 6750 50  0000 R CNN
F 2 "" H 2600 6600 60  0001 C CNN
F 3 "" H 2600 6600 60  0001 C CNN
	1    2600 6600
	1    0    0    -1  
$EndComp
$Comp
L INDUCTOR L1
U 1 1 54E4102A
P 4700 2200
F 0 "L1" V 4650 2200 40  0000 C CNN
F 1 "INDUCTOR" V 4800 2200 40  0000 C CNN
F 2 "" H 4700 2200 60  0001 C CNN
F 3 "" H 4700 2200 60  0001 C CNN
	1    4700 2200
	1    0    0    -1  
$EndComp
$Comp
L CP1 C1
U 1 1 54E41000
P 2100 3200
F 0 "C1" H 2150 3300 50  0000 L CNN
F 1 "CP1 12v" H 2150 3100 50  0000 L CNN
F 2 "" H 2100 3200 60  0001 C CNN
F 3 "" H 2100 3200 60  0001 C CNN
	1    2100 3200
	1    0    0    -1  
$EndComp
$Comp
L C C2
U 1 1 54E40FEC
P 2700 3400
F 0 "C2" H 2750 3500 50  0000 L CNN
F 1 "C" H 2750 3300 50  0000 L CNN
F 2 "" H 2700 3400 60  0001 C CNN
F 3 "" H 2700 3400 60  0001 C CNN
	1    2700 3400
	1    0    0    -1  
$EndComp
$Comp
L DIODESCH D1
U 1 1 54E40FDE
P 4700 2900
F 0 "D1" H 4700 3000 40  0000 C CNN
F 1 "DIODESCH" H 4700 2800 40  0000 C CNN
F 2 "" H 4700 2900 60  0001 C CNN
F 3 "" H 4700 2900 60  0001 C CNN
	1    4700 2900
	0    1    1    0   
$EndComp
$Comp
L MC34063 U1
U 1 1 54E40F65
P 3550 2700
F 0 "U1" H 3700 3050 60  0000 L CNN
F 1 "MC34063" H 3650 2350 60  0000 L CNN
F 2 "" H 3550 2700 60  0001 C CNN
F 3 "" H 3550 2700 60  0001 C CNN
	1    3550 2700
	1    0    0    -1  
$EndComp
$Comp
L CONN_4X2 P1
U 1 1 54E40E35
P 1250 1900
F 0 "P1" H 1250 2150 50  0000 C CNN
F 1 "CONN_4X2" V 1250 1900 40  0000 C CNN
F 2 "" H 1250 1900 60  0001 C CNN
F 3 "" H 1250 1900 60  0001 C CNN
	1    1250 1900
	1    0    0    -1  
$EndComp
$EndSCHEMATC
