%!PS-Adobe-3.0
%%Creator: PCBNEW-PS
%%CreationDate: Thu Feb 19 08:59:54 2015
%%Title: /home/max/av/!мое/паяние/kicad/телеграф модульный/драйвер альфа-телекса-Back.ps
%%Pages: 1
%%PageOrder: Ascend
%%BoundingBox: 0 0 596 843
%%DocumentMedia: A4 595 842 0 () ()
%%Orientation: Landscape
%%EndComments
%%Page: 1 1
/line {
    newpath
    moveto
    lineto
    stroke
} bind def
/cir0 { newpath 0 360 arc stroke } bind def
/cir1 { newpath 0 360 arc gsave fill grestore stroke } bind def
/cir2 { newpath 0 360 arc gsave fill grestore stroke } bind def
/arc0 { newpath arc stroke } bind def
/arc1 { newpath 4 index 4 index moveto arc closepath gsave fill grestore stroke } bind def
/arc2 { newpath 4 index 4 index moveto arc closepath gsave fill grestore stroke } bind def
/poly0 { stroke } bind def
/poly1 { closepath gsave fill grestore stroke } bind def
/poly2 { closepath gsave fill grestore stroke } bind def
/rect0 { rectstroke } bind def
/rect1 { rectfill } bind def
/rect2 { rectfill } bind def
/linemode0 { 0 setlinecap 0 setlinejoin 0 setlinewidth } bind def
/linemode1 { 1 setlinecap 1 setlinejoin } bind def
/dashedline { [50 50] 0 setdash } bind def
/solidline { [] 0 setdash } bind def
gsave
0.0072 0.0072 scale
linemode1
82670 0 translate 90 rotate
60 setlinewidth
60 setlinewidth
newpath
65255 41925 moveto
65255 42415 lineto
65745 42415 lineto
65745 41925 lineto
65255 41925 lineto
poly1
64500 42170 245 cir1
64500 41170 245 cir1
73500 52670 320 cir1
73500 51670 320 cir1
newpath
73180 50350 moveto
73180 50990 lineto
73820 50990 lineto
73820 50350 lineto
73180 50350 lineto
poly1
56750 51170 320 cir1
56750 53170 320 cir1
50500 52170 770 cir1
62500 41670 320 cir1
55500 41670 320 cir1
64000 45170 270 cir1
64000 50170 270 cir1
62500 46670 245 cir1
62500 43670 245 cir1
68500 49670 245 cir1
68500 52670 245 cir1
70000 49670 245 cir1
70000 52670 245 cir1
71500 49670 245 cir1
71500 52670 245 cir1
66500 54170 245 cir1
66500 51170 245 cir1
67500 47670 245 cir1
70500 47670 245 cir1
65500 53170 245 cir1
65500 50170 245 cir1
62500 40170 245 cir1
65500 40170 245 cir1
66500 43670 245 cir1
63500 43670 245 cir1
newpath
56230 38900 moveto
56230 39440 lineto
56770 39440 lineto
56770 38900 lineto
56230 38900 lineto
poly1
56500 40170 270 cir1
57500 39170 270 cir1
57500 40170 270 cir1
58500 39170 270 cir1
58500 40170 270 cir1
59500 39170 270 cir1
59500 40170 270 cir1
newpath
65770 39440 moveto
65770 38900 lineto
65230 38900 lineto
65230 39440 lineto
65770 39440 lineto
poly1
64500 39170 270 cir1
63500 39170 270 cir1
62500 39170 270 cir1
newpath
59255 53415 moveto
59745 53415 lineto
59745 52925 lineto
59255 52925 lineto
59255 53415 lineto
poly1
59500 52170 245 cir1
59500 51170 245 cir1
59500 50170 245 cir1
62500 50170 245 cir1
62500 51170 245 cir1
62500 52170 245 cir1
62500 53170 245 cir1
newpath
70745 40425 moveto
70255 40425 lineto
70255 40915 lineto
70745 40915 lineto
70745 40425 lineto
poly1
70500 41670 245 cir1
67500 41670 245 cir1
67500 40670 245 cir1
newpath
56255 44915 moveto
56745 44915 lineto
56745 44425 lineto
56255 44425 lineto
56255 44915 lineto
poly1
56500 43670 245 cir1
59500 43670 245 cir1
59500 44670 245 cir1
newpath
67255 39915 moveto
67745 39915 lineto
67745 39425 lineto
67255 39425 lineto
67255 39915 lineto
poly1
67500 38670 245 cir1
70500 38670 245 cir1
70500 39670 245 cir1
newpath
67255 43915 moveto
67745 43915 lineto
67745 43425 lineto
67255 43425 lineto
67255 43915 lineto
poly1
67500 42670 245 cir1
70500 42670 245 cir1
70500 43670 245 cir1
newpath
67255 46915 moveto
67745 46915 lineto
67745 46425 lineto
67255 46425 lineto
67255 46915 lineto
poly1
67500 45670 245 cir1
70500 45670 245 cir1
70500 46670 245 cir1
newpath
58745 55925 moveto
58255 55925 lineto
58255 56415 lineto
58745 56415 lineto
58745 55925 lineto
poly1
58500 53170 245 cir1
newpath
69680 56490 moveto
70320 56490 lineto
70320 55850 lineto
69680 55850 lineto
69680 56490 lineto
poly1
70000 54170 320 cir1
newpath
59745 46175 moveto
59255 46175 lineto
59255 46665 lineto
59745 46665 lineto
59745 46175 lineto
poly1
59500 47920 245 cir1
58500 51170 245 cir1
58500 52170 245 cir1
74000 43670 145 cir1
74000 38670 145 cir1
72000 43670 145 cir1
72000 38670 145 cir1
73000 38670 145 cir1
73000 43670 145 cir1
400 setlinewidth
newpath
56500 38170 moveto
56500 39170 lineto
stroke
newpath
64000 45170 moveto
64500 44670 lineto
stroke
newpath
62500 51170 moveto
61500 51170 lineto
stroke
newpath
56500 40170 moveto
56500 39170 lineto
stroke
newpath
60750 46420 moveto
59500 46420 lineto
stroke
newpath
61500 51170 moveto
61500 47170 lineto
stroke
newpath
61500 47170 moveto
60750 46420 lineto
stroke
newpath
59500 46420 moveto
59500 44670 lineto
stroke
newpath
59500 44670 moveto
63500 44670 lineto
stroke
newpath
62500 40170 moveto
61500 40170 lineto
stroke
newpath
64500 44670 moveto
64500 43670 lineto
stroke
newpath
64500 43670 moveto
64500 43170 lineto
stroke
newpath
63500 44670 moveto
64000 45170 lineto
stroke
newpath
64500 43170 moveto
64000 42670 lineto
stroke
newpath
64000 42670 moveto
62000 42670 lineto
stroke
newpath
62000 42670 moveto
61500 42170 lineto
stroke
newpath
61500 42170 moveto
61500 40170 lineto
stroke
newpath
61500 40170 moveto
61500 38170 lineto
stroke
newpath
61500 38170 moveto
60500 37170 lineto
stroke
newpath
60500 37170 moveto
57500 37170 lineto
stroke
newpath
57500 37170 moveto
56500 38170 lineto
stroke
newpath
60500 52170 moveto
59500 52170 lineto
stroke
newpath
57500 41170 moveto
58500 42170 lineto
stroke
newpath
57000 49170 moveto
59500 49170 lineto
stroke
newpath
67500 49170 moveto
67500 54170 lineto
stroke
newpath
67500 42670 moveto
67000 42170 lineto
stroke
newpath
59500 52170 moveto
58500 52170 lineto
stroke
newpath
59500 49170 moveto
59500 50170 lineto
stroke
newpath
58500 46920 moveto
59500 47920 lineto
stroke
newpath
68500 42670 moveto
68500 48170 lineto
stroke
newpath
70000 54170 moveto
67500 54170 lineto
stroke
newpath
68500 48170 moveto
67500 49170 lineto
stroke
newpath
67500 54170 moveto
66500 54170 lineto
stroke
newpath
54500 54170 moveto
54500 51670 lineto
stroke
newpath
57500 40170 moveto
57500 41170 lineto
stroke
newpath
59500 50170 moveto
60500 50170 lineto
stroke
newpath
57500 39170 moveto
57500 40170 lineto
stroke
newpath
54500 51670 moveto
57000 49170 lineto
stroke
newpath
68500 42670 moveto
67500 42670 lineto
stroke
newpath
60500 50170 moveto
60500 52170 lineto
stroke
newpath
70500 42170 moveto
76500 42170 lineto
stroke
newpath
54500 54170 moveto
54500 57170 lineto
stroke
newpath
54500 57170 moveto
76500 57170 lineto
stroke
newpath
76500 57170 moveto
76500 42170 lineto
stroke
newpath
76500 35670 moveto
62000 35670 lineto
stroke
newpath
76500 42170 moveto
76500 35670 lineto
stroke
newpath
54500 51670 moveto
54500 45670 lineto
stroke
newpath
60500 55170 moveto
55500 55170 lineto
stroke
newpath
70500 42670 moveto
70500 42170 lineto
stroke
newpath
70500 42170 moveto
70500 41670 lineto
stroke
newpath
59500 47920 moveto
59500 48670 lineto
stroke
newpath
67500 41670 moveto
67500 42670 lineto
stroke
newpath
58500 42170 moveto
58500 46920 lineto
stroke
newpath
67000 42170 moveto
65500 42170 lineto
stroke
newpath
61500 54170 moveto
60500 55170 lineto
stroke
newpath
66500 54170 moveto
61500 54170 lineto
stroke
newpath
55500 55170 moveto
54500 54170 lineto
stroke
newpath
59500 48670 moveto
59500 49170 lineto
stroke
newpath
73500 52670 moveto
71500 52670 lineto
stroke
newpath
70000 52670 moveto
68500 52670 lineto
stroke
newpath
71500 52670 moveto
70000 52670 lineto
stroke
newpath
59000 56170 moveto
70000 56170 lineto
stroke
newpath
70500 47670 moveto
73500 50670 lineto
stroke
newpath
58500 56170 moveto
59000 56170 lineto
stroke
newpath
74000 56170 moveto
75500 54670 lineto
stroke
newpath
75500 54670 moveto
75500 51670 lineto
stroke
newpath
74500 50670 moveto
73500 50670 lineto
stroke
newpath
70000 56170 moveto
74000 56170 lineto
stroke
newpath
75500 51670 moveto
74500 50670 lineto
stroke
newpath
60000 54170 moveto
62000 52170 lineto
stroke
newpath
56500 51170 moveto
55500 52170 lineto
stroke
newpath
55500 52170 moveto
55500 53670 lineto
stroke
newpath
55500 53670 moveto
56000 54170 lineto
stroke
newpath
62500 52170 moveto
64500 52170 lineto
stroke
newpath
65500 50170 moveto
65500 50670 lineto
stroke
newpath
64000 50170 moveto
65500 50170 lineto
stroke
newpath
56000 54170 moveto
60000 54170 lineto
stroke
newpath
62000 52170 moveto
62500 52170 lineto
stroke
newpath
64500 52170 moveto
65500 51170 lineto
stroke
newpath
65500 51170 moveto
65500 50170 lineto
stroke
newpath
56750 51170 moveto
56500 51170 lineto
stroke
newpath
67500 38670 moveto
68500 38670 lineto
stroke
newpath
70000 40670 moveto
70500 40670 lineto
stroke
newpath
68500 39170 moveto
70000 40670 lineto
stroke
newpath
68500 38670 moveto
68500 39170 lineto
stroke
newpath
72000 51670 moveto
73500 51670 lineto
stroke
newpath
71500 51170 moveto
72000 51670 lineto
stroke
newpath
69500 46670 moveto
70500 46670 lineto
stroke
newpath
68500 49670 moveto
70000 49670 lineto
stroke
newpath
70500 49670 moveto
71500 49670 lineto
stroke
newpath
70000 49670 moveto
70500 49670 lineto
stroke
newpath
69500 49170 moveto
70000 49670 lineto
stroke
newpath
69500 46670 moveto
69500 49170 lineto
stroke
newpath
71500 49670 moveto
71500 51170 lineto
stroke
newpath
70500 39670 moveto
73000 39670 lineto
stroke
newpath
73000 39670 moveto
73500 39670 lineto
stroke
newpath
72500 46670 moveto
70500 46670 lineto
stroke
newpath
74000 45170 moveto
72500 46670 lineto
stroke
newpath
74000 43670 moveto
74000 45170 lineto
stroke
newpath
74000 39170 moveto
74000 38670 lineto
stroke
newpath
73500 39670 moveto
74000 39170 lineto
stroke
newpath
66000 43670 moveto
66500 43670 lineto
stroke
newpath
64500 42170 moveto
66000 43670 lineto
stroke
newpath
59500 53170 moveto
58000 53170 lineto
stroke
newpath
58000 53170 moveto
58500 53170 lineto
stroke
newpath
58500 53170 moveto
56750 53170 lineto
stroke
newpath
59500 51170 moveto
58500 51170 lineto
stroke
newpath
65500 53170 moveto
62500 53170 lineto
stroke
newpath
65500 38170 moveto
65500 39170 lineto
stroke
newpath
66000 37670 moveto
65500 38170 lineto
stroke
newpath
70500 38670 moveto
70500 38170 lineto
stroke
newpath
70000 37670 moveto
66000 37670 lineto
stroke
newpath
70500 38170 moveto
70000 37670 lineto
stroke
newpath
72000 38670 moveto
70500 38670 lineto
stroke
newpath
70500 43670 moveto
72000 43670 lineto
stroke
newpath
68000 40670 moveto
69500 42170 lineto
stroke
newpath
69500 42170 moveto
69500 44670 lineto
stroke
newpath
69500 44670 moveto
70500 45670 lineto
stroke
newpath
67500 40670 moveto
68000 40670 lineto
stroke
newpath
72000 45670 moveto
73000 44670 lineto
stroke
newpath
73000 44670 moveto
73000 43670 lineto
stroke
newpath
73000 38670 moveto
73000 37670 lineto
stroke
newpath
73000 37670 moveto
72000 36670 lineto
stroke
newpath
72000 36670 moveto
65500 36670 lineto
stroke
newpath
65500 36670 moveto
64500 37670 lineto
stroke
newpath
64500 37670 moveto
64500 39170 lineto
stroke
newpath
70500 45670 moveto
72000 45670 lineto
stroke
newpath
63000 41670 moveto
63500 41170 lineto
stroke
newpath
63500 41170 moveto
63500 40170 lineto
stroke
newpath
63500 39170 moveto
63500 40170 lineto
stroke
newpath
63000 41670 moveto
62500 41670 lineto
stroke
newpath
67500 46670 moveto
62500 46670 lineto
stroke
newpath
67500 44670 moveto
67500 45670 lineto
stroke
newpath
67500 43670 moveto
67500 44670 lineto
stroke
newpath
64500 47670 moveto
63300 49170 lineto
stroke
newpath
63300 49170 moveto
62500 50170 lineto
stroke
newpath
66500 49670 moveto
66000 49170 lineto
stroke
newpath
66500 47670 moveto
64500 47670 lineto
stroke
newpath
66000 49170 moveto
63300 49170 lineto
stroke
newpath
67500 47670 moveto
66500 47670 lineto
stroke
newpath
66500 51170 moveto
66500 49670 lineto
stroke
newpath
55500 41670 moveto
55500 44170 lineto
stroke
newpath
56000 44670 moveto
56500 44670 lineto
stroke
newpath
55500 44170 moveto
56000 44670 lineto
stroke
newpath
67500 39670 moveto
67000 39670 lineto
stroke
newpath
66500 40170 moveto
65500 40170 lineto
stroke
newpath
67000 39670 moveto
66500 40170 lineto
stroke
newpath
65500 40170 moveto
65500 40670 lineto
stroke
newpath
65000 41170 moveto
64500 41170 lineto
stroke
newpath
65500 40670 moveto
65000 41170 lineto
stroke
newpath
60500 38670 moveto
60000 38170 lineto
stroke
newpath
58500 38670 moveto
58500 39170 lineto
stroke
newpath
63500 43670 moveto
62500 43670 lineto
stroke
newpath
59000 38170 moveto
58500 38670 lineto
stroke
newpath
62500 43670 moveto
61500 43670 lineto
stroke
newpath
60500 42670 moveto
60500 38670 lineto
stroke
newpath
61500 43670 moveto
60500 42670 lineto
stroke
newpath
58500 39170 moveto
58500 40170 lineto
stroke
newpath
60000 38170 moveto
59000 38170 lineto
stroke
newpath
62500 37670 moveto
62500 39170 lineto
stroke
newpath
61000 36170 moveto
62500 37670 lineto
stroke
newpath
54500 37170 moveto
55500 36170 lineto
stroke
newpath
55500 36170 moveto
61000 36170 lineto
stroke
newpath
57000 45670 moveto
55500 45670 lineto
stroke
newpath
54500 44670 moveto
54500 37170 lineto
stroke
newpath
55500 45670 moveto
54500 44670 lineto
stroke
newpath
56500 43670 moveto
57500 43670 lineto
stroke
newpath
57500 43670 moveto
57500 45170 lineto
stroke
newpath
57500 45170 moveto
57000 45670 lineto
stroke
newpath
59500 40170 moveto
59500 41170 lineto
stroke
newpath
59500 39170 moveto
59500 40170 lineto
stroke
newpath
59500 41170 moveto
59500 43670 lineto
stroke
1 1 1 setrgbcolor
60 setlinewidth
74000 43670 45 cir1
74000 38670 45 cir1
72000 43670 45 cir1
72000 38670 45 cir1
73000 38670 45 cir1
73000 43670 45 cir1
65500 42170 45 cir1
64500 42170 45 cir1
64500 41170 45 cir1
73500 52670 45 cir1
73500 51670 45 cir1
73500 50670 45 cir1
56750 51170 45 cir1
56750 53170 45 cir1
50500 52170 45 cir1
62500 41670 45 cir1
55500 41670 45 cir1
64000 45170 45 cir1
64000 50170 45 cir1
62500 46670 45 cir1
62500 43670 45 cir1
68500 49670 45 cir1
68500 52670 45 cir1
70000 49670 45 cir1
70000 52670 45 cir1
71500 49670 45 cir1
71500 52670 45 cir1
66500 54170 45 cir1
66500 51170 45 cir1
67500 47670 45 cir1
70500 47670 45 cir1
65500 53170 45 cir1
65500 50170 45 cir1
62500 40170 45 cir1
65500 40170 45 cir1
66500 43670 45 cir1
63500 43670 45 cir1
56500 39170 45 cir1
56500 40170 45 cir1
57500 39170 45 cir1
57500 40170 45 cir1
58500 39170 45 cir1
58500 40170 45 cir1
59500 39170 45 cir1
59500 40170 45 cir1
65500 39170 45 cir1
64500 39170 45 cir1
63500 39170 45 cir1
62500 39170 45 cir1
59500 53170 45 cir1
59500 52170 45 cir1
59500 51170 45 cir1
59500 50170 45 cir1
62500 50170 45 cir1
62500 51170 45 cir1
62500 52170 45 cir1
62500 53170 45 cir1
70500 40670 45 cir1
70500 41670 45 cir1
67500 41670 45 cir1
67500 40670 45 cir1
56500 44670 45 cir1
56500 43670 45 cir1
59500 43670 45 cir1
59500 44670 45 cir1
67500 39670 45 cir1
67500 38670 45 cir1
70500 38670 45 cir1
70500 39670 45 cir1
67500 43670 45 cir1
67500 42670 45 cir1
70500 42670 45 cir1
70500 43670 45 cir1
67500 46670 45 cir1
67500 45670 45 cir1
70500 45670 45 cir1
70500 46670 45 cir1
58500 56170 45 cir1
58500 53170 45 cir1
70000 56170 45 cir1
70000 54170 45 cir1
59500 46420 45 cir1
59500 47920 45 cir1
58500 51170 45 cir1
58500 52170 45 cir1
0 0 0 setrgbcolor
showpage
grestore
%%EOF
