%!PS-Adobe-3.0
%%Creator: PCBNEW
%%CreationDate: Fri Jul 17 16:38:07 2015
%%Title: /home/max/av/!мое/паяние/kicad/телеграф модульный/модуль ком порта 2/com-port-module-2-F_SilkS.ps
%%Pages: 1
%%PageOrder: Ascend
%%BoundingBox: 0 0 842 1191
%%DocumentMedia: A3 842 1191 0 () ()
%%Orientation: Landscape
%%EndComments
%%BeginProlog
/line { newpath moveto lineto stroke } bind def
/cir0 { newpath 0 360 arc stroke } bind def
/cir1 { newpath 0 360 arc gsave fill grestore stroke } bind def
/cir2 { newpath 0 360 arc gsave fill grestore stroke } bind def
/arc0 { newpath arc stroke } bind def
/arc1 { newpath 4 index 4 index moveto arc closepath gsave fill
    grestore stroke } bind def
/arc2 { newpath 4 index 4 index moveto arc closepath gsave fill
    grestore stroke } bind def
/poly0 { stroke } bind def
/poly1 { closepath gsave fill grestore stroke } bind def
/poly2 { closepath gsave fill grestore stroke } bind def
/rect0 { rectstroke } bind def
/rect1 { rectfill } bind def
/rect2 { rectfill } bind def
/linemode0 { 0 setlinecap 0 setlinejoin 0 setlinewidth } bind def
/linemode1 { 1 setlinecap 1 setlinejoin } bind def
/dashedline { [200] 100 setdash } bind def
/solidline { [] 0 setdash } bind def
/phantomshow { moveto
    /KicadFont findfont 0.000001 scalefont setfont
    show } bind def
/textshow { gsave
    findfont exch scalefont setfont concat 1 scale 0 0 moveto show
    } bind def
/reencodefont {
  findfont dup length dict begin
  { 1 index /FID ne
    { def }
    { pop pop } ifelse
  } forall
  /Encoding ISOLatin1Encoding def
  currentdict
  end } bind def
/KicadFont /Helvetica reencodefont definefont pop
/KicadFont-Bold /Helvetica-Bold reencodefont definefont pop
/KicadFont-Oblique /Helvetica-Oblique reencodefont definefont pop
/KicadFont-BoldOblique /Helvetica-BoldOblique reencodefont definefont pop
%%EndProlog
%%Page: 1 1
%%BeginPageSetup
gsave
0.0072 0.0072 scale
linemode1
116930 0 translate 90 rotate
59.0551 setlinewidth
%%EndPageSetup
0 0 0 setrgbcolor
0 0 0 setrgbcolor
50 setlinewidth
newpath
72050 86730 moveto
71150 86730 lineto
stroke
0 0 0 setrgbcolor
newpath
71150 86730 moveto
71150 86080 lineto
stroke
0 0 0 setrgbcolor
newpath
72050 85380 moveto
72050 84730 lineto
stroke
0 0 0 setrgbcolor
newpath
72050 84730 moveto
71150 84730 lineto
stroke
0 0 0 setrgbcolor
newpath
71150 84730 moveto
71150 85380 lineto
stroke
0 0 0 setrgbcolor
newpath
72050 86080 moveto
72050 86730 lineto
stroke
0 0 0 setrgbcolor
newpath
75250 86730 moveto
74350 86730 lineto
stroke
0 0 0 setrgbcolor
newpath
74350 86730 moveto
74350 86080 lineto
stroke
0 0 0 setrgbcolor
newpath
75250 85380 moveto
75250 84730 lineto
stroke
0 0 0 setrgbcolor
newpath
75250 84730 moveto
74350 84730 lineto
stroke
0 0 0 setrgbcolor
newpath
74350 84730 moveto
74350 85380 lineto
stroke
0 0 0 setrgbcolor
newpath
75250 86080 moveto
75250 86730 lineto
stroke
0 0 0 setrgbcolor
newpath
79250 88380 moveto
78350 88380 lineto
stroke
0 0 0 setrgbcolor
newpath
78350 88380 moveto
78350 87730 lineto
stroke
0 0 0 setrgbcolor
newpath
79250 87030 moveto
79250 86380 lineto
stroke
0 0 0 setrgbcolor
newpath
79250 86380 moveto
78350 86380 lineto
stroke
0 0 0 setrgbcolor
newpath
78350 86380 moveto
78350 87030 lineto
stroke
0 0 0 setrgbcolor
newpath
79250 87730 moveto
79250 88380 lineto
stroke
0 0 0 setrgbcolor
newpath
73650 86730 moveto
72750 86730 lineto
stroke
0 0 0 setrgbcolor
newpath
72750 86730 moveto
72750 86080 lineto
stroke
0 0 0 setrgbcolor
newpath
73650 85380 moveto
73650 84730 lineto
stroke
0 0 0 setrgbcolor
newpath
73650 84730 moveto
72750 84730 lineto
stroke
0 0 0 setrgbcolor
newpath
72750 84730 moveto
72750 85380 lineto
stroke
0 0 0 setrgbcolor
newpath
73650 86080 moveto
73650 86730 lineto
stroke
0 0 0 setrgbcolor
newpath
75350 87130 moveto
76250 87130 lineto
stroke
0 0 0 setrgbcolor
newpath
76250 87130 moveto
76250 87780 lineto
stroke
0 0 0 setrgbcolor
newpath
75350 88480 moveto
75350 89130 lineto
stroke
0 0 0 setrgbcolor
newpath
75350 89130 moveto
76250 89130 lineto
stroke
0 0 0 setrgbcolor
newpath
76250 89130 moveto
76250 88480 lineto
stroke
0 0 0 setrgbcolor
newpath
75350 87780 moveto
75350 87130 lineto
stroke
0 0 0 setrgbcolor
newpath
73200 87680 moveto
73200 88580 lineto
stroke
0 0 0 setrgbcolor
newpath
73200 88580 moveto
72550 88580 lineto
stroke
0 0 0 setrgbcolor
newpath
71850 87680 moveto
71200 87680 lineto
stroke
0 0 0 setrgbcolor
newpath
71200 87680 moveto
71200 88580 lineto
stroke
0 0 0 setrgbcolor
newpath
71200 88580 moveto
71850 88580 lineto
stroke
0 0 0 setrgbcolor
newpath
72550 87680 moveto
73200 87680 lineto
stroke
0 0 0 setrgbcolor
newpath
78350 88730 moveto
79250 88730 lineto
stroke
0 0 0 setrgbcolor
newpath
79250 88730 moveto
79250 89380 lineto
stroke
0 0 0 setrgbcolor
newpath
78350 90080 moveto
78350 90730 lineto
stroke
0 0 0 setrgbcolor
newpath
78350 90730 moveto
79250 90730 lineto
stroke
0 0 0 setrgbcolor
newpath
79250 90730 moveto
79250 90080 lineto
stroke
0 0 0 setrgbcolor
newpath
78350 89380 moveto
78350 88730 lineto
stroke
0 0 0 setrgbcolor
newpath
73200 89080 moveto
73200 89980 lineto
stroke
0 0 0 setrgbcolor
newpath
73200 89980 moveto
72550 89980 lineto
stroke
0 0 0 setrgbcolor
newpath
71850 89080 moveto
71200 89080 lineto
stroke
0 0 0 setrgbcolor
newpath
71200 89080 moveto
71200 89980 lineto
stroke
0 0 0 setrgbcolor
newpath
71200 89980 moveto
71850 89980 lineto
stroke
0 0 0 setrgbcolor
newpath
72550 89080 moveto
73200 89080 lineto
stroke
0 0 0 setrgbcolor
newpath
74400 91380 moveto
74400 90480 lineto
stroke
0 0 0 setrgbcolor
newpath
74400 90480 moveto
75050 90480 lineto
stroke
0 0 0 setrgbcolor
newpath
75750 91380 moveto
76400 91380 lineto
stroke
0 0 0 setrgbcolor
newpath
76400 91380 moveto
76400 90480 lineto
stroke
0 0 0 setrgbcolor
newpath
76400 90480 moveto
75750 90480 lineto
stroke
0 0 0 setrgbcolor
newpath
75050 91380 moveto
74400 91380 lineto
stroke
0 0 0 setrgbcolor
100 setlinewidth
newpath
81300 83930 moveto
81300 87930 lineto
stroke
0 0 0 setrgbcolor
newpath
82300 83930 moveto
82300 87930 lineto
stroke
0 0 0 setrgbcolor
newpath
82300 87930 moveto
81300 87930 lineto
stroke
0 0 0 setrgbcolor
newpath
81300 83930 moveto
82300 83930 lineto
stroke
0 0 0 setrgbcolor
60 setlinewidth
newpath
82300 88430 moveto
81300 88430 lineto
stroke
0 0 0 setrgbcolor
newpath
81300 88430 moveto
81300 91430 lineto
stroke
0 0 0 setrgbcolor
newpath
81300 91430 moveto
82300 91430 lineto
stroke
0 0 0 setrgbcolor
newpath
82300 91430 moveto
82300 88430 lineto
stroke
0 0 0 setrgbcolor
newpath
81300 89430 moveto
82300 89430 lineto
stroke
0 0 0 setrgbcolor
newpath
67500 89030 moveto
68500 89030 lineto
stroke
0 0 0 setrgbcolor
newpath
68500 89030 moveto
68500 86030 lineto
stroke
0 0 0 setrgbcolor
newpath
68500 86030 moveto
67500 86030 lineto
stroke
0 0 0 setrgbcolor
newpath
67500 86030 moveto
67500 89030 lineto
stroke
0 0 0 setrgbcolor
newpath
68500 88030 moveto
67500 88030 lineto
stroke
0 0 0 setrgbcolor
120 setlinewidth
newpath
69450 91830 moveto
82250 91830 lineto
stroke
0 0 0 setrgbcolor
newpath
82250 91830 moveto
82250 98830 lineto
stroke
0 0 0 setrgbcolor
newpath
82250 98830 moveto
69450 98830 lineto
stroke
0 0 0 setrgbcolor
newpath
69450 98830 moveto
69450 91830 lineto
stroke
0 0 0 setrgbcolor
newpath
72250 98830 moveto
72250 95830 lineto
stroke
0 0 0 setrgbcolor
newpath
72250 95830 moveto
79450 95830 lineto
stroke
0 0 0 setrgbcolor
newpath
79450 95830 moveto
79450 98830 lineto
stroke
0 0 0 setrgbcolor
newpath
72850 98830 moveto
72850 102230 lineto
stroke
0 0 0 setrgbcolor
newpath
72850 102230 moveto
78850 102230 lineto
stroke
0 0 0 setrgbcolor
newpath
78850 102230 moveto
78850 98830 lineto
stroke
0 0 0 setrgbcolor
newpath
70700 90930 moveto
71000 90930 lineto
stroke
0 0 0 setrgbcolor
newpath
71000 90930 moveto
71000 90530 lineto
stroke
0 0 0 setrgbcolor
newpath
71000 90530 moveto
73400 90530 lineto
stroke
0 0 0 setrgbcolor
newpath
73400 90530 moveto
73400 90930 lineto
stroke
0 0 0 setrgbcolor
newpath
73400 90930 moveto
73700 90930 lineto
stroke
0 0 0 setrgbcolor
newpath
73400 90930 moveto
73400 91330 lineto
stroke
0 0 0 setrgbcolor
newpath
73400 91330 moveto
71000 91330 lineto
stroke
0 0 0 setrgbcolor
newpath
71000 91330 moveto
71000 90930 lineto
stroke
0 0 0 setrgbcolor
newpath
71200 90530 moveto
71200 91330 lineto
stroke
0 0 0 setrgbcolor
newpath
71300 91330 moveto
71300 90530 lineto
stroke
0 0 0 setrgbcolor
50 setlinewidth
newpath
75000 87580 moveto
73800 87580 lineto
stroke
0 0 0 setrgbcolor
newpath
73800 87580 moveto
73800 87880 lineto
stroke
0 0 0 setrgbcolor
newpath
73800 87880 moveto
75000 87880 lineto
stroke
0 0 0 setrgbcolor
newpath
75000 87880 moveto
75000 87580 lineto
stroke
0 0 0 setrgbcolor
newpath
77800 89980 moveto
76600 89980 lineto
stroke
0 0 0 setrgbcolor
newpath
76600 89980 moveto
76600 90280 lineto
stroke
0 0 0 setrgbcolor
newpath
76600 90280 moveto
77800 90280 lineto
stroke
0 0 0 setrgbcolor
newpath
77800 90280 moveto
77800 89980 lineto
stroke
0 0 0 setrgbcolor
newpath
73800 89480 moveto
75000 89480 lineto
stroke
0 0 0 setrgbcolor
newpath
75000 89480 moveto
75000 89180 lineto
stroke
0 0 0 setrgbcolor
newpath
75000 89180 moveto
73800 89180 lineto
stroke
0 0 0 setrgbcolor
newpath
73800 89180 moveto
73800 89480 lineto
stroke
0 0 0 setrgbcolor
newpath
76250 85530 moveto
76250 86730 lineto
stroke
0 0 0 setrgbcolor
newpath
76250 86730 moveto
76550 86730 lineto
stroke
0 0 0 setrgbcolor
newpath
76550 86730 moveto
76550 85530 lineto
stroke
0 0 0 setrgbcolor
newpath
76550 85530 moveto
76250 85530 lineto
stroke
0 0 0 setrgbcolor
newpath
78000 87380 moveto
76800 87380 lineto
stroke
0 0 0 setrgbcolor
newpath
76800 87380 moveto
76800 87680 lineto
stroke
0 0 0 setrgbcolor
newpath
76800 87680 moveto
78000 87680 lineto
stroke
0 0 0 setrgbcolor
newpath
78000 87680 moveto
78000 87380 lineto
stroke
0 0 0 setrgbcolor
newpath
79800 86380 moveto
80700 86380 lineto
stroke
0 0 0 setrgbcolor
newpath
80700 86380 moveto
80700 87030 lineto
stroke
0 0 0 setrgbcolor
newpath
79800 87730 moveto
79800 88380 lineto
stroke
0 0 0 setrgbcolor
newpath
79800 88380 moveto
80700 88380 lineto
stroke
0 0 0 setrgbcolor
newpath
80700 88380 moveto
80700 87730 lineto
stroke
0 0 0 setrgbcolor
newpath
79800 87030 moveto
79800 86380 lineto
stroke
0 0 0 setrgbcolor
newpath
68800 86980 moveto
68800 86080 lineto
stroke
0 0 0 setrgbcolor
newpath
68800 86080 moveto
69450 86080 lineto
stroke
0 0 0 setrgbcolor
newpath
70150 86980 moveto
70800 86980 lineto
stroke
0 0 0 setrgbcolor
newpath
70800 86980 moveto
70800 86080 lineto
stroke
0 0 0 setrgbcolor
newpath
70800 86080 moveto
70150 86080 lineto
stroke
0 0 0 setrgbcolor
newpath
69450 86980 moveto
68800 86980 lineto
stroke
0 0 0 setrgbcolor
newpath
68800 88980 moveto
68800 88080 lineto
stroke
0 0 0 setrgbcolor
newpath
68800 88080 moveto
69450 88080 lineto
stroke
0 0 0 setrgbcolor
newpath
70150 88980 moveto
70800 88980 lineto
stroke
0 0 0 setrgbcolor
newpath
70800 88980 moveto
70800 88080 lineto
stroke
0 0 0 setrgbcolor
newpath
70800 88080 moveto
70150 88080 lineto
stroke
0 0 0 setrgbcolor
newpath
69450 88980 moveto
68800 88980 lineto
stroke
0 0 0 setrgbcolor
80 setlinewidth
newpath
80400 88880 moveto
80400 89080 lineto
stroke
0 0 0 setrgbcolor
newpath
80400 91880 moveto
80400 91680 lineto
stroke
0 0 0 setrgbcolor
newpath
80400 91680 moveto
80000 91680 lineto
stroke
0 0 0 setrgbcolor
newpath
80000 91680 moveto
80000 89080 lineto
stroke
0 0 0 setrgbcolor
newpath
80000 89080 moveto
80800 89080 lineto
stroke
0 0 0 setrgbcolor
newpath
80800 89080 moveto
80800 91680 lineto
stroke
0 0 0 setrgbcolor
newpath
80800 91680 moveto
80400 91680 lineto
stroke
0 0 0 setrgbcolor
newpath
80200 89080 moveto
80000 89280 lineto
stroke
0 0 0 setrgbcolor
50 setlinewidth
0 0 0 setrgbcolor
(R4) 71600 85730 phantomshow
0 0 0 setrgbcolor
newpath
71721.4 85680 moveto
71578.6 85580 lineto
stroke
newpath
71721.4 85508.6 moveto
71421.4 85508.6 lineto
71421.4 85622.9 lineto
71435.7 85651.4 lineto
71450 85665.7 lineto
71478.6 85680 lineto
71521.4 85680 lineto
71550 85665.7 lineto
71564.3 85651.4 lineto
71578.6 85622.9 lineto
71578.6 85508.6 lineto
stroke
newpath
71521.4 85937.1 moveto
71721.4 85937.1 lineto
stroke
newpath
71407.1 85865.7 moveto
71621.4 85794.3 lineto
71621.4 85980 lineto
stroke
0 0 0 setrgbcolor
0 0 0 setrgbcolor
(R2) 74800 85730 phantomshow
0 0 0 setrgbcolor
newpath
74921.4 85680 moveto
74778.6 85580 lineto
stroke
newpath
74921.4 85508.6 moveto
74621.4 85508.6 lineto
74621.4 85622.9 lineto
74635.7 85651.4 lineto
74650 85665.7 lineto
74678.6 85680 lineto
74721.4 85680 lineto
74750 85665.7 lineto
74764.3 85651.4 lineto
74778.6 85622.9 lineto
74778.6 85508.6 lineto
stroke
newpath
74650 85794.3 moveto
74635.7 85808.6 lineto
74621.4 85837.1 lineto
74621.4 85908.6 lineto
74635.7 85937.1 lineto
74650 85951.4 lineto
74678.6 85965.7 lineto
74707.1 85965.7 lineto
74750 85951.4 lineto
74921.4 85780 lineto
74921.4 85965.7 lineto
stroke
0 0 0 setrgbcolor
0 0 0 setrgbcolor
(R5) 78800 87380 phantomshow
0 0 0 setrgbcolor
newpath
78921.4 87330 moveto
78778.6 87230 lineto
stroke
newpath
78921.4 87158.6 moveto
78621.4 87158.6 lineto
78621.4 87272.9 lineto
78635.7 87301.4 lineto
78650 87315.7 lineto
78678.6 87330 lineto
78721.4 87330 lineto
78750 87315.7 lineto
78764.3 87301.4 lineto
78778.6 87272.9 lineto
78778.6 87158.6 lineto
stroke
newpath
78621.4 87601.4 moveto
78621.4 87458.6 lineto
78764.3 87444.3 lineto
78750 87458.6 lineto
78735.7 87487.1 lineto
78735.7 87558.6 lineto
78750 87587.1 lineto
78764.3 87601.4 lineto
78792.9 87615.7 lineto
78864.3 87615.7 lineto
78892.9 87601.4 lineto
78907.1 87587.1 lineto
78921.4 87558.6 lineto
78921.4 87487.1 lineto
78907.1 87458.6 lineto
78892.9 87444.3 lineto
stroke
0 0 0 setrgbcolor
0 0 0 setrgbcolor
(R1) 73200 85730 phantomshow
0 0 0 setrgbcolor
newpath
73321.4 85680 moveto
73178.6 85580 lineto
stroke
newpath
73321.4 85508.6 moveto
73021.4 85508.6 lineto
73021.4 85622.9 lineto
73035.7 85651.4 lineto
73050 85665.7 lineto
73078.6 85680 lineto
73121.4 85680 lineto
73150 85665.7 lineto
73164.3 85651.4 lineto
73178.6 85622.9 lineto
73178.6 85508.6 lineto
stroke
newpath
73321.4 85965.7 moveto
73321.4 85794.3 lineto
stroke
newpath
73321.4 85880 moveto
73021.4 85880 lineto
73064.3 85851.4 lineto
73092.9 85822.9 lineto
73107.1 85794.3 lineto
stroke
0 0 0 setrgbcolor
0 0 0 setrgbcolor
(R3) 75800 88130 phantomshow
0 0 0 setrgbcolor
newpath
75921.4 88080 moveto
75778.6 87980 lineto
stroke
newpath
75921.4 87908.6 moveto
75621.4 87908.6 lineto
75621.4 88022.9 lineto
75635.7 88051.4 lineto
75650 88065.7 lineto
75678.6 88080 lineto
75721.4 88080 lineto
75750 88065.7 lineto
75764.3 88051.4 lineto
75778.6 88022.9 lineto
75778.6 87908.6 lineto
stroke
newpath
75621.4 88180 moveto
75621.4 88365.7 lineto
75735.7 88265.7 lineto
75735.7 88308.6 lineto
75750 88337.1 lineto
75764.3 88351.4 lineto
75792.9 88365.7 lineto
75864.3 88365.7 lineto
75892.9 88351.4 lineto
75907.1 88337.1 lineto
75921.4 88308.6 lineto
75921.4 88222.9 lineto
75907.1 88194.3 lineto
75892.9 88180 lineto
stroke
0 0 0 setrgbcolor
0 0 0 setrgbcolor
(R7) 72200 88130 phantomshow
0 0 0 setrgbcolor
newpath
72150 88008.6 moveto
72050 88151.4 lineto
stroke
newpath
71978.6 88008.6 moveto
71978.6 88308.6 lineto
72092.9 88308.6 lineto
72121.4 88294.3 lineto
72135.7 88280 lineto
72150 88251.4 lineto
72150 88208.6 lineto
72135.7 88180 lineto
72121.4 88165.7 lineto
72092.9 88151.4 lineto
71978.6 88151.4 lineto
stroke
newpath
72250 88308.6 moveto
72450 88308.6 lineto
72321.4 88008.6 lineto
stroke
0 0 0 setrgbcolor
0 0 0 setrgbcolor
(R6) 78800 89730 phantomshow
0 0 0 setrgbcolor
newpath
78921.4 89680 moveto
78778.6 89580 lineto
stroke
newpath
78921.4 89508.6 moveto
78621.4 89508.6 lineto
78621.4 89622.9 lineto
78635.7 89651.4 lineto
78650 89665.7 lineto
78678.6 89680 lineto
78721.4 89680 lineto
78750 89665.7 lineto
78764.3 89651.4 lineto
78778.6 89622.9 lineto
78778.6 89508.6 lineto
stroke
newpath
78621.4 89937.1 moveto
78621.4 89880 lineto
78635.7 89851.4 lineto
78650 89837.1 lineto
78692.9 89808.6 lineto
78750 89794.3 lineto
78864.3 89794.3 lineto
78892.9 89808.6 lineto
78907.1 89822.9 lineto
78921.4 89851.4 lineto
78921.4 89908.6 lineto
78907.1 89937.1 lineto
78892.9 89951.4 lineto
78864.3 89965.7 lineto
78792.9 89965.7 lineto
78764.3 89951.4 lineto
78750 89937.1 lineto
78735.7 89908.6 lineto
78735.7 89851.4 lineto
78750 89822.9 lineto
78764.3 89808.6 lineto
78792.9 89794.3 lineto
stroke
0 0 0 setrgbcolor
0 0 0 setrgbcolor
(R9) 72200 89530 phantomshow
0 0 0 setrgbcolor
newpath
72150 89408.6 moveto
72050 89551.4 lineto
stroke
newpath
71978.6 89408.6 moveto
71978.6 89708.6 lineto
72092.9 89708.6 lineto
72121.4 89694.3 lineto
72135.7 89680 lineto
72150 89651.4 lineto
72150 89608.6 lineto
72135.7 89580 lineto
72121.4 89565.7 lineto
72092.9 89551.4 lineto
71978.6 89551.4 lineto
stroke
newpath
72292.9 89408.6 moveto
72350 89408.6 lineto
72378.6 89422.9 lineto
72392.9 89437.1 lineto
72421.4 89480 lineto
72435.7 89537.1 lineto
72435.7 89651.4 lineto
72421.4 89680 lineto
72407.1 89694.3 lineto
72378.6 89708.6 lineto
72321.4 89708.6 lineto
72292.9 89694.3 lineto
72278.6 89680 lineto
72264.3 89651.4 lineto
72264.3 89580 lineto
72278.6 89551.4 lineto
72292.9 89537.1 lineto
72321.4 89522.9 lineto
72378.6 89522.9 lineto
72407.1 89537.1 lineto
72421.4 89551.4 lineto
72435.7 89580 lineto
stroke
0 0 0 setrgbcolor
0 0 0 setrgbcolor
(R10) 75400 90930 phantomshow
0 0 0 setrgbcolor
newpath
75207.1 90808.6 moveto
75107.1 90951.4 lineto
stroke
newpath
75035.7 90808.6 moveto
75035.7 91108.6 lineto
75150 91108.6 lineto
75178.6 91094.3 lineto
75192.9 91080 lineto
75207.1 91051.4 lineto
75207.1 91008.6 lineto
75192.9 90980 lineto
75178.6 90965.7 lineto
75150 90951.4 lineto
75035.7 90951.4 lineto
stroke
newpath
75492.9 90808.6 moveto
75321.4 90808.6 lineto
stroke
newpath
75407.1 90808.6 moveto
75407.1 91108.6 lineto
75378.6 91065.7 lineto
75350 91037.1 lineto
75321.4 91022.9 lineto
stroke
newpath
75678.6 91108.6 moveto
75707.1 91108.6 lineto
75735.7 91094.3 lineto
75750 91080 lineto
75764.3 91051.4 lineto
75778.6 90994.3 lineto
75778.6 90922.9 lineto
75764.3 90865.7 lineto
75750 90837.1 lineto
75735.7 90822.9 lineto
75707.1 90808.6 lineto
75678.6 90808.6 lineto
75650 90822.9 lineto
75635.7 90837.1 lineto
75621.4 90865.7 lineto
75607.1 90922.9 lineto
75607.1 90994.3 lineto
75621.4 91051.4 lineto
75635.7 91080 lineto
75650 91094.3 lineto
75678.6 91108.6 lineto
stroke
0 0 0 setrgbcolor
80 setlinewidth
0 0 0 setrgbcolor
(P1) 82800 85930 phantomshow
0 0 0 setrgbcolor
newpath
82961.9 85634.8 moveto
82561.9 85634.8 lineto
82561.9 85787.1 lineto
82581 85825.2 lineto
82600 85844.3 lineto
82638.1 85863.3 lineto
82695.2 85863.3 lineto
82733.3 85844.3 lineto
82752.4 85825.2 lineto
82771.4 85787.1 lineto
82771.4 85634.8 lineto
stroke
newpath
82961.9 86244.3 moveto
82961.9 86015.7 lineto
stroke
newpath
82961.9 86130 moveto
82561.9 86130 lineto
82619 86091.9 lineto
82657.1 86053.8 lineto
82676.2 86015.7 lineto
stroke
0 0 0 setrgbcolor
60 setlinewidth
0 0 0 setrgbcolor
(JP2) 80950 90030 phantomshow
0 0 0 setrgbcolor
newpath
80711.9 89696.7 moveto
80997.6 89696.7 lineto
81054.8 89677.6 lineto
81092.9 89639.5 lineto
81111.9 89582.4 lineto
81111.9 89544.3 lineto
stroke
newpath
81111.9 89887.1 moveto
80711.9 89887.1 lineto
80711.9 90039.5 lineto
80731 90077.6 lineto
80750 90096.7 lineto
80788.1 90115.7 lineto
80845.2 90115.7 lineto
80883.3 90096.7 lineto
80902.4 90077.6 lineto
80921.4 90039.5 lineto
80921.4 89887.1 lineto
stroke
newpath
80750 90268.1 moveto
80731 90287.1 lineto
80711.9 90325.2 lineto
80711.9 90420.5 lineto
80731 90458.6 lineto
80750 90477.6 lineto
80788.1 90496.7 lineto
80826.2 90496.7 lineto
80883.3 90477.6 lineto
81111.9 90249 lineto
81111.9 90496.7 lineto
stroke
0 0 0 setrgbcolor
0 0 0 setrgbcolor
(JP1) 68850 87430 phantomshow
0 0 0 setrgbcolor
newpath
68611.9 87096.7 moveto
68897.6 87096.7 lineto
68954.8 87077.6 lineto
68992.9 87039.5 lineto
69011.9 86982.4 lineto
69011.9 86944.3 lineto
stroke
newpath
69011.9 87287.1 moveto
68611.9 87287.1 lineto
68611.9 87439.5 lineto
68631 87477.6 lineto
68650 87496.7 lineto
68688.1 87515.7 lineto
68745.2 87515.7 lineto
68783.3 87496.7 lineto
68802.4 87477.6 lineto
68821.4 87439.5 lineto
68821.4 87287.1 lineto
stroke
newpath
69011.9 87896.7 moveto
69011.9 87668.1 lineto
stroke
newpath
69011.9 87782.4 moveto
68611.9 87782.4 lineto
68669 87744.3 lineto
68707.1 87706.2 lineto
68726.2 87668.1 lineto
stroke
0 0 0 setrgbcolor
120 setlinewidth
0 0 0 setrgbcolor
(J1) 76300 96730 phantomshow
0 0 0 setrgbcolor
newpath
76100 97087.1 moveto
76100 96658.6 lineto
76071.4 96572.9 lineto
76014.3 96515.7 lineto
75928.6 96487.1 lineto
75871.4 96487.1 lineto
stroke
newpath
76700 96487.1 moveto
76357.1 96487.1 lineto
stroke
newpath
76528.6 96487.1 moveto
76528.6 97087.1 lineto
76471.4 97001.4 lineto
76414.3 96944.3 lineto
76357.1 96915.7 lineto
stroke
0 0 0 setrgbcolor
0 0 0 setrgbcolor
(DB9) 76300 94230 phantomshow
0 0 0 setrgbcolor
newpath
75557.1 93987.1 moveto
75557.1 94587.1 lineto
75700 94587.1 lineto
75785.7 94558.6 lineto
75842.9 94501.4 lineto
75871.4 94444.3 lineto
75900 94330 lineto
75900 94244.3 lineto
75871.4 94130 lineto
75842.9 94072.9 lineto
75785.7 94015.7 lineto
75700 93987.1 lineto
75557.1 93987.1 lineto
stroke
newpath
76357.1 94301.4 moveto
76442.9 94272.9 lineto
76471.4 94244.3 lineto
76500 94187.1 lineto
76500 94101.4 lineto
76471.4 94044.3 lineto
76442.9 94015.7 lineto
76385.7 93987.1 lineto
76157.1 93987.1 lineto
76157.1 94587.1 lineto
76357.1 94587.1 lineto
76414.3 94558.6 lineto
76442.9 94530 lineto
76471.4 94472.9 lineto
76471.4 94415.7 lineto
76442.9 94358.6 lineto
76414.3 94330 lineto
76357.1 94301.4 lineto
76157.1 94301.4 lineto
stroke
newpath
76785.7 93987.1 moveto
76900 93987.1 lineto
76957.1 94015.7 lineto
76985.7 94044.3 lineto
77042.9 94130 lineto
77071.4 94244.3 lineto
77071.4 94472.9 lineto
77042.9 94530 lineto
77014.3 94558.6 lineto
76957.1 94587.1 lineto
76842.9 94587.1 lineto
76785.7 94558.6 lineto
76757.1 94530 lineto
76728.6 94472.9 lineto
76728.6 94330 lineto
76757.1 94272.9 lineto
76785.7 94244.3 lineto
76842.9 94215.7 lineto
76957.1 94215.7 lineto
77014.3 94244.3 lineto
77042.9 94272.9 lineto
77071.4 94330 lineto
stroke
0 0 0 setrgbcolor
80 setlinewidth
0 0 0 setrgbcolor
(D1) 72200 90930 phantomshow
0 0 0 setrgbcolor
newpath
71904.8 90768.1 moveto
71904.8 91168.1 lineto
72000 91168.1 lineto
72057.1 91149 lineto
72095.2 91111 lineto
72114.3 91072.9 lineto
72133.3 90996.7 lineto
72133.3 90939.5 lineto
72114.3 90863.3 lineto
72095.2 90825.2 lineto
72057.1 90787.1 lineto
72000 90768.1 lineto
71904.8 90768.1 lineto
stroke
newpath
72514.3 90768.1 moveto
72285.7 90768.1 lineto
stroke
newpath
72400 90768.1 moveto
72400 91168.1 lineto
72361.9 91111 lineto
72323.8 91072.9 lineto
72285.7 91053.8 lineto
stroke
0 0 0 setrgbcolor
0 0 0 setrgbcolor
(Q1) 74400 86780 phantomshow
75 setlinewidth
0 0 0 setrgbcolor
newpath
74371.4 86630 moveto
74342.9 86644.3 lineto
74314.3 86672.9 lineto
74271.4 86715.7 lineto
74242.9 86730 lineto
74214.3 86730 lineto
stroke
newpath
74228.6 86658.6 moveto
74200 86672.9 lineto
74171.4 86701.4 lineto
74157.1 86758.6 lineto
74157.1 86858.6 lineto
74171.4 86915.7 lineto
74200 86944.3 lineto
74228.6 86958.6 lineto
74285.7 86958.6 lineto
74314.3 86944.3 lineto
74342.9 86915.7 lineto
74357.1 86858.6 lineto
74357.1 86758.6 lineto
74342.9 86701.4 lineto
74314.3 86672.9 lineto
74285.7 86658.6 lineto
74228.6 86658.6 lineto
stroke
newpath
74642.9 86658.6 moveto
74471.4 86658.6 lineto
stroke
newpath
74557.1 86658.6 moveto
74557.1 86958.6 lineto
74528.6 86915.7 lineto
74500 86887.1 lineto
74471.4 86872.9 lineto
stroke
80 setlinewidth
0 0 0 setrgbcolor
0 0 0 setrgbcolor
(Q4) 77200 89180 phantomshow
75 setlinewidth
0 0 0 setrgbcolor
newpath
77171.4 89030 moveto
77142.9 89044.3 lineto
77114.3 89072.9 lineto
77071.4 89115.7 lineto
77042.9 89130 lineto
77014.3 89130 lineto
stroke
newpath
77028.6 89058.6 moveto
77000 89072.9 lineto
76971.4 89101.4 lineto
76957.1 89158.6 lineto
76957.1 89258.6 lineto
76971.4 89315.7 lineto
77000 89344.3 lineto
77028.6 89358.6 lineto
77085.7 89358.6 lineto
77114.3 89344.3 lineto
77142.9 89315.7 lineto
77157.1 89258.6 lineto
77157.1 89158.6 lineto
77142.9 89101.4 lineto
77114.3 89072.9 lineto
77085.7 89058.6 lineto
77028.6 89058.6 lineto
stroke
newpath
77414.3 89258.6 moveto
77414.3 89058.6 lineto
stroke
newpath
77342.9 89372.9 moveto
77271.4 89158.6 lineto
77457.1 89158.6 lineto
stroke
80 setlinewidth
0 0 0 setrgbcolor
0 0 0 setrgbcolor
(Q5) 74400 90280 phantomshow
75 setlinewidth
0 0 0 setrgbcolor
newpath
74371.4 90130 moveto
74342.9 90144.3 lineto
74314.3 90172.9 lineto
74271.4 90215.7 lineto
74242.9 90230 lineto
74214.3 90230 lineto
stroke
newpath
74228.6 90158.6 moveto
74200 90172.9 lineto
74171.4 90201.4 lineto
74157.1 90258.6 lineto
74157.1 90358.6 lineto
74171.4 90415.7 lineto
74200 90444.3 lineto
74228.6 90458.6 lineto
74285.7 90458.6 lineto
74314.3 90444.3 lineto
74342.9 90415.7 lineto
74357.1 90358.6 lineto
74357.1 90258.6 lineto
74342.9 90201.4 lineto
74314.3 90172.9 lineto
74285.7 90158.6 lineto
74228.6 90158.6 lineto
stroke
newpath
74628.6 90458.6 moveto
74485.7 90458.6 lineto
74471.4 90315.7 lineto
74485.7 90330 lineto
74514.3 90344.3 lineto
74585.7 90344.3 lineto
74614.3 90330 lineto
74628.6 90315.7 lineto
74642.9 90287.1 lineto
74642.9 90215.7 lineto
74628.6 90187.1 lineto
74614.3 90172.9 lineto
74585.7 90158.6 lineto
74514.3 90158.6 lineto
74485.7 90172.9 lineto
74471.4 90187.1 lineto
stroke
80 setlinewidth
0 0 0 setrgbcolor
0 0 0 setrgbcolor
(Q3) 75450 86130 phantomshow
75 setlinewidth
0 0 0 setrgbcolor
newpath
75600 86101.4 moveto
75585.7 86072.9 lineto
75557.1 86044.3 lineto
75514.3 86001.4 lineto
75500 85972.9 lineto
75500 85944.3 lineto
stroke
newpath
75571.4 85958.6 moveto
75557.1 85930 lineto
75528.6 85901.4 lineto
75471.4 85887.1 lineto
75371.4 85887.1 lineto
75314.3 85901.4 lineto
75285.7 85930 lineto
75271.4 85958.6 lineto
75271.4 86015.7 lineto
75285.7 86044.3 lineto
75314.3 86072.9 lineto
75371.4 86087.1 lineto
75471.4 86087.1 lineto
75528.6 86072.9 lineto
75557.1 86044.3 lineto
75571.4 86015.7 lineto
75571.4 85958.6 lineto
stroke
newpath
75271.4 86187.1 moveto
75271.4 86372.9 lineto
75385.7 86272.9 lineto
75385.7 86315.7 lineto
75400 86344.3 lineto
75414.3 86358.6 lineto
75442.9 86372.9 lineto
75514.3 86372.9 lineto
75542.9 86358.6 lineto
75557.1 86344.3 lineto
75571.4 86315.7 lineto
75571.4 86230 lineto
75557.1 86201.4 lineto
75542.9 86187.1 lineto
stroke
80 setlinewidth
0 0 0 setrgbcolor
0 0 0 setrgbcolor
(Q2) 77400 86580 phantomshow
75 setlinewidth
0 0 0 setrgbcolor
newpath
77371.4 86430 moveto
77342.9 86444.3 lineto
77314.3 86472.9 lineto
77271.4 86515.7 lineto
77242.9 86530 lineto
77214.3 86530 lineto
stroke
newpath
77228.6 86458.6 moveto
77200 86472.9 lineto
77171.4 86501.4 lineto
77157.1 86558.6 lineto
77157.1 86658.6 lineto
77171.4 86715.7 lineto
77200 86744.3 lineto
77228.6 86758.6 lineto
77285.7 86758.6 lineto
77314.3 86744.3 lineto
77342.9 86715.7 lineto
77357.1 86658.6 lineto
77357.1 86558.6 lineto
77342.9 86501.4 lineto
77314.3 86472.9 lineto
77285.7 86458.6 lineto
77228.6 86458.6 lineto
stroke
newpath
77471.4 86730 moveto
77485.7 86744.3 lineto
77514.3 86758.6 lineto
77585.7 86758.6 lineto
77614.3 86744.3 lineto
77628.6 86730 lineto
77642.9 86701.4 lineto
77642.9 86672.9 lineto
77628.6 86630 lineto
77457.1 86458.6 lineto
77642.9 86458.6 lineto
stroke
80 setlinewidth
0 0 0 setrgbcolor
50 setlinewidth
0 0 0 setrgbcolor
(R11) 80250 87380 phantomshow
0 0 0 setrgbcolor
newpath
80371.4 87187.1 moveto
80228.6 87087.1 lineto
stroke
newpath
80371.4 87015.7 moveto
80071.4 87015.7 lineto
80071.4 87130 lineto
80085.7 87158.6 lineto
80100 87172.9 lineto
80128.6 87187.1 lineto
80171.4 87187.1 lineto
80200 87172.9 lineto
80214.3 87158.6 lineto
80228.6 87130 lineto
80228.6 87015.7 lineto
stroke
newpath
80371.4 87472.9 moveto
80371.4 87301.4 lineto
stroke
newpath
80371.4 87387.1 moveto
80071.4 87387.1 lineto
80114.3 87358.6 lineto
80142.9 87330 lineto
80157.1 87301.4 lineto
stroke
newpath
80371.4 87758.6 moveto
80371.4 87587.1 lineto
stroke
newpath
80371.4 87672.9 moveto
80071.4 87672.9 lineto
80114.3 87644.3 lineto
80142.9 87615.7 lineto
80157.1 87587.1 lineto
stroke
0 0 0 setrgbcolor
0 0 0 setrgbcolor
(R12) 69800 86530 phantomshow
0 0 0 setrgbcolor
newpath
69607.1 86408.6 moveto
69507.1 86551.4 lineto
stroke
newpath
69435.7 86408.6 moveto
69435.7 86708.6 lineto
69550 86708.6 lineto
69578.6 86694.3 lineto
69592.9 86680 lineto
69607.1 86651.4 lineto
69607.1 86608.6 lineto
69592.9 86580 lineto
69578.6 86565.7 lineto
69550 86551.4 lineto
69435.7 86551.4 lineto
stroke
newpath
69892.9 86408.6 moveto
69721.4 86408.6 lineto
stroke
newpath
69807.1 86408.6 moveto
69807.1 86708.6 lineto
69778.6 86665.7 lineto
69750 86637.1 lineto
69721.4 86622.9 lineto
stroke
newpath
70007.1 86680 moveto
70021.4 86694.3 lineto
70050 86708.6 lineto
70121.4 86708.6 lineto
70150 86694.3 lineto
70164.3 86680 lineto
70178.6 86651.4 lineto
70178.6 86622.9 lineto
70164.3 86580 lineto
69992.9 86408.6 lineto
70178.6 86408.6 lineto
stroke
0 0 0 setrgbcolor
0 0 0 setrgbcolor
(R13) 69800 88530 phantomshow
0 0 0 setrgbcolor
newpath
69607.1 88408.6 moveto
69507.1 88551.4 lineto
stroke
newpath
69435.7 88408.6 moveto
69435.7 88708.6 lineto
69550 88708.6 lineto
69578.6 88694.3 lineto
69592.9 88680 lineto
69607.1 88651.4 lineto
69607.1 88608.6 lineto
69592.9 88580 lineto
69578.6 88565.7 lineto
69550 88551.4 lineto
69435.7 88551.4 lineto
stroke
newpath
69892.9 88408.6 moveto
69721.4 88408.6 lineto
stroke
newpath
69807.1 88408.6 moveto
69807.1 88708.6 lineto
69778.6 88665.7 lineto
69750 88637.1 lineto
69721.4 88622.9 lineto
stroke
newpath
69992.9 88708.6 moveto
70178.6 88708.6 lineto
70078.6 88594.3 lineto
70121.4 88594.3 lineto
70150 88580 lineto
70164.3 88565.7 lineto
70178.6 88537.1 lineto
70178.6 88465.7 lineto
70164.3 88437.1 lineto
70150 88422.9 lineto
70121.4 88408.6 lineto
70035.7 88408.6 lineto
70007.1 88422.9 lineto
69992.9 88437.1 lineto
stroke
0 0 0 setrgbcolor
80 setlinewidth
0 0 0 setrgbcolor
(600) 80450 90380 phantomshow
0 0 0 setrgbcolor
newpath
80122.6 89999 moveto
80122.6 89903.8 lineto
80148.8 89856.2 lineto
80175 89832.4 lineto
80253.6 89784.8 lineto
80358.3 89761 lineto
80567.9 89761 lineto
80620.2 89784.8 lineto
80646.4 89808.6 lineto
80672.6 89856.2 lineto
80672.6 89951.4 lineto
80646.4 89999 lineto
80620.2 90022.9 lineto
80567.9 90046.7 lineto
80436.9 90046.7 lineto
80384.5 90022.9 lineto
80358.3 89999 lineto
80332.1 89951.4 lineto
80332.1 89856.2 lineto
80358.3 89808.6 lineto
80384.5 89784.8 lineto
80436.9 89761 lineto
stroke
newpath
80122.6 90356.2 moveto
80122.6 90403.8 lineto
80148.8 90451.4 lineto
80175 90475.2 lineto
80227.4 90499 lineto
80332.1 90522.9 lineto
80463.1 90522.9 lineto
80567.9 90499 lineto
80620.2 90475.2 lineto
80646.4 90451.4 lineto
80672.6 90403.8 lineto
80672.6 90356.2 lineto
80646.4 90308.6 lineto
80620.2 90284.8 lineto
80567.9 90261 lineto
80463.1 90237.1 lineto
80332.1 90237.1 lineto
80227.4 90261 lineto
80175 90284.8 lineto
80148.8 90308.6 lineto
80122.6 90356.2 lineto
stroke
newpath
80122.6 90832.4 moveto
80122.6 90880 lineto
80148.8 90927.6 lineto
80175 90951.4 lineto
80227.4 90975.2 lineto
80332.1 90999 lineto
80463.1 90999 lineto
80567.9 90975.2 lineto
80620.2 90951.4 lineto
80646.4 90927.6 lineto
80672.6 90880 lineto
80672.6 90832.4 lineto
80646.4 90784.8 lineto
80620.2 90761 lineto
80567.9 90737.1 lineto
80463.1 90713.3 lineto
80332.1 90713.3 lineto
80227.4 90737.1 lineto
80175 90761 lineto
80148.8 90784.8 lineto
80122.6 90832.4 lineto
stroke
showpage
grestore
%%EOF
