EESchema Schematic File Version 2
LIBS:power
LIBS:device
LIBS:transistors
LIBS:conn
LIBS:linear
LIBS:regul
LIBS:74xx
LIBS:cmos4000
LIBS:adc-dac
LIBS:memory
LIBS:xilinx
LIBS:special
LIBS:microcontrollers
LIBS:dsp
LIBS:microchip
LIBS:analog_switches
LIBS:motorola
LIBS:texas
LIBS:intel
LIBS:audio
LIBS:interface
LIBS:digital-audio
LIBS:philips
LIBS:display
LIBS:cypress
LIBS:siliconi
LIBS:opto
LIBS:atmel
LIBS:contrib
LIBS:valves
LIBS:com-port-module-2-cache
EELAYER 27 0
EELAYER END
$Descr A4 11693 8268
encoding utf-8
Sheet 1 1
Title ""
Date "17 jul 2015"
Rev ""
Comp ""
Comment1 ""
Comment2 ""
Comment3 ""
Comment4 ""
$EndDescr
$Comp
L CONN_4 P1
U 1 1 559E36E1
P 1800 3050
F 0 "P1" V 1750 3050 50  0000 C CNN
F 1 "CONN_4" V 1850 3050 50  0000 C CNN
F 2 "" H 1800 3050 60  0000 C CNN
F 3 "" H 1800 3050 60  0000 C CNN
	1    1800 3050
	-1   0    0    1   
$EndComp
$Comp
L NPN Q1
U 1 1 559E3778
P 2700 3000
F 0 "Q1" H 2700 2850 50  0000 R CNN
F 1 "NPN" H 2700 3150 50  0000 R CNN
F 2 "~" H 2700 3000 60  0000 C CNN
F 3 "~" H 2700 3000 60  0000 C CNN
	1    2700 3000
	1    0    0    -1  
$EndComp
$Comp
L DIODE D1
U 1 1 559E3787
P 5300 5600
F 0 "D1" H 5300 5700 40  0000 C CNN
F 1 "DIODE" H 5300 5500 40  0000 C CNN
F 2 "~" H 5300 5600 60  0000 C CNN
F 3 "~" H 5300 5600 60  0000 C CNN
	1    5300 5600
	0    1    1    0   
$EndComp
$Comp
L R R2
U 1 1 559E3796
P 2800 3550
F 0 "R2" V 2880 3550 40  0000 C CNN
F 1 "1k" V 2807 3551 40  0000 C CNN
F 2 "~" V 2730 3550 30  0000 C CNN
F 3 "~" H 2800 3550 30  0000 C CNN
	1    2800 3550
	1    0    0    -1  
$EndComp
$Comp
L JUMPER3 JP2
U 1 1 559E3822
P 4750 3250
F 0 "JP2" H 4800 3150 40  0000 L CNN
F 1 "JUMPER3" H 4750 3350 40  0000 C CNN
F 2 "~" H 4750 3250 60  0000 C CNN
F 3 "~" H 4750 3250 60  0000 C CNN
	1    4750 3250
	0    -1   -1   0   
$EndComp
$Comp
L DB9 J1
U 1 1 559E3A53
P 6800 3300
F 0 "J1" H 6800 3850 70  0000 C CNN
F 1 "DB9" H 6800 2750 70  0000 C CNN
F 2 "" H 6800 3300 60  0000 C CNN
F 3 "" H 6800 3300 60  0000 C CNN
	1    6800 3300
	1    0    0    -1  
$EndComp
$Comp
L GND #PWR01
U 1 1 559E3A65
P 2500 4100
F 0 "#PWR01" H 2500 4100 30  0001 C CNN
F 1 "GND" H 2500 4030 30  0001 C CNN
F 2 "" H 2500 4100 60  0000 C CNN
F 3 "" H 2500 4100 60  0000 C CNN
	1    2500 4100
	1    0    0    -1  
$EndComp
$Comp
L PWR_FLAG #FLG02
U 1 1 559E3A74
P 2100 3850
F 0 "#FLG02" H 2100 3945 30  0001 C CNN
F 1 "PWR_FLAG" H 2100 4030 30  0000 C CNN
F 2 "" H 2100 3850 60  0000 C CNN
F 3 "" H 2100 3850 60  0000 C CNN
	1    2100 3850
	1    0    0    -1  
$EndComp
$Comp
L R R1
U 1 1 559E3AF0
P 2500 3550
F 0 "R1" V 2580 3550 40  0000 C CNN
F 1 "10k" V 2507 3551 40  0000 C CNN
F 2 "~" V 2430 3550 30  0000 C CNN
F 3 "~" H 2500 3550 30  0000 C CNN
	1    2500 3550
	1    0    0    -1  
$EndComp
$Comp
L R R3
U 1 1 559E3B06
P 3250 3250
F 0 "R3" V 3330 3250 40  0000 C CNN
F 1 "1k" V 3257 3251 40  0000 C CNN
F 2 "~" V 3180 3250 30  0000 C CNN
F 3 "~" H 3250 3250 30  0000 C CNN
	1    3250 3250
	0    -1   -1   0   
$EndComp
$Comp
L NPN Q4
U 1 1 559E3B0F
P 3800 3250
F 0 "Q4" H 3800 3100 50  0000 R CNN
F 1 "NPN" H 3800 3400 50  0000 R CNN
F 2 "~" H 3800 3250 60  0000 C CNN
F 3 "~" H 3800 3250 60  0000 C CNN
	1    3800 3250
	1    0    0    -1  
$EndComp
$Comp
L R R6
U 1 1 559E3B1C
P 3900 2700
F 0 "R6" V 3980 2700 40  0000 C CNN
F 1 "600" V 3907 2701 40  0000 C CNN
F 2 "~" V 3830 2700 30  0000 C CNN
F 3 "~" H 3900 2700 30  0000 C CNN
	1    3900 2700
	1    0    0    -1  
$EndComp
$Comp
L R R8
U 1 1 559E3B33
P 4350 2750
F 0 "R8" V 4430 2750 40  0000 C CNN
F 1 "600" V 4357 2751 40  0000 C CNN
F 2 "~" V 4280 2750 30  0000 C CNN
F 3 "~" H 4350 2750 30  0000 C CNN
	1    4350 2750
	0    -1   -1   0   
$EndComp
Wire Wire Line
	2150 3000 2500 3000
Wire Wire Line
	2500 3000 2500 3300
Wire Wire Line
	2800 3200 2800 3300
Wire Wire Line
	3000 3250 2800 3250
Connection ~ 2800 3250
Wire Wire Line
	3500 3250 3600 3250
Wire Wire Line
	3900 3050 3900 2950
Connection ~ 2900 3250
Wire Wire Line
	3900 3450 3900 4100
Wire Wire Line
	6350 3500 5350 3500
Wire Wire Line
	5350 3500 5350 3250
Wire Wire Line
	5350 3250 4850 3250
$Comp
L GND #PWR03
U 1 1 559E3BC9
P 2800 4100
F 0 "#PWR03" H 2800 4100 30  0001 C CNN
F 1 "GND" H 2800 4030 30  0001 C CNN
F 2 "" H 2800 4100 60  0000 C CNN
F 3 "" H 2800 4100 60  0000 C CNN
	1    2800 4100
	1    0    0    -1  
$EndComp
$Comp
L GND #PWR04
U 1 1 559E3BCF
P 3900 4100
F 0 "#PWR04" H 3900 4100 30  0001 C CNN
F 1 "GND" H 3900 4030 30  0001 C CNN
F 2 "" H 3900 4100 60  0000 C CNN
F 3 "" H 3900 4100 60  0000 C CNN
	1    3900 4100
	1    0    0    -1  
$EndComp
$Comp
L GND #PWR05
U 1 1 559E3BD5
P 6200 4100
F 0 "#PWR05" H 6200 4100 30  0001 C CNN
F 1 "GND" H 6200 4030 30  0001 C CNN
F 2 "" H 6200 4100 60  0000 C CNN
F 3 "" H 6200 4100 60  0000 C CNN
	1    6200 4100
	1    0    0    -1  
$EndComp
Wire Wire Line
	2500 3800 2500 4100
Wire Wire Line
	2800 3800 2800 4100
Wire Wire Line
	6350 2900 6200 2900
Wire Wire Line
	6200 2900 6200 4100
Wire Wire Line
	2300 2300 2300 3100
Wire Wire Line
	2300 3100 2150 3100
Wire Wire Line
	2800 2800 2800 2450
Connection ~ 2800 2450
$Comp
L GND #PWR06
U 1 1 559E3C55
P 2300 4100
F 0 "#PWR06" H 2300 4100 30  0001 C CNN
F 1 "GND" H 2300 4030 30  0001 C CNN
F 2 "" H 2300 4100 60  0000 C CNN
F 3 "" H 2300 4100 60  0000 C CNN
	1    2300 4100
	1    0    0    -1  
$EndComp
Wire Wire Line
	2150 3200 2300 3200
Wire Wire Line
	2300 3200 2300 4100
$Comp
L GND #PWR07
U 1 1 559E3C9D
P 2100 4100
F 0 "#PWR07" H 2100 4100 30  0001 C CNN
F 1 "GND" H 2100 4030 30  0001 C CNN
F 2 "" H 2100 4100 60  0000 C CNN
F 3 "" H 2100 4100 60  0000 C CNN
	1    2100 4100
	1    0    0    -1  
$EndComp
Wire Wire Line
	2100 3850 2100 4100
$Comp
L PWR_FLAG #FLG08
U 1 1 559E3D51
P 2300 2300
F 0 "#FLG08" H 2300 2395 30  0001 C CNN
F 1 "PWR_FLAG" H 2300 2480 30  0000 C CNN
F 2 "" H 2300 2300 60  0000 C CNN
F 3 "" H 2300 2300 60  0000 C CNN
	1    2300 2300
	1    0    0    -1  
$EndComp
Connection ~ 2300 2450
$Comp
L NPN Q5
U 1 1 559E3D93
P 4950 5100
F 0 "Q5" H 4950 4950 50  0000 R CNN
F 1 "NPN" H 4950 5250 50  0000 R CNN
F 2 "~" H 4950 5100 60  0000 C CNN
F 3 "~" H 4950 5100 60  0000 C CNN
	1    4950 5100
	-1   0    0    -1  
$EndComp
$Comp
L R R10
U 1 1 559E3DBC
P 5650 5100
F 0 "R10" V 5730 5100 40  0000 C CNN
F 1 "600" V 5657 5101 40  0000 C CNN
F 2 "~" V 5580 5100 30  0000 C CNN
F 3 "~" H 5650 5100 30  0000 C CNN
	1    5650 5100
	0    -1   -1   0   
$EndComp
$Comp
L R R9
U 1 1 559E3DC2
P 4850 5650
F 0 "R9" V 4930 5650 40  0000 C CNN
F 1 "1k" V 4857 5651 40  0000 C CNN
F 2 "~" V 4780 5650 30  0000 C CNN
F 3 "~" H 4850 5650 30  0000 C CNN
	1    4850 5650
	1    0    0    -1  
$EndComp
$Comp
L R R7
U 1 1 559E3DD2
P 4300 5350
F 0 "R7" V 4380 5350 40  0000 C CNN
F 1 "1k" V 4307 5351 40  0000 C CNN
F 2 "~" V 4230 5350 30  0000 C CNN
F 3 "~" H 4300 5350 30  0000 C CNN
	1    4300 5350
	0    -1   -1   0   
$EndComp
$Comp
L NPN Q3
U 1 1 559E3DE2
P 3750 5350
F 0 "Q3" H 3750 5200 50  0000 R CNN
F 1 "NPN" H 3750 5500 50  0000 R CNN
F 2 "~" H 3750 5350 60  0000 C CNN
F 3 "~" H 3750 5350 60  0000 C CNN
	1    3750 5350
	-1   0    0    -1  
$EndComp
$Comp
L R R5
U 1 1 559E3DE8
P 3650 4800
F 0 "R5" V 3730 4800 40  0000 C CNN
F 1 "600" V 3657 4801 40  0000 C CNN
F 2 "~" V 3580 4800 30  0000 C CNN
F 3 "~" H 3650 4800 30  0000 C CNN
	1    3650 4800
	1    0    0    -1  
$EndComp
$Comp
L NPN Q2
U 1 1 559E3E7F
P 3350 5100
F 0 "Q2" H 3350 4950 50  0000 R CNN
F 1 "NPN" H 3350 5250 50  0000 R CNN
F 2 "~" H 3350 5100 60  0000 C CNN
F 3 "~" H 3350 5100 60  0000 C CNN
	1    3350 5100
	-1   0    0    -1  
$EndComp
$Comp
L R R4
U 1 1 559E3E85
P 3250 5650
F 0 "R4" V 3330 5650 40  0000 C CNN
F 1 "1k" V 3257 5651 40  0000 C CNN
F 2 "~" V 3180 5650 30  0000 C CNN
F 3 "~" H 3250 5650 30  0000 C CNN
	1    3250 5650
	1    0    0    -1  
$EndComp
Wire Wire Line
	5900 5100 5950 5100
Wire Wire Line
	5950 5100 5950 3300
Wire Wire Line
	5950 3300 6350 3300
NoConn ~ 6350 3000
NoConn ~ 6350 3100
NoConn ~ 6350 3200
NoConn ~ 6350 3400
NoConn ~ 6350 3600
NoConn ~ 6350 3700
Wire Wire Line
	5400 5100 5150 5100
Wire Wire Line
	5300 5400 5300 5100
Connection ~ 5300 5100
$Comp
L GND #PWR09
U 1 1 559E3EF0
P 5300 6000
F 0 "#PWR09" H 5300 6000 30  0001 C CNN
F 1 "GND" H 5300 5930 30  0001 C CNN
F 2 "" H 5300 6000 60  0000 C CNN
F 3 "" H 5300 6000 60  0000 C CNN
	1    5300 6000
	1    0    0    -1  
$EndComp
$Comp
L GND #PWR010
U 1 1 559E3EF6
P 4850 6000
F 0 "#PWR010" H 4850 6000 30  0001 C CNN
F 1 "GND" H 4850 5930 30  0001 C CNN
F 2 "" H 4850 6000 60  0000 C CNN
F 3 "" H 4850 6000 60  0000 C CNN
	1    4850 6000
	1    0    0    -1  
$EndComp
$Comp
L GND #PWR011
U 1 1 559E3EFC
P 3650 6000
F 0 "#PWR011" H 3650 6000 30  0001 C CNN
F 1 "GND" H 3650 5930 30  0001 C CNN
F 2 "" H 3650 6000 60  0000 C CNN
F 3 "" H 3650 6000 60  0000 C CNN
	1    3650 6000
	1    0    0    -1  
$EndComp
$Comp
L GND #PWR012
U 1 1 559E3F02
P 3250 6000
F 0 "#PWR012" H 3250 6000 30  0001 C CNN
F 1 "GND" H 3250 5930 30  0001 C CNN
F 2 "" H 3250 6000 60  0000 C CNN
F 3 "" H 3250 6000 60  0000 C CNN
	1    3250 6000
	1    0    0    -1  
$EndComp
Wire Wire Line
	5000 2450 5000 4400
Wire Wire Line
	5000 4400 3250 4400
Wire Wire Line
	3650 4400 3650 4550
Connection ~ 3900 2450
Wire Wire Line
	4850 4900 4850 4400
Connection ~ 4850 4400
Wire Wire Line
	5300 5800 5300 6000
Wire Wire Line
	4850 5300 4850 5400
Wire Wire Line
	4850 5900 4850 6000
Wire Wire Line
	4550 5350 4850 5350
Connection ~ 4850 5350
Wire Wire Line
	4050 5350 3950 5350
Wire Wire Line
	3650 5550 3650 6000
Wire Wire Line
	3650 5050 3650 5150
Wire Wire Line
	3550 5100 3650 5100
Connection ~ 3650 5100
Wire Wire Line
	3250 5900 3250 6000
Wire Wire Line
	3250 5300 3250 5400
Wire Wire Line
	3250 4400 3250 4900
Connection ~ 3650 4400
$Comp
L JUMPER3 JP1
U 1 1 559E4173
P 2650 5600
F 0 "JP1" H 2700 5500 40  0000 L CNN
F 1 "JUMPER3" H 2650 5700 40  0000 C CNN
F 2 "~" H 2650 5600 60  0000 C CNN
F 3 "~" H 2650 5600 60  0000 C CNN
	1    2650 5600
	0    1    -1   0   
$EndComp
Connection ~ 3250 5350
Wire Wire Line
	2650 5850 2650 6250
Wire Wire Line
	4650 6250 4650 5350
Connection ~ 4650 5350
Wire Wire Line
	2550 5600 2200 5600
Wire Wire Line
	2200 5600 2200 2900
Wire Wire Line
	2200 2900 2150 2900
Wire Wire Line
	4100 2750 2900 2750
Wire Wire Line
	2900 2750 2900 3250
Wire Wire Line
	4600 2750 4750 2750
Wire Wire Line
	4750 2750 4750 3000
Wire Wire Line
	4750 3500 4200 3500
Wire Wire Line
	4200 3500 4200 3000
Wire Wire Line
	4200 3000 3900 3000
Connection ~ 3900 3000
$Comp
L R R11
U 1 1 55A860C5
P 2550 2450
F 0 "R11" V 2630 2450 40  0000 C CNN
F 1 "0" V 2557 2451 40  0000 C CNN
F 2 "~" V 2480 2450 30  0000 C CNN
F 3 "~" H 2550 2450 30  0000 C CNN
	1    2550 2450
	0    -1   -1   0   
$EndComp
Wire Wire Line
	2800 2450 5000 2450
$Comp
L R R12
U 1 1 55A8C60F
P 3000 5350
F 0 "R12" V 3080 5350 40  0000 C CNN
F 1 "0" V 3007 5351 40  0000 C CNN
F 2 "~" V 2930 5350 30  0000 C CNN
F 3 "~" H 3000 5350 30  0000 C CNN
	1    3000 5350
	0    -1   -1   0   
$EndComp
Wire Wire Line
	2750 5350 2650 5350
$Comp
L R R13
U 1 1 55A8C6B3
P 2900 6250
F 0 "R13" V 2980 6250 40  0000 C CNN
F 1 "0" V 2907 6251 40  0000 C CNN
F 2 "~" V 2830 6250 30  0000 C CNN
F 3 "~" H 2900 6250 30  0000 C CNN
	1    2900 6250
	0    -1   -1   0   
$EndComp
Wire Wire Line
	3150 6250 4650 6250
$EndSCHEMATC
