%!PS-Adobe-3.0
%%Creator: PCBNEW
%%CreationDate: Fri Jul 17 16:38:07 2015
%%Title: /home/max/av/!мое/паяние/kicad/телеграф модульный/модуль ком порта 2/com-port-module-2-F_Cu.ps
%%Pages: 1
%%PageOrder: Ascend
%%BoundingBox: 0 0 842 1191
%%DocumentMedia: A3 842 1191 0 () ()
%%Orientation: Landscape
%%EndComments
%%BeginProlog
/line { newpath moveto lineto stroke } bind def
/cir0 { newpath 0 360 arc stroke } bind def
/cir1 { newpath 0 360 arc gsave fill grestore stroke } bind def
/cir2 { newpath 0 360 arc gsave fill grestore stroke } bind def
/arc0 { newpath arc stroke } bind def
/arc1 { newpath 4 index 4 index moveto arc closepath gsave fill
    grestore stroke } bind def
/arc2 { newpath 4 index 4 index moveto arc closepath gsave fill
    grestore stroke } bind def
/poly0 { stroke } bind def
/poly1 { closepath gsave fill grestore stroke } bind def
/poly2 { closepath gsave fill grestore stroke } bind def
/rect0 { rectstroke } bind def
/rect1 { rectfill } bind def
/rect2 { rectfill } bind def
/linemode0 { 0 setlinecap 0 setlinejoin 0 setlinewidth } bind def
/linemode1 { 1 setlinecap 1 setlinejoin } bind def
/dashedline { [200] 100 setdash } bind def
/solidline { [] 0 setdash } bind def
/phantomshow { moveto
    /KicadFont findfont 0.000001 scalefont setfont
    show } bind def
/textshow { gsave
    findfont exch scalefont setfont concat 1 scale 0 0 moveto show
    } bind def
/reencodefont {
  findfont dup length dict begin
  { 1 index /FID ne
    { def }
    { pop pop } ifelse
  } forall
  /Encoding ISOLatin1Encoding def
  currentdict
  end } bind def
/KicadFont /Helvetica reencodefont definefont pop
/KicadFont-Bold /Helvetica-Bold reencodefont definefont pop
/KicadFont-Oblique /Helvetica-Oblique reencodefont definefont pop
/KicadFont-BoldOblique /Helvetica-BoldOblique reencodefont definefont pop
%%EndProlog
%%Page: 1 1
%%BeginPageSetup
gsave
0.0072 0.0072 scale
linemode1
116930 0 translate 90 rotate
59.0551 setlinewidth
%%EndPageSetup
0 0 0 setrgbcolor
0 0 0 setrgbcolor
59.0551 setlinewidth
newpath
71229.5 86650.5 moveto
71970.5 86650.5 lineto
71970.5 86109.5 lineto
71229.5 86109.5 lineto
71229.5 86650.5 lineto
poly1
0 0 0 setrgbcolor
newpath
71229.5 85350.5 moveto
71970.5 85350.5 lineto
71970.5 84809.5 lineto
71229.5 84809.5 lineto
71229.5 85350.5 lineto
poly1
0 0 0 setrgbcolor
newpath
74429.5 86650.5 moveto
75170.5 86650.5 lineto
75170.5 86109.5 lineto
74429.5 86109.5 lineto
74429.5 86650.5 lineto
poly1
0 0 0 setrgbcolor
newpath
74429.5 85350.5 moveto
75170.5 85350.5 lineto
75170.5 84809.5 lineto
74429.5 84809.5 lineto
74429.5 85350.5 lineto
poly1
0 0 0 setrgbcolor
newpath
78429.5 88300.5 moveto
79170.5 88300.5 lineto
79170.5 87759.5 lineto
78429.5 87759.5 lineto
78429.5 88300.5 lineto
poly1
0 0 0 setrgbcolor
newpath
78429.5 87000.5 moveto
79170.5 87000.5 lineto
79170.5 86459.5 lineto
78429.5 86459.5 lineto
78429.5 87000.5 lineto
poly1
0 0 0 setrgbcolor
newpath
72829.5 86650.5 moveto
73570.5 86650.5 lineto
73570.5 86109.5 lineto
72829.5 86109.5 lineto
72829.5 86650.5 lineto
poly1
0 0 0 setrgbcolor
newpath
72829.5 85350.5 moveto
73570.5 85350.5 lineto
73570.5 84809.5 lineto
72829.5 84809.5 lineto
72829.5 85350.5 lineto
poly1
0 0 0 setrgbcolor
newpath
76170.5 87209.5 moveto
75429.5 87209.5 lineto
75429.5 87750.5 lineto
76170.5 87750.5 lineto
76170.5 87209.5 lineto
poly1
0 0 0 setrgbcolor
newpath
76170.5 88509.5 moveto
75429.5 88509.5 lineto
75429.5 89050.5 lineto
76170.5 89050.5 lineto
76170.5 88509.5 lineto
poly1
0 0 0 setrgbcolor
newpath
73120.5 88500.5 moveto
73120.5 87759.5 lineto
72579.5 87759.5 lineto
72579.5 88500.5 lineto
73120.5 88500.5 lineto
poly1
0 0 0 setrgbcolor
newpath
71820.5 88500.5 moveto
71820.5 87759.5 lineto
71279.5 87759.5 lineto
71279.5 88500.5 lineto
71820.5 88500.5 lineto
poly1
0 0 0 setrgbcolor
newpath
79170.5 88809.5 moveto
78429.5 88809.5 lineto
78429.5 89350.5 lineto
79170.5 89350.5 lineto
79170.5 88809.5 lineto
poly1
0 0 0 setrgbcolor
newpath
79170.5 90109.5 moveto
78429.5 90109.5 lineto
78429.5 90650.5 lineto
79170.5 90650.5 lineto
79170.5 90109.5 lineto
poly1
0 0 0 setrgbcolor
newpath
73120.5 89900.5 moveto
73120.5 89159.5 lineto
72579.5 89159.5 lineto
72579.5 89900.5 lineto
73120.5 89900.5 lineto
poly1
0 0 0 setrgbcolor
newpath
71820.5 89900.5 moveto
71820.5 89159.5 lineto
71279.5 89159.5 lineto
71279.5 89900.5 lineto
71820.5 89900.5 lineto
poly1
0 0 0 setrgbcolor
newpath
74479.5 90559.5 moveto
74479.5 91300.5 lineto
75020.5 91300.5 lineto
75020.5 90559.5 lineto
74479.5 90559.5 lineto
poly1
0 0 0 setrgbcolor
newpath
75779.5 90559.5 moveto
75779.5 91300.5 lineto
76320.5 91300.5 lineto
76320.5 90559.5 lineto
75779.5 90559.5 lineto
poly1
0 0 0 setrgbcolor
newpath
81529.5 87700.5 moveto
82070.5 87700.5 lineto
82070.5 87159.5 lineto
81529.5 87159.5 lineto
81529.5 87700.5 lineto
poly1
0 0 0 setrgbcolor
81800 86430 270.472 cir1
0 0 0 setrgbcolor
81800 85430 270.472 cir1
0 0 0 setrgbcolor
81800 84430 270.472 cir1
0 0 0 setrgbcolor
newpath
82070.5 88659.5 moveto
81529.5 88659.5 lineto
81529.5 89200.5 lineto
82070.5 89200.5 lineto
82070.5 88659.5 lineto
poly1
0 0 0 setrgbcolor
81800 89930 270.472 cir1
0 0 0 setrgbcolor
81800 90930 270.472 cir1
0 0 0 setrgbcolor
newpath
67729.5 88800.5 moveto
68270.5 88800.5 lineto
68270.5 88259.5 lineto
67729.5 88259.5 lineto
67729.5 88800.5 lineto
poly1
0 0 0 setrgbcolor
68000 87530 270.472 cir1
0 0 0 setrgbcolor
68000 86530 270.472 cir1
0 0 0 setrgbcolor
80850 93230 720.472 cir1
0 0 0 setrgbcolor
70850 93230 720.472 cir1
0 0 0 setrgbcolor
newpath
77729.5 91959.5 moveto
77729.5 92500.5 lineto
78270.5 92500.5 lineto
78270.5 91959.5 lineto
77729.5 91959.5 lineto
poly1
0 0 0 setrgbcolor
76900 92230 270.472 cir1
0 0 0 setrgbcolor
75800 92230 270.472 cir1
0 0 0 setrgbcolor
74750 92230 270.472 cir1
0 0 0 setrgbcolor
73650 92230 270.472 cir1
0 0 0 setrgbcolor
74200 93230 270.472 cir1
0 0 0 setrgbcolor
75300 93230 270.472 cir1
0 0 0 setrgbcolor
76350 93230 270.472 cir1
0 0 0 setrgbcolor
77450 93230 270.472 cir1
0 0 0 setrgbcolor
newpath
70945.5 91175.5 moveto
70945.5 90684.5 lineto
70454.5 90684.5 lineto
70454.5 91175.5 lineto
70945.5 91175.5 lineto
poly1
0 0 0 setrgbcolor
73700 90930 245.472 cir1
0 0 0 setrgbcolor
newpath
74900.5 87480.5 moveto
74900.5 87179.5 lineto
74599.5 87179.5 lineto
74599.5 87480.5 lineto
74900.5 87480.5 lineto
poly1
0 0 0 setrgbcolor
newpath
74200.5 87480.5 moveto
74200.5 87179.5 lineto
73899.5 87179.5 lineto
73899.5 87480.5 lineto
74200.5 87480.5 lineto
poly1
0 0 0 setrgbcolor
newpath
74550.5 88280.5 moveto
74550.5 87979.5 lineto
74249.5 87979.5 lineto
74249.5 88280.5 lineto
74550.5 88280.5 lineto
poly1
0 0 0 setrgbcolor
newpath
77700.5 89880.5 moveto
77700.5 89579.5 lineto
77399.5 89579.5 lineto
77399.5 89880.5 lineto
77700.5 89880.5 lineto
poly1
0 0 0 setrgbcolor
newpath
77000.5 89880.5 moveto
77000.5 89579.5 lineto
76699.5 89579.5 lineto
76699.5 89880.5 lineto
77000.5 89880.5 lineto
poly1
0 0 0 setrgbcolor
newpath
77350.5 90680.5 moveto
77350.5 90379.5 lineto
77049.5 90379.5 lineto
77049.5 90680.5 lineto
77350.5 90680.5 lineto
poly1
0 0 0 setrgbcolor
newpath
73899.5 89579.5 moveto
73899.5 89880.5 lineto
74200.5 89880.5 lineto
74200.5 89579.5 lineto
73899.5 89579.5 lineto
poly1
0 0 0 setrgbcolor
newpath
74599.5 89579.5 moveto
74599.5 89880.5 lineto
74900.5 89880.5 lineto
74900.5 89579.5 lineto
74599.5 89579.5 lineto
poly1
0 0 0 setrgbcolor
newpath
74249.5 88779.5 moveto
74249.5 89080.5 lineto
74550.5 89080.5 lineto
74550.5 88779.5 lineto
74249.5 88779.5 lineto
poly1
0 0 0 setrgbcolor
newpath
76150.5 85629.5 moveto
75849.5 85629.5 lineto
75849.5 85930.5 lineto
76150.5 85930.5 lineto
76150.5 85629.5 lineto
poly1
0 0 0 setrgbcolor
newpath
76150.5 86329.5 moveto
75849.5 86329.5 lineto
75849.5 86630.5 lineto
76150.5 86630.5 lineto
76150.5 86329.5 lineto
poly1
0 0 0 setrgbcolor
newpath
76950.5 85979.5 moveto
76649.5 85979.5 lineto
76649.5 86280.5 lineto
76950.5 86280.5 lineto
76950.5 85979.5 lineto
poly1
0 0 0 setrgbcolor
newpath
77900.5 87280.5 moveto
77900.5 86979.5 lineto
77599.5 86979.5 lineto
77599.5 87280.5 lineto
77900.5 87280.5 lineto
poly1
0 0 0 setrgbcolor
newpath
77200.5 87280.5 moveto
77200.5 86979.5 lineto
76899.5 86979.5 lineto
76899.5 87280.5 lineto
77200.5 87280.5 lineto
poly1
0 0 0 setrgbcolor
newpath
77550.5 88080.5 moveto
77550.5 87779.5 lineto
77249.5 87779.5 lineto
77249.5 88080.5 lineto
77550.5 88080.5 lineto
poly1
0 0 0 setrgbcolor
newpath
80620.5 86459.5 moveto
79879.5 86459.5 lineto
79879.5 87000.5 lineto
80620.5 87000.5 lineto
80620.5 86459.5 lineto
poly1
0 0 0 setrgbcolor
newpath
80620.5 87759.5 moveto
79879.5 87759.5 lineto
79879.5 88300.5 lineto
80620.5 88300.5 lineto
80620.5 87759.5 lineto
poly1
0 0 0 setrgbcolor
newpath
68879.5 86159.5 moveto
68879.5 86900.5 lineto
69420.5 86900.5 lineto
69420.5 86159.5 lineto
68879.5 86159.5 lineto
poly1
0 0 0 setrgbcolor
newpath
70179.5 86159.5 moveto
70179.5 86900.5 lineto
70720.5 86900.5 lineto
70720.5 86159.5 lineto
70179.5 86159.5 lineto
poly1
0 0 0 setrgbcolor
newpath
68879.5 88159.5 moveto
68879.5 88900.5 lineto
69420.5 88900.5 lineto
69420.5 88159.5 lineto
68879.5 88159.5 lineto
poly1
0 0 0 setrgbcolor
newpath
70179.5 88159.5 moveto
70179.5 88900.5 lineto
70720.5 88900.5 lineto
70720.5 88159.5 lineto
70179.5 88159.5 lineto
poly1
0 0 0 setrgbcolor
80400 88880 245.472 cir1
0 0 0 setrgbcolor
80400 91880 245.472 cir1
0 0 0 setrgbcolor
200 setlinewidth
newpath
82200 91730 moveto
82200 95330 lineto
stroke
0 0 0 setrgbcolor
newpath
67600 95330 moveto
67600 89330 lineto
stroke
0 0 0 setrgbcolor
newpath
82200 95330 moveto
67600 95330 lineto
stroke
0 0 0 setrgbcolor
newpath
82250 83380 moveto
67650 83380 lineto
stroke
0 0 0 setrgbcolor
newpath
67650 83380 moveto
67650 85630 lineto
stroke
0 0 0 setrgbcolor
newpath
77550 89730 moveto
80350 89730 lineto
stroke
0 0 0 setrgbcolor
newpath
81800 87830 moveto
81800 87430 lineto
stroke
0 0 0 setrgbcolor
newpath
81100 88530 moveto
81800 87830 lineto
stroke
0 0 0 setrgbcolor
newpath
81100 88980 moveto
81100 88530 lineto
stroke
0 0 0 setrgbcolor
newpath
80350 89730 moveto
81100 88980 lineto
stroke
0 0 0 setrgbcolor
100 setlinewidth
newpath
81800 87430 moveto
80900 87430 lineto
stroke
0 0 0 setrgbcolor
newpath
80900 87430 moveto
80750 87280 lineto
stroke
0 0 0 setrgbcolor
newpath
80750 87280 moveto
79800 87280 lineto
stroke
0 0 0 setrgbcolor
newpath
79800 87280 moveto
79650 87130 lineto
stroke
0 0 0 setrgbcolor
newpath
79650 87130 moveto
79650 86180 lineto
stroke
0 0 0 setrgbcolor
newpath
79650 86180 moveto
78550 85080 lineto
stroke
0 0 0 setrgbcolor
newpath
78550 85080 moveto
75750 85080 lineto
stroke
0 0 0 setrgbcolor
200 setlinewidth
newpath
74800 85080 moveto
75750 85080 lineto
stroke
0 0 0 setrgbcolor
newpath
76000 85330 moveto
76000 85780 lineto
stroke
0 0 0 setrgbcolor
newpath
75750 85080 moveto
76000 85330 lineto
stroke
0 0 0 setrgbcolor
newpath
71600 85080 moveto
74800 85080 lineto
stroke
0 0 0 setrgbcolor
newpath
71550 89530 moveto
71200 89530 lineto
stroke
0 0 0 setrgbcolor
newpath
70700 90030 moveto
70700 90930 lineto
stroke
0 0 0 setrgbcolor
newpath
71200 89530 moveto
70700 90030 lineto
stroke
0 0 0 setrgbcolor
newpath
70700 90930 moveto
71400 90930 lineto
stroke
0 0 0 setrgbcolor
newpath
72700 92230 moveto
73650 92230 lineto
stroke
0 0 0 setrgbcolor
newpath
71400 90930 moveto
72700 92230 lineto
stroke
0 0 0 setrgbcolor
100 setlinewidth
newpath
77550 89730 moveto
77550 89780 lineto
stroke
0 0 0 setrgbcolor
newpath
74150 91730 moveto
73650 92230 lineto
stroke
0 0 0 setrgbcolor
newpath
75200 91730 moveto
74150 91730 lineto
stroke
0 0 0 setrgbcolor
newpath
75400 91530 moveto
75200 91730 lineto
stroke
0 0 0 setrgbcolor
newpath
75400 90330 moveto
75400 91530 lineto
stroke
0 0 0 setrgbcolor
newpath
75600 90130 moveto
75400 90330 lineto
stroke
0 0 0 setrgbcolor
newpath
77200 90130 moveto
75600 90130 lineto
stroke
0 0 0 setrgbcolor
newpath
77550 89780 moveto
77200 90130 lineto
stroke
0 0 0 setrgbcolor
200 setlinewidth
newpath
74750 89730 moveto
74750 90930 lineto
stroke
0 0 0 setrgbcolor
newpath
74750 90930 moveto
73700 90930 lineto
stroke
0 0 0 setrgbcolor
100 setlinewidth
newpath
68000 87530 moveto
69450 87530 lineto
stroke
0 0 0 setrgbcolor
newpath
80100 84430 moveto
81800 84430 lineto
stroke
0 0 0 setrgbcolor
newpath
79750 84080 moveto
80100 84430 lineto
stroke
0 0 0 setrgbcolor
newpath
76600 84080 moveto
79750 84080 lineto
stroke
0 0 0 setrgbcolor
newpath
70950 84080 moveto
76600 84080 lineto
stroke
0 0 0 setrgbcolor
newpath
69700 85330 moveto
70950 84080 lineto
stroke
0 0 0 setrgbcolor
newpath
69700 87280 moveto
69700 85330 lineto
stroke
0 0 0 setrgbcolor
newpath
69450 87530 moveto
69700 87280 lineto
stroke
0 0 0 setrgbcolor
newpath
76350 87480 moveto
75800 87480 lineto
stroke
0 0 0 setrgbcolor
newpath
76400 87530 moveto
76350 87480 lineto
stroke
0 0 0 setrgbcolor
newpath
80700 87530 moveto
76400 87530 lineto
stroke
0 0 0 setrgbcolor
newpath
80850 87680 moveto
80700 87530 lineto
stroke
0 0 0 setrgbcolor
newpath
80850 88430 moveto
80850 87680 lineto
stroke
0 0 0 setrgbcolor
newpath
80400 88880 moveto
80850 88430 lineto
stroke
0 0 0 setrgbcolor
200 setlinewidth
newpath
74800 86380 moveto
74800 87280 lineto
stroke
0 0 0 setrgbcolor
newpath
74800 87280 moveto
74750 87330 lineto
stroke
0 0 0 setrgbcolor
newpath
75800 87480 moveto
74900 87480 lineto
stroke
0 0 0 setrgbcolor
newpath
74900 87480 moveto
74750 87330 lineto
stroke
0 0 0 setrgbcolor
newpath
81800 90930 moveto
81350 90930 lineto
stroke
0 0 0 setrgbcolor
newpath
81350 90930 moveto
80400 91880 lineto
stroke
0 0 0 setrgbcolor
newpath
81800 86430 moveto
80550 86430 lineto
stroke
0 0 0 setrgbcolor
newpath
80550 86430 moveto
80250 86730 lineto
stroke
0 0 0 setrgbcolor
newpath
69150 86530 moveto
68000 86530 lineto
stroke
0 0 0 setrgbcolor
newpath
70450 86530 moveto
71450 86530 lineto
stroke
0 0 0 setrgbcolor
newpath
71450 86530 moveto
71600 86380 lineto
stroke
0 0 0 setrgbcolor
100 setlinewidth
newpath
77750 87130 moveto
78200 87130 lineto
stroke
0 0 0 setrgbcolor
newpath
72350 85630 moveto
71600 86380 lineto
stroke
0 0 0 setrgbcolor
newpath
75500 85630 moveto
72350 85630 lineto
stroke
0 0 0 setrgbcolor
newpath
75650 85780 moveto
75500 85630 lineto
stroke
0 0 0 setrgbcolor
newpath
75650 86080 moveto
75650 85780 lineto
stroke
0 0 0 setrgbcolor
newpath
75708.6 86138.6 moveto
75650 86080 lineto
stroke
0 0 0 setrgbcolor
newpath
76291.4 86138.6 moveto
75708.6 86138.6 lineto
stroke
0 0 0 setrgbcolor
newpath
76400 86030 moveto
76291.4 86138.6 lineto
stroke
0 0 0 setrgbcolor
newpath
76400 85880 moveto
76400 86030 lineto
stroke
0 0 0 setrgbcolor
newpath
76550 85730 moveto
76400 85880 lineto
stroke
0 0 0 setrgbcolor
newpath
78800 85730 moveto
76550 85730 lineto
stroke
0 0 0 setrgbcolor
newpath
79450 86380 moveto
78800 85730 lineto
stroke
0 0 0 setrgbcolor
newpath
79450 87180 moveto
79450 86380 lineto
stroke
0 0 0 setrgbcolor
newpath
79400 87230 moveto
79450 87180 lineto
stroke
0 0 0 setrgbcolor
newpath
78300 87230 moveto
79400 87230 lineto
stroke
0 0 0 setrgbcolor
newpath
78200 87130 moveto
78300 87230 lineto
stroke
0 0 0 setrgbcolor
200 setlinewidth
newpath
71550 88130 moveto
70850 88130 lineto
stroke
0 0 0 setrgbcolor
newpath
70850 88130 moveto
70450 88530 lineto
stroke
0 0 0 setrgbcolor
newpath
71550 88130 moveto
71550 88230 lineto
stroke
0 0 0 setrgbcolor
newpath
71550 88230 moveto
72850 89530 lineto
stroke
0 0 0 setrgbcolor
newpath
74050 89730 moveto
73050 89730 lineto
stroke
0 0 0 setrgbcolor
newpath
73050 89730 moveto
72850 89530 lineto
stroke
0 0 0 setrgbcolor
newpath
69150 88530 moveto
68000 88530 lineto
stroke
0 0 0 setrgbcolor
newpath
76850 89730 moveto
76750 89730 lineto
stroke
0 0 0 setrgbcolor
newpath
76750 89730 moveto
75800 88780 lineto
stroke
0 0 0 setrgbcolor
newpath
81800 88930 moveto
80300 90430 lineto
stroke
0 0 0 setrgbcolor
newpath
78850 90430 moveto
78800 90380 lineto
stroke
0 0 0 setrgbcolor
newpath
80300 90430 moveto
78850 90430 lineto
stroke
0 0 0 setrgbcolor
newpath
77200 90530 moveto
78650 90530 lineto
stroke
0 0 0 setrgbcolor
newpath
78650 90530 moveto
78800 90380 lineto
stroke
0 0 0 setrgbcolor
100 setlinewidth
newpath
73200 86380 moveto
72750 86380 lineto
stroke
0 0 0 setrgbcolor
newpath
80650 85430 moveto
81800 85430 lineto
stroke
0 0 0 setrgbcolor
newpath
79700 84480 moveto
80650 85430 lineto
stroke
0 0 0 setrgbcolor
newpath
77100 84480 moveto
79700 84480 lineto
stroke
0 0 0 setrgbcolor
newpath
71100 84480 moveto
77100 84480 lineto
stroke
0 0 0 setrgbcolor
newpath
69950 85630 moveto
71100 84480 lineto
stroke
0 0 0 setrgbcolor
newpath
69950 87080 moveto
69950 85630 lineto
stroke
0 0 0 setrgbcolor
newpath
70000 87130 moveto
69950 87080 lineto
stroke
0 0 0 setrgbcolor
newpath
72000 87130 moveto
70000 87130 lineto
stroke
0 0 0 setrgbcolor
newpath
72750 86380 moveto
72000 87130 lineto
stroke
0 0 0 setrgbcolor
200 setlinewidth
newpath
73200 86380 moveto
73200 86480 lineto
stroke
0 0 0 setrgbcolor
newpath
73200 86480 moveto
74050 87330 lineto
stroke
0 0 0 setrgbcolor
newpath
80250 88030 moveto
78800 88030 lineto
stroke
0 0 0 setrgbcolor
newpath
77400 87930 moveto
78700 87930 lineto
stroke
0 0 0 setrgbcolor
newpath
78700 87930 moveto
78800 88030 lineto
stroke
0 0 0 setrgbcolor
newpath
78800 88030 moveto
78800 89080 lineto
stroke
0 0 0 setrgbcolor
newpath
78800 89080 moveto
77550 89080 lineto
stroke
0 0 0 setrgbcolor
newpath
76600 88130 moveto
74400 88130 lineto
stroke
0 0 0 setrgbcolor
newpath
77550 89080 moveto
76600 88130 lineto
stroke
0 0 0 setrgbcolor
newpath
74400 88930 moveto
74400 88130 lineto
stroke
0 0 0 setrgbcolor
newpath
81800 89930 moveto
81450 89930 lineto
stroke
0 0 0 setrgbcolor
newpath
77650 91480 moveto
76900 92230 lineto
stroke
0 0 0 setrgbcolor
newpath
79900 91480 moveto
77650 91480 lineto
stroke
0 0 0 setrgbcolor
newpath
81450 89930 moveto
79900 91480 lineto
stroke
0 0 0 setrgbcolor
100 setlinewidth
newpath
72850 88130 moveto
73500 88130 lineto
stroke
0 0 0 setrgbcolor
newpath
75650 86480 moveto
76000 86480 lineto
stroke
0 0 0 setrgbcolor
newpath
75400 86230 moveto
75650 86480 lineto
stroke
0 0 0 setrgbcolor
newpath
75400 85880 moveto
75400 86230 lineto
stroke
0 0 0 setrgbcolor
newpath
75350 85830 moveto
75400 85880 lineto
stroke
0 0 0 setrgbcolor
newpath
74150 85830 moveto
75350 85830 lineto
stroke
0 0 0 setrgbcolor
newpath
74100 85880 moveto
74150 85830 lineto
stroke
0 0 0 setrgbcolor
newpath
74100 86780 moveto
74100 85880 lineto
stroke
0 0 0 setrgbcolor
newpath
74200 86880 moveto
74100 86780 lineto
stroke
0 0 0 setrgbcolor
newpath
74300 86880 moveto
74200 86880 lineto
stroke
0 0 0 setrgbcolor
newpath
74400 86980 moveto
74300 86880 lineto
stroke
0 0 0 setrgbcolor
newpath
74400 87680 moveto
74400 86980 lineto
stroke
0 0 0 setrgbcolor
newpath
74350 87730 moveto
74400 87680 lineto
stroke
0 0 0 setrgbcolor
newpath
73900 87730 moveto
74350 87730 lineto
stroke
0 0 0 setrgbcolor
newpath
73500 88130 moveto
73900 87730 lineto
stroke
0 0 0 setrgbcolor
200 setlinewidth
newpath
76800 86130 moveto
78200 86130 lineto
stroke
0 0 0 setrgbcolor
newpath
78200 86130 moveto
78800 86730 lineto
stroke
0 0 0 setrgbcolor
newpath
76800 86130 moveto
76800 86880 lineto
stroke
0 0 0 setrgbcolor
newpath
76800 86880 moveto
77050 87130 lineto
stroke
0 0 0 setrgbcolor
newpath
76050 90930 moveto
76050 91280 lineto
stroke
0 0 0 setrgbcolor
newpath
75800 91530 moveto
75800 92230 lineto
stroke
0 0 0 setrgbcolor
newpath
76050 91280 moveto
75800 91530 lineto
stroke
showpage
grestore
%%EOF
