%!PS-Adobe-3.0
%%Creator: PCBNEW
%%CreationDate: Fri Jul 17 16:38:07 2015
%%Title: /home/max/av/!мое/паяние/kicad/телеграф модульный/модуль ком порта 2/com-port-module-2-B_Cu.ps
%%Pages: 1
%%PageOrder: Ascend
%%BoundingBox: 0 0 842 1191
%%DocumentMedia: A3 842 1191 0 () ()
%%Orientation: Landscape
%%EndComments
%%BeginProlog
/line { newpath moveto lineto stroke } bind def
/cir0 { newpath 0 360 arc stroke } bind def
/cir1 { newpath 0 360 arc gsave fill grestore stroke } bind def
/cir2 { newpath 0 360 arc gsave fill grestore stroke } bind def
/arc0 { newpath arc stroke } bind def
/arc1 { newpath 4 index 4 index moveto arc closepath gsave fill
    grestore stroke } bind def
/arc2 { newpath 4 index 4 index moveto arc closepath gsave fill
    grestore stroke } bind def
/poly0 { stroke } bind def
/poly1 { closepath gsave fill grestore stroke } bind def
/poly2 { closepath gsave fill grestore stroke } bind def
/rect0 { rectstroke } bind def
/rect1 { rectfill } bind def
/rect2 { rectfill } bind def
/linemode0 { 0 setlinecap 0 setlinejoin 0 setlinewidth } bind def
/linemode1 { 1 setlinecap 1 setlinejoin } bind def
/dashedline { [200] 100 setdash } bind def
/solidline { [] 0 setdash } bind def
/phantomshow { moveto
    /KicadFont findfont 0.000001 scalefont setfont
    show } bind def
/textshow { gsave
    findfont exch scalefont setfont concat 1 scale 0 0 moveto show
    } bind def
/reencodefont {
  findfont dup length dict begin
  { 1 index /FID ne
    { def }
    { pop pop } ifelse
  } forall
  /Encoding ISOLatin1Encoding def
  currentdict
  end } bind def
/KicadFont /Helvetica reencodefont definefont pop
/KicadFont-Bold /Helvetica-Bold reencodefont definefont pop
/KicadFont-Oblique /Helvetica-Oblique reencodefont definefont pop
/KicadFont-BoldOblique /Helvetica-BoldOblique reencodefont definefont pop
%%EndProlog
%%Page: 1 1
%%BeginPageSetup
gsave
0.0072 0.0072 scale
linemode1
116930 0 translate 90 rotate
59.0551 setlinewidth
%%EndPageSetup
0 0 0 setrgbcolor
0 0 0 setrgbcolor
59.0551 setlinewidth
newpath
81529.5 87700.5 moveto
82070.5 87700.5 lineto
82070.5 87159.5 lineto
81529.5 87159.5 lineto
81529.5 87700.5 lineto
poly1
0 0 0 setrgbcolor
81800 86430 270.472 cir1
0 0 0 setrgbcolor
81800 85430 270.472 cir1
0 0 0 setrgbcolor
81800 84430 270.472 cir1
0 0 0 setrgbcolor
newpath
82070.5 88659.5 moveto
81529.5 88659.5 lineto
81529.5 89200.5 lineto
82070.5 89200.5 lineto
82070.5 88659.5 lineto
poly1
0 0 0 setrgbcolor
81800 89930 270.472 cir1
0 0 0 setrgbcolor
81800 90930 270.472 cir1
0 0 0 setrgbcolor
newpath
67729.5 88800.5 moveto
68270.5 88800.5 lineto
68270.5 88259.5 lineto
67729.5 88259.5 lineto
67729.5 88800.5 lineto
poly1
0 0 0 setrgbcolor
68000 87530 270.472 cir1
0 0 0 setrgbcolor
68000 86530 270.472 cir1
0 0 0 setrgbcolor
80850 93230 720.472 cir1
0 0 0 setrgbcolor
70850 93230 720.472 cir1
0 0 0 setrgbcolor
newpath
77729.5 91959.5 moveto
77729.5 92500.5 lineto
78270.5 92500.5 lineto
78270.5 91959.5 lineto
77729.5 91959.5 lineto
poly1
0 0 0 setrgbcolor
76900 92230 270.472 cir1
0 0 0 setrgbcolor
75800 92230 270.472 cir1
0 0 0 setrgbcolor
74750 92230 270.472 cir1
0 0 0 setrgbcolor
73650 92230 270.472 cir1
0 0 0 setrgbcolor
74200 93230 270.472 cir1
0 0 0 setrgbcolor
75300 93230 270.472 cir1
0 0 0 setrgbcolor
76350 93230 270.472 cir1
0 0 0 setrgbcolor
77450 93230 270.472 cir1
0 0 0 setrgbcolor
newpath
70945.5 91175.5 moveto
70945.5 90684.5 lineto
70454.5 90684.5 lineto
70454.5 91175.5 lineto
70945.5 91175.5 lineto
poly1
0 0 0 setrgbcolor
73700 90930 245.472 cir1
0 0 0 setrgbcolor
80400 88880 245.472 cir1
0 0 0 setrgbcolor
80400 91880 245.472 cir1
showpage
grestore
%%EOF
